
% frame   0
% time 0.0000
% report aster:force
%    class  identity      posX      posY    forceX    forceY    torque
         1         1   -6.0000    0.0000    0.0008   -0.0001   -0.0001
% end

% frame   1
% time 1.0000
% report aster:force
%    class  identity      posX      posY    forceX    forceY    torque
         1         1   -7.9643   -0.0013   10.9816   -1.6492    0.0965
% end

% frame   2
% time 2.0000
% report aster:force
%    class  identity      posX      posY    forceX    forceY    torque
         1         1   -7.9560   -0.0048   15.1958    3.3025   -0.0430
% end

% frame   3
% time 3.0000
% report aster:force
%    class  identity      posX      posY    forceX    forceY    torque
         1         1   -7.9834    0.0006   17.6066   -4.3762   -0.0041
% end

% frame   4
% time 4.0000
% report aster:force
%    class  identity      posX      posY    forceX    forceY    torque
         1         1   -7.9548   -0.0040   22.1867   -2.8829   -0.2241
% end

% frame   5
% time 5.0000
% report aster:force
%    class  identity      posX      posY    forceX    forceY    torque
         1         1   -7.9591    0.0050   26.8787    1.5838   -0.3297
% end

% frame   6
% time 6.0000
% report aster:force
%    class  identity      posX      posY    forceX    forceY    torque
         1         1   -7.9777    0.0063   18.2081   -2.9125   -0.1122
% end

% frame   7
% time 7.0000
% report aster:force
%    class  identity      posX      posY    forceX    forceY    torque
         1         1   -7.9861    0.0073   13.8304    2.1659   -0.1090
% end

% frame   8
% time 8.0000
% report aster:force
%    class  identity      posX      posY    forceX    forceY    torque
         1         1   -7.9808    0.0036   15.0524   -3.1463    0.2543
% end

% frame   9
% time 9.0000
% report aster:force
%    class  identity      posX      posY    forceX    forceY    torque
         1         1   -7.9535   -0.0037   28.5132   -3.7961    0.0513
% end

% frame   10
% time 10.0000
% report aster:force
%    class  identity      posX      posY    forceX    forceY    torque
         1         1   -7.9781    0.0006   21.4579    1.1033   -0.0669
% end

% frame   11
% time 11.0000
% report aster:force
%    class  identity      posX      posY    forceX    forceY    torque
         1         1   -7.9900   -0.0108   23.6538   -1.2810    0.0205
% end

% frame   12
% time 12.0000
% report aster:force
%    class  identity      posX      posY    forceX    forceY    torque
         1         1   -7.9460   -0.0003   38.5903    0.3031    0.1735
% end

% frame   13
% time 13.0000
% report aster:force
%    class  identity      posX      posY    forceX    forceY    torque
         1         1   -7.9309    0.0046   47.1188    0.0728   -0.0856
% end

% frame   14
% time 14.0000
% report aster:force
%    class  identity      posX      posY    forceX    forceY    torque
         1         1   -7.9804   -0.0027   42.2573   -3.1424   -0.4637
% end

% frame   15
% time 15.0000
% report aster:force
%    class  identity      posX      posY    forceX    forceY    torque
         1         1   -7.9757    0.0050   41.6960    1.8922   -0.3772
% end

% frame   16
% time 16.0000
% report aster:force
%    class  identity      posX      posY    forceX    forceY    torque
         1         1   -7.9685   -0.0043   46.3622    2.4110   -0.0998
% end

% frame   17
% time 17.0000
% report aster:force
%    class  identity      posX      posY    forceX    forceY    torque
         1         1   -7.9781    0.0037   39.1370   -0.2350    0.4430
% end

% frame   18
% time 18.0000
% report aster:force
%    class  identity      posX      posY    forceX    forceY    torque
         1         1   -7.9730   -0.0015   52.5082   -0.5169   -0.5249
% end

% frame   19
% time 19.0000
% report aster:force
%    class  identity      posX      posY    forceX    forceY    torque
         1         1   -7.9660   -0.0039   59.8096    1.8143    0.1810
% end

% frame   20
% time 20.0000
% report aster:force
%    class  identity      posX      posY    forceX    forceY    torque
         1         1   -7.9770    0.0003   58.8968   -4.1205    0.5818
% end

% frame   21
% time 21.0000
% report aster:force
%    class  identity      posX      posY    forceX    forceY    torque
         1         1   -7.9884    0.0035   58.0572   -3.3626   -0.4076
% end

% frame   22
% time 22.0000
% report aster:force
%    class  identity      posX      posY    forceX    forceY    torque
         1         1   -7.9721   -0.0074   60.4414   -4.8472   -0.2305
% end

% frame   23
% time 23.0000
% report aster:force
%    class  identity      posX      posY    forceX    forceY    torque
         1         1   -7.9687   -0.0020   64.2445   -5.1838   -0.1116
% end

% frame   24
% time 24.0000
% report aster:force
%    class  identity      posX      posY    forceX    forceY    torque
         1         1   -7.9816    0.0020   59.4327   -2.8958   -0.3177
% end

% frame   25
% time 25.0000
% report aster:force
%    class  identity      posX      posY    forceX    forceY    torque
         1         1   -7.9649    0.0032   60.8132   -4.3199    0.0522
% end

% frame   26
% time 26.0000
% report aster:force
%    class  identity      posX      posY    forceX    forceY    torque
         1         1   -7.9773    0.0050   49.0929   -8.5750   -0.0944
% end

% frame   27
% time 27.0000
% report aster:force
%    class  identity      posX      posY    forceX    forceY    torque
         1         1   -7.9776   -0.0076   48.1301   -8.4324    0.2253
% end

% frame   28
% time 28.0000
% report aster:force
%    class  identity      posX      posY    forceX    forceY    torque
         1         1   -7.9747    0.0032   41.0193   -1.7258   -0.3060
% end

% frame   29
% time 29.0000
% report aster:force
%    class  identity      posX      posY    forceX    forceY    torque
         1         1   -7.9891   -0.0012   40.0713   -5.7869    0.0303
% end

% frame   30
% time 30.0000
% report aster:force
%    class  identity      posX      posY    forceX    forceY    torque
         1         1   -7.9651    0.0140   45.8259   -4.8245   -0.0100
% end

% frame   31
% time 31.0000
% report aster:force
%    class  identity      posX      posY    forceX    forceY    torque
         1         1   -7.9862    0.0009   50.8300   -6.4161   -0.1347
% end

% frame   32
% time 32.0000
% report aster:force
%    class  identity      posX      posY    forceX    forceY    torque
         1         1   -7.9966    0.0019   40.5655    3.5687    0.2229
% end

% frame   33
% time 33.0000
% report aster:force
%    class  identity      posX      posY    forceX    forceY    torque
         1         1   -7.9720   -0.0101   34.6307   -0.4334    0.2665
% end

% frame   34
% time 34.0000
% report aster:force
%    class  identity      posX      posY    forceX    forceY    torque
         1         1   -7.9768   -0.0050   42.9365    5.3085    0.0071
% end

% frame   35
% time 35.0000
% report aster:force
%    class  identity      posX      posY    forceX    forceY    torque
         1         1   -7.9595    0.0074   46.4664    3.8599    0.0363
% end

% frame   36
% time 36.0000
% report aster:force
%    class  identity      posX      posY    forceX    forceY    torque
         1         1   -7.9676   -0.0041   46.8389   -4.3118   -0.2149
% end

% frame   37
% time 37.0000
% report aster:force
%    class  identity      posX      posY    forceX    forceY    torque
         1         1   -7.9842    0.0056   41.0534   -5.3939   -0.0096
% end

% frame   38
% time 38.0000
% report aster:force
%    class  identity      posX      posY    forceX    forceY    torque
         1         1   -7.9669    0.0006   48.2974   -3.0193    0.0286
% end

% frame   39
% time 39.0000
% report aster:force
%    class  identity      posX      posY    forceX    forceY    torque
         1         1   -7.9569    0.0003   50.8507   -6.3639    0.2577
% end

% frame   40
% time 40.0000
% report aster:force
%    class  identity      posX      posY    forceX    forceY    torque
         1         1   -7.9758   -0.0092   39.0978   -7.7864   -0.1643
% end

% frame   41
% time 41.0000
% report aster:force
%    class  identity      posX      posY    forceX    forceY    torque
         1         1   -7.9896   -0.0048   28.6621   -7.7014   -0.1927
% end

% frame   42
% time 42.0000
% report aster:force
%    class  identity      posX      posY    forceX    forceY    torque
         1         1   -7.9864   -0.0007   29.5948   -6.2146   -0.2575
% end

% frame   43
% time 43.0000
% report aster:force
%    class  identity      posX      posY    forceX    forceY    torque
         1         1   -7.9540   -0.0109   40.7829   -3.4798    0.3800
% end

% frame   44
% time 44.0000
% report aster:force
%    class  identity      posX      posY    forceX    forceY    torque
         1         1   -7.9812    0.0071   42.2757    0.8588   -0.3334
% end

% frame   45
% time 45.0000
% report aster:force
%    class  identity      posX      posY    forceX    forceY    torque
         1         1   -7.9830   -0.0025   33.6815  -13.9606    0.0823
% end

% frame   46
% time 46.0000
% report aster:force
%    class  identity      posX      posY    forceX    forceY    torque
         1         1   -7.9658    0.0042   35.3207   -8.2307   -0.0780
% end

% frame   47
% time 47.0000
% report aster:force
%    class  identity      posX      posY    forceX    forceY    torque
         1         1   -7.9749   -0.0030   36.2373  -13.2178   -0.3325
% end

% frame   48
% time 48.0000
% report aster:force
%    class  identity      posX      posY    forceX    forceY    torque
         1         1   -7.9762   -0.0092   37.7274   -9.7950   -0.1501
% end

% frame   49
% time 49.0000
% report aster:force
%    class  identity      posX      posY    forceX    forceY    torque
         1         1   -7.9846    0.0045   37.0598    0.3511   -0.1317
% end

% frame   50
% time 50.0000
% report aster:force
%    class  identity      posX      posY    forceX    forceY    torque
         1         1   -7.9735    0.0207   43.9482   -0.7244   -0.6640
% end

% frame   51
% time 51.0000
% report aster:force
%    class  identity      posX      posY    forceX    forceY    torque
         1         1   -7.9967    0.0065   44.9745   -1.1772    0.1334
% end

% frame   52
% time 52.0000
% report aster:force
%    class  identity      posX      posY    forceX    forceY    torque
         1         1   -7.9747   -0.0032   41.5289   -5.6207    0.4449
% end

% frame   53
% time 53.0000
% report aster:force
%    class  identity      posX      posY    forceX    forceY    torque
         1         1   -7.9744    0.0059   40.0711   -4.6942    0.3783
% end

% frame   54
% time 54.0000
% report aster:force
%    class  identity      posX      posY    forceX    forceY    torque
         1         1   -7.9693   -0.0055   50.1628   -0.3720   -0.1685
% end

% frame   55
% time 55.0000
% report aster:force
%    class  identity      posX      posY    forceX    forceY    torque
         1         1   -7.9625    0.0070   45.1269   -6.0306    0.5401
% end

% frame   56
% time 56.0000
% report aster:force
%    class  identity      posX      posY    forceX    forceY    torque
         1         1   -7.9876   -0.0060   41.4991  -12.2368   -0.1279
% end

% frame   57
% time 57.0000
% report aster:force
%    class  identity      posX      posY    forceX    forceY    torque
         1         1   -7.9759    0.0003   48.1979   -5.2986    0.1539
% end

% frame   58
% time 58.0000
% report aster:force
%    class  identity      posX      posY    forceX    forceY    torque
         1         1   -7.9786    0.0030   53.9456   -7.5032   -0.0265
% end

% frame   59
% time 59.0000
% report aster:force
%    class  identity      posX      posY    forceX    forceY    torque
         1         1   -7.9575   -0.0065   59.2864  -11.6965    0.1106
% end

% frame   60
% time 60.0000
% report aster:force
%    class  identity      posX      posY    forceX    forceY    torque
         1         1   -7.9697   -0.0016   55.4226   -8.7916   -0.2849
% end

% frame   61
% time 61.0000
% report aster:force
%    class  identity      posX      posY    forceX    forceY    torque
         1         1   -7.9586   -0.0004   67.7675   -8.3894   -0.2300
% end

% frame   62
% time 62.0000
% report aster:force
%    class  identity      posX      posY    forceX    forceY    torque
         1         1   -7.9940   -0.0145   59.9514   -0.7012   -0.5552
% end

% frame   63
% time 63.0000
% report aster:force
%    class  identity      posX      posY    forceX    forceY    torque
         1         1   -7.9861   -0.0031   41.6795    3.4970    0.1678
% end

% frame   64
% time 64.0000
% report aster:force
%    class  identity      posX      posY    forceX    forceY    torque
         1         1   -7.9792   -0.0051   46.4586   -1.0408   -0.0992
% end

% frame   65
% time 65.0000
% report aster:force
%    class  identity      posX      posY    forceX    forceY    torque
         1         1   -7.9822   -0.0001   39.8272   -4.7999   -0.3196
% end

% frame   66
% time 66.0000
% report aster:force
%    class  identity      posX      posY    forceX    forceY    torque
         1         1   -7.9799    0.0053   38.7724   -2.2848   -0.2690
% end

% frame   67
% time 67.0000
% report aster:force
%    class  identity      posX      posY    forceX    forceY    torque
         1         1   -8.0135   -0.0000   32.2287   -5.3994   -0.0922
% end

% frame   68
% time 68.0000
% report aster:force
%    class  identity      posX      posY    forceX    forceY    torque
         1         1   -7.9761   -0.0003   39.8182    0.1454   -0.0178
% end

% frame   69
% time 69.0000
% report aster:force
%    class  identity      posX      posY    forceX    forceY    torque
         1         1   -7.9597   -0.0038   45.8164   -5.3045   -0.1014
% end

% frame   70
% time 70.0000
% report aster:force
%    class  identity      posX      posY    forceX    forceY    torque
         1         1   -7.9772    0.0065   35.0409   -2.0314    0.0970
% end

% frame   71
% time 71.0000
% report aster:force
%    class  identity      posX      posY    forceX    forceY    torque
         1         1   -7.9861   -0.0106   39.7870   -2.4290   -0.0548
% end

% frame   72
% time 72.0000
% report aster:force
%    class  identity      posX      posY    forceX    forceY    torque
         1         1   -7.9726   -0.0070   41.4368   -9.0898    0.0382
% end

% frame   73
% time 73.0000
% report aster:force
%    class  identity      posX      posY    forceX    forceY    torque
         1         1   -7.9819   -0.0158   38.7998   -8.8373    0.5184
% end

% frame   74
% time 74.0000
% report aster:force
%    class  identity      posX      posY    forceX    forceY    torque
         1         1   -7.9800   -0.0033   38.8314   -2.5737    0.1119
% end

% frame   75
% time 75.0000
% report aster:force
%    class  identity      posX      posY    forceX    forceY    torque
         1         1   -7.9721    0.0045   48.0035   -1.7593    0.0817
% end

% frame   76
% time 76.0000
% report aster:force
%    class  identity      posX      posY    forceX    forceY    torque
         1         1   -7.9669    0.0067   52.4486   -6.0546   -0.2917
% end

% frame   77
% time 77.0000
% report aster:force
%    class  identity      posX      posY    forceX    forceY    torque
         1         1   -7.9764   -0.0074   47.6144  -12.8721   -0.0703
% end

% frame   78
% time 78.0000
% report aster:force
%    class  identity      posX      posY    forceX    forceY    torque
         1         1   -7.9634   -0.0065   54.2452   -3.4507    0.2060
% end

% frame   79
% time 79.0000
% report aster:force
%    class  identity      posX      posY    forceX    forceY    torque
         1         1   -7.9593   -0.0001   53.9651   -2.0434   -0.2009
% end

% frame   80
% time 80.0000
% report aster:force
%    class  identity      posX      posY    forceX    forceY    torque
         1         1   -7.9639    0.0010   50.6344   -2.6851   -0.2585
% end

% frame   81
% time 81.0000
% report aster:force
%    class  identity      posX      posY    forceX    forceY    torque
         1         1   -7.9764    0.0065   55.0742   -4.2744    0.2412
% end

% frame   82
% time 82.0000
% report aster:force
%    class  identity      posX      posY    forceX    forceY    torque
         1         1   -7.9906    0.0004   42.3606    0.2711   -0.0168
% end

% frame   83
% time 83.0000
% report aster:force
%    class  identity      posX      posY    forceX    forceY    torque
         1         1   -7.9893   -0.0008   45.5110   -2.1245   -0.1568
% end

% frame   84
% time 84.0000
% report aster:force
%    class  identity      posX      posY    forceX    forceY    torque
         1         1   -7.9905    0.0069   41.6911   -2.4651   -0.0771
% end

% frame   85
% time 85.0000
% report aster:force
%    class  identity      posX      posY    forceX    forceY    torque
         1         1   -7.9823   -0.0041   38.5484   -2.7024    0.2952
% end

% frame   86
% time 86.0000
% report aster:force
%    class  identity      posX      posY    forceX    forceY    torque
         1         1   -7.9745    0.0021   46.5256    0.3502    0.2373
% end

% frame   87
% time 87.0000
% report aster:force
%    class  identity      posX      posY    forceX    forceY    torque
         1         1   -7.9880   -0.0046   33.3546   -9.2163    0.2282
% end

% frame   88
% time 88.0000
% report aster:force
%    class  identity      posX      posY    forceX    forceY    torque
         1         1   -7.9909    0.0063   47.1698    2.1100    0.0440
% end

% frame   89
% time 89.0000
% report aster:force
%    class  identity      posX      posY    forceX    forceY    torque
         1         1   -7.9931    0.0000   38.2546   -7.2790   -0.2230
% end

% frame   90
% time 90.0000
% report aster:force
%    class  identity      posX      posY    forceX    forceY    torque
         1         1   -7.9771   -0.0041   47.5679   -5.4569    0.1039
% end

% frame   91
% time 91.0000
% report aster:force
%    class  identity      posX      posY    forceX    forceY    torque
         1         1   -7.9602   -0.0076   55.7397   -7.1224    0.4414
% end

% frame   92
% time 92.0000
% report aster:force
%    class  identity      posX      posY    forceX    forceY    torque
         1         1   -7.9643    0.0054   52.4082   -3.4392    0.1546
% end

% frame   93
% time 93.0000
% report aster:force
%    class  identity      posX      posY    forceX    forceY    torque
         1         1   -7.9605    0.0060   52.3766  -13.4619   -0.1312
% end

% frame   94
% time 94.0000
% report aster:force
%    class  identity      posX      posY    forceX    forceY    torque
         1         1   -7.9783   -0.0029   46.8270   -3.2765   -0.1254
% end

% frame   95
% time 95.0000
% report aster:force
%    class  identity      posX      posY    forceX    forceY    torque
         1         1   -7.9668    0.0137   56.0186    0.5920   -0.0001
% end

% frame   96
% time 96.0000
% report aster:force
%    class  identity      posX      posY    forceX    forceY    torque
         1         1   -7.9800    0.0083   45.0590  -11.2972   -0.0374
% end

% frame   97
% time 97.0000
% report aster:force
%    class  identity      posX      posY    forceX    forceY    torque
         1         1   -7.9836   -0.0003   39.8910   -4.4308    0.0340
% end

% frame   98
% time 98.0000
% report aster:force
%    class  identity      posX      posY    forceX    forceY    torque
         1         1   -8.0044    0.0067   35.3596   -5.6777   -0.3932
% end

% frame   99
% time 99.0000
% report aster:force
%    class  identity      posX      posY    forceX    forceY    torque
         1         1   -7.9836    0.0030   46.3498   -8.9095   -0.0514
% end

% frame   100
% time 100.0000
% report aster:force
%    class  identity      posX      posY    forceX    forceY    torque
         1         1   -7.9776   -0.0072   42.0771   -8.2343    0.3262
% end

% frame   101
% time 101.0000
% report aster:force
%    class  identity      posX      posY    forceX    forceY    torque
         1         1   -7.9625   -0.0086   43.5032   -8.1583    0.1237
% end

% frame   102
% time 102.0000
% report aster:force
%    class  identity      posX      posY    forceX    forceY    torque
         1         1   -7.9556    0.0015   44.3054   -9.4154    0.4824
% end

% frame   103
% time 103.0000
% report aster:force
%    class  identity      posX      posY    forceX    forceY    torque
         1         1   -7.9685   -0.0037   54.0771   -7.5908    0.5895
% end

% frame   104
% time 104.0000
% report aster:force
%    class  identity      posX      posY    forceX    forceY    torque
         1         1   -7.9656    0.0053   55.3346  -12.6274    0.1101
% end

% frame   105
% time 105.0000
% report aster:force
%    class  identity      posX      posY    forceX    forceY    torque
         1         1   -7.9637    0.0009   44.2484    1.5976   -0.0265
% end

% frame   106
% time 106.0000
% report aster:force
%    class  identity      posX      posY    forceX    forceY    torque
         1         1   -7.9676    0.0008   32.0539   -5.9472    0.0519
% end

% frame   107
% time 107.0000
% report aster:force
%    class  identity      posX      posY    forceX    forceY    torque
         1         1   -7.9646   -0.0045   41.7748  -14.0298   -0.0383
% end

% frame   108
% time 108.0000
% report aster:force
%    class  identity      posX      posY    forceX    forceY    torque
         1         1   -7.9823   -0.0027   35.1854   -0.4328    0.1583
% end

% frame   109
% time 109.0000
% report aster:force
%    class  identity      posX      posY    forceX    forceY    torque
         1         1   -7.9996    0.0016   30.3421   -7.8336    0.0500
% end

% frame   110
% time 110.0000
% report aster:force
%    class  identity      posX      posY    forceX    forceY    torque
         1         1   -7.9939    0.0018   31.9116   -9.6548    0.0759
% end

% frame   111
% time 111.0000
% report aster:force
%    class  identity      posX      posY    forceX    forceY    torque
         1         1   -7.9842    0.0001   40.2768   -9.8344    0.0343
% end

% frame   112
% time 112.0000
% report aster:force
%    class  identity      posX      posY    forceX    forceY    torque
         1         1   -7.9722    0.0074   41.2343   -3.3465    0.3205
% end

% frame   113
% time 113.0000
% report aster:force
%    class  identity      posX      posY    forceX    forceY    torque
         1         1   -7.9689   -0.0050   44.2066   -9.0493    0.1225
% end

% frame   114
% time 114.0000
% report aster:force
%    class  identity      posX      posY    forceX    forceY    torque
         1         1   -7.9887    0.0007   24.2945    2.7055    0.2136
% end

% frame   115
% time 115.0000
% report aster:force
%    class  identity      posX      posY    forceX    forceY    torque
         1         1   -7.9747    0.0018   38.9753   -1.0112    0.2492
% end

% frame   116
% time 116.0000
% report aster:force
%    class  identity      posX      posY    forceX    forceY    torque
         1         1   -7.9647    0.0013   30.2059   -8.8586   -0.0532
% end

% frame   117
% time 117.0000
% report aster:force
%    class  identity      posX      posY    forceX    forceY    torque
         1         1   -7.9897    0.0050   31.0119    1.0319   -0.2264
% end

% frame   118
% time 118.0000
% report aster:force
%    class  identity      posX      posY    forceX    forceY    torque
         1         1   -7.9938   -0.0008   36.1715  -11.1615    0.5157
% end

% frame   119
% time 119.0000
% report aster:force
%    class  identity      posX      posY    forceX    forceY    torque
         1         1   -7.9904   -0.0120   35.1780   -7.5459   -0.0324
% end

% frame   120
% time 120.0000
% report aster:force
%    class  identity      posX      posY    forceX    forceY    torque
         1         1   -7.9891   -0.0056   48.4538   -0.6755   -0.0921
% end

% frame   121
% time 121.0000
% report aster:force
%    class  identity      posX      posY    forceX    forceY    torque
         1         1   -7.9836   -0.0096   45.1651   -1.2811   -0.0362
% end

% frame   122
% time 122.0000
% report aster:force
%    class  identity      posX      posY    forceX    forceY    torque
         1         1   -7.9569   -0.0066   51.6523    2.3301    0.1727
% end

% frame   123
% time 123.0000
% report aster:force
%    class  identity      posX      posY    forceX    forceY    torque
         1         1   -7.9773    0.0024   34.2074    0.6167    0.0398
% end

% frame   124
% time 124.0000
% report aster:force
%    class  identity      posX      posY    forceX    forceY    torque
         1         1   -7.9995    0.0103   30.8065   -0.9725   -0.1964
% end

% frame   125
% time 125.0000
% report aster:force
%    class  identity      posX      posY    forceX    forceY    torque
         1         1   -7.9863   -0.0017   26.2478   -3.4409    0.2053
% end

% frame   126
% time 126.0000
% report aster:force
%    class  identity      posX      posY    forceX    forceY    torque
         1         1   -7.9659   -0.0021   38.2645   -6.4582   -0.2529
% end

% frame   127
% time 127.0000
% report aster:force
%    class  identity      posX      posY    forceX    forceY    torque
         1         1   -7.9800    0.0028   47.0428    1.2179    0.1185
% end

% frame   128
% time 128.0000
% report aster:force
%    class  identity      posX      posY    forceX    forceY    torque
         1         1   -7.9862    0.0008   42.5229    4.9627    0.2945
% end

% frame   129
% time 129.0000
% report aster:force
%    class  identity      posX      posY    forceX    forceY    torque
         1         1   -7.9762   -0.0082   48.9840    1.3845    0.1716
% end

% frame   130
% time 130.0000
% report aster:force
%    class  identity      posX      posY    forceX    forceY    torque
         1         1   -7.9695   -0.0022   55.4216    6.0024    0.2175
% end

% frame   131
% time 131.0000
% report aster:force
%    class  identity      posX      posY    forceX    forceY    torque
         1         1   -7.9739   -0.0025   50.5458    1.0776    0.4770
% end

% frame   132
% time 132.0000
% report aster:force
%    class  identity      posX      posY    forceX    forceY    torque
         1         1   -7.9668    0.0027   48.7741   -5.1801   -0.2989
% end

% frame   133
% time 133.0000
% report aster:force
%    class  identity      posX      posY    forceX    forceY    torque
         1         1   -7.9689    0.0012   47.4198   -1.7489    0.0583
% end

% frame   134
% time 134.0000
% report aster:force
%    class  identity      posX      posY    forceX    forceY    torque
         1         1   -7.9784    0.0031   46.4435   -0.2669    0.1903
% end

% frame   135
% time 135.0000
% report aster:force
%    class  identity      posX      posY    forceX    forceY    torque
         1         1   -7.9874   -0.0003   43.6571   10.0152   -0.2841
% end

% frame   136
% time 136.0000
% report aster:force
%    class  identity      posX      posY    forceX    forceY    torque
         1         1   -7.9740   -0.0067   56.5359    4.2061   -0.0900
% end

% frame   137
% time 137.0000
% report aster:force
%    class  identity      posX      posY    forceX    forceY    torque
         1         1   -7.9887    0.0057   57.1433   -0.2274   -0.0293
% end

% frame   138
% time 138.0000
% report aster:force
%    class  identity      posX      posY    forceX    forceY    torque
         1         1   -8.0067   -0.0046   49.1302    2.7290   -0.0329
% end

% frame   139
% time 139.0000
% report aster:force
%    class  identity      posX      posY    forceX    forceY    torque
         1         1   -7.9825    0.0037   44.7225   -2.6098    0.2349
% end

% frame   140
% time 140.0000
% report aster:force
%    class  identity      posX      posY    forceX    forceY    torque
         1         1   -7.9875   -0.0114   42.1751    1.7011    0.8850
% end

% frame   141
% time 141.0000
% report aster:force
%    class  identity      posX      posY    forceX    forceY    torque
         1         1   -7.9627   -0.0019   55.2837    2.3099   -0.0666
% end

% frame   142
% time 142.0000
% report aster:force
%    class  identity      posX      posY    forceX    forceY    torque
         1         1   -7.9755    0.0012   43.1674   -0.1180   -0.0726
% end

% frame   143
% time 143.0000
% report aster:force
%    class  identity      posX      posY    forceX    forceY    torque
         1         1   -7.9818   -0.0064   47.5015    4.8348    0.0509
% end

% frame   144
% time 144.0000
% report aster:force
%    class  identity      posX      posY    forceX    forceY    torque
         1         1   -7.9608   -0.0045   50.9241   -1.5524   -0.0114
% end

% frame   145
% time 145.0000
% report aster:force
%    class  identity      posX      posY    forceX    forceY    torque
         1         1   -7.9871   -0.0048   50.8484    2.0543   -0.3058
% end

% frame   146
% time 146.0000
% report aster:force
%    class  identity      posX      posY    forceX    forceY    torque
         1         1   -7.9717   -0.0060   59.1135    4.3828    0.5133
% end

% frame   147
% time 147.0000
% report aster:force
%    class  identity      posX      posY    forceX    forceY    torque
         1         1   -7.9629    0.0001   64.7269    1.2052   -0.1455
% end

% frame   148
% time 148.0000
% report aster:force
%    class  identity      posX      posY    forceX    forceY    torque
         1         1   -7.9775   -0.0005   58.9455   -7.9591    0.2394
% end

% frame   149
% time 149.0000
% report aster:force
%    class  identity      posX      posY    forceX    forceY    torque
         1         1   -7.9640   -0.0012   52.9653   -7.0839    0.0685
% end

% frame   150
% time 150.0000
% report aster:force
%    class  identity      posX      posY    forceX    forceY    torque
         1         1   -7.9729   -0.0010   41.0561    5.8807   -0.0658
% end

% frame   151
% time 151.0000
% report aster:force
%    class  identity      posX      posY    forceX    forceY    torque
         1         1   -7.9872    0.0004   33.4999    6.6005   -0.1722
% end

% frame   152
% time 152.0000
% report aster:force
%    class  identity      posX      posY    forceX    forceY    torque
         1         1   -7.9709    0.0080   40.8117   10.6247    0.5473
% end

% frame   153
% time 153.0000
% report aster:force
%    class  identity      posX      posY    forceX    forceY    torque
         1         1   -7.9897   -0.0098   35.1995   -6.4953    0.1672
% end

% frame   154
% time 154.0000
% report aster:force
%    class  identity      posX      posY    forceX    forceY    torque
         1         1   -7.9847    0.0019   33.8186   10.7085   -0.1600
% end

% frame   155
% time 155.0000
% report aster:force
%    class  identity      posX      posY    forceX    forceY    torque
         1         1   -7.9552    0.0030   53.4999   10.0824    0.1471
% end

% frame   156
% time 156.0000
% report aster:force
%    class  identity      posX      posY    forceX    forceY    torque
         1         1   -7.9764   -0.0010   48.0929    1.6276   -0.0584
% end

% frame   157
% time 157.0000
% report aster:force
%    class  identity      posX      posY    forceX    forceY    torque
         1         1   -7.9517   -0.0003   41.5703   -1.5967   -0.2286
% end

% frame   158
% time 158.0000
% report aster:force
%    class  identity      posX      posY    forceX    forceY    torque
         1         1   -7.9794   -0.0085   41.2249   -3.9623    0.1069
% end

% frame   159
% time 159.0000
% report aster:force
%    class  identity      posX      posY    forceX    forceY    torque
         1         1   -7.9884   -0.0014   36.5857   -6.6393    0.2413
% end

% frame   160
% time 160.0000
% report aster:force
%    class  identity      posX      posY    forceX    forceY    torque
         1         1   -7.9788   -0.0077   38.3512   -3.8910   -0.1675
% end

% frame   161
% time 161.0000
% report aster:force
%    class  identity      posX      posY    forceX    forceY    torque
         1         1   -7.9873    0.0033   29.0836   -0.0042    0.1127
% end

% frame   162
% time 162.0000
% report aster:force
%    class  identity      posX      posY    forceX    forceY    torque
         1         1   -7.9803    0.0024   41.9448   -3.1971   -0.5454
% end

% frame   163
% time 163.0000
% report aster:force
%    class  identity      posX      posY    forceX    forceY    torque
         1         1   -8.0067   -0.0016   27.8430    2.0078    0.4438
% end

% frame   164
% time 164.0000
% report aster:force
%    class  identity      posX      posY    forceX    forceY    torque
         1         1   -7.9937    0.0007   26.4169    5.5697   -0.0060
% end

% frame   165
% time 165.0000
% report aster:force
%    class  identity      posX      posY    forceX    forceY    torque
         1         1   -7.9762    0.0008   37.7331    0.5952   -0.3197
% end

% frame   166
% time 166.0000
% report aster:force
%    class  identity      posX      posY    forceX    forceY    torque
         1         1   -7.9773    0.0149   27.9251    5.3721    0.0327
% end

% frame   167
% time 167.0000
% report aster:force
%    class  identity      posX      posY    forceX    forceY    torque
         1         1   -7.9809   -0.0029   36.7943   -4.3229   -0.0935
% end

% frame   168
% time 168.0000
% report aster:force
%    class  identity      posX      posY    forceX    forceY    torque
         1         1   -7.9811   -0.0022   31.6891   -5.9663    0.3239
% end

% frame   169
% time 169.0000
% report aster:force
%    class  identity      posX      posY    forceX    forceY    torque
         1         1   -7.9912   -0.0043   39.2455   -4.8469    0.1178
% end

% frame   170
% time 170.0000
% report aster:force
%    class  identity      posX      posY    forceX    forceY    torque
         1         1   -7.9622   -0.0066   41.5415   -3.6264    0.0553
% end

% frame   171
% time 171.0000
% report aster:force
%    class  identity      posX      posY    forceX    forceY    torque
         1         1   -7.9541   -0.0043   50.9879  -12.5880    0.1339
% end

% frame   172
% time 172.0000
% report aster:force
%    class  identity      posX      posY    forceX    forceY    torque
         1         1   -7.9837    0.0001   44.9031    0.9612   -0.1916
% end

% frame   173
% time 173.0000
% report aster:force
%    class  identity      posX      posY    forceX    forceY    torque
         1         1   -7.9673    0.0023   52.0226    2.2382    0.1601
% end

% frame   174
% time 174.0000
% report aster:force
%    class  identity      posX      posY    forceX    forceY    torque
         1         1   -7.9688   -0.0014   38.1640   -6.8937   -0.2971
% end

% frame   175
% time 175.0000
% report aster:force
%    class  identity      posX      posY    forceX    forceY    torque
         1         1   -7.9750    0.0051   38.8873   -4.9653   -0.1799
% end

% frame   176
% time 176.0000
% report aster:force
%    class  identity      posX      posY    forceX    forceY    torque
         1         1   -7.9727    0.0015   34.7399   -2.4001    0.2639
% end

% frame   177
% time 177.0000
% report aster:force
%    class  identity      posX      posY    forceX    forceY    torque
         1         1   -7.9724   -0.0007   31.8658   11.9725    0.1370
% end

% frame   178
% time 178.0000
% report aster:force
%    class  identity      posX      posY    forceX    forceY    torque
         1         1   -7.9807   -0.0176   29.5390    1.7322    0.4411
% end

% frame   179
% time 179.0000
% report aster:force
%    class  identity      posX      posY    forceX    forceY    torque
         1         1   -7.9926   -0.0026   22.0155    7.7366   -0.2556
% end

% frame   180
% time 180.0000
% report aster:force
%    class  identity      posX      posY    forceX    forceY    torque
         1         1   -7.9860   -0.0004   28.8149   -0.4658    0.2598
% end

% frame   181
% time 181.0000
% report aster:force
%    class  identity      posX      posY    forceX    forceY    torque
         1         1   -7.9942   -0.0044   26.6478    1.5508   -0.0274
% end

% frame   182
% time 182.0000
% report aster:force
%    class  identity      posX      posY    forceX    forceY    torque
         1         1   -7.9785   -0.0009   32.7522    6.9389   -0.4400
% end

% frame   183
% time 183.0000
% report aster:force
%    class  identity      posX      posY    forceX    forceY    torque
         1         1   -7.9698    0.0009   31.6248    7.0875   -0.2105
% end

% frame   184
% time 184.0000
% report aster:force
%    class  identity      posX      posY    forceX    forceY    torque
         1         1   -7.9766   -0.0027   35.5228    0.5652    0.0656
% end

% frame   185
% time 185.0000
% report aster:force
%    class  identity      posX      posY    forceX    forceY    torque
         1         1   -7.9791   -0.0074   37.3262    4.7398   -0.5040
% end

% frame   186
% time 186.0000
% report aster:force
%    class  identity      posX      posY    forceX    forceY    torque
         1         1   -7.9672    0.0024   36.1897    1.8376   -0.0594
% end

% frame   187
% time 187.0000
% report aster:force
%    class  identity      posX      posY    forceX    forceY    torque
         1         1   -7.9756   -0.0010   38.3845    1.7640   -0.0715
% end

% frame   188
% time 188.0000
% report aster:force
%    class  identity      posX      posY    forceX    forceY    torque
         1         1   -7.9521    0.0086   45.7585    0.7919    0.1413
% end

% frame   189
% time 189.0000
% report aster:force
%    class  identity      posX      posY    forceX    forceY    torque
         1         1   -7.9550    0.0034   50.7142   -4.5319   -0.2320
% end

% frame   190
% time 190.0000
% report aster:force
%    class  identity      posX      posY    forceX    forceY    torque
         1         1   -7.9714   -0.0091   44.1677  -13.1959    0.0718
% end

% frame   191
% time 191.0000
% report aster:force
%    class  identity      posX      posY    forceX    forceY    torque
         1         1   -7.9602   -0.0089   52.2176   -0.2780   -0.0290
% end

% frame   192
% time 192.0000
% report aster:force
%    class  identity      posX      posY    forceX    forceY    torque
         1         1   -7.9748   -0.0112   43.5742    8.8476   -0.1480
% end

% frame   193
% time 193.0000
% report aster:force
%    class  identity      posX      posY    forceX    forceY    torque
         1         1   -7.9852    0.0042   37.3293   -7.8710    0.2096
% end

% frame   194
% time 194.0000
% report aster:force
%    class  identity      posX      posY    forceX    forceY    torque
         1         1   -7.9873    0.0031   45.0155   -1.4703    0.0749
% end

% frame   195
% time 195.0000
% report aster:force
%    class  identity      posX      posY    forceX    forceY    torque
         1         1   -7.9621   -0.0017   51.6438    1.2205   -0.0477
% end

% frame   196
% time 196.0000
% report aster:force
%    class  identity      posX      posY    forceX    forceY    torque
         1         1   -7.9592   -0.0022   50.0877    0.0315   -0.2346
% end

% frame   197
% time 197.0000
% report aster:force
%    class  identity      posX      posY    forceX    forceY    torque
         1         1   -7.9809    0.0019   51.4385   -5.0073   -0.2607
% end

% frame   198
% time 198.0000
% report aster:force
%    class  identity      posX      posY    forceX    forceY    torque
         1         1   -7.9866   -0.0014   48.0198   -7.5703   -0.1955
% end

% frame   199
% time 199.0000
% report aster:force
%    class  identity      posX      posY    forceX    forceY    torque
         1         1   -7.9976   -0.0051   44.8613   -2.9622   -0.2048
% end

% frame   200
% time 200.0000
% report aster:force
%    class  identity      posX      posY    forceX    forceY    torque
         1         1   -7.9689   -0.0136   57.9889    0.1445   -0.5101
% end

% frame   201
% time 201.0000
% report aster:force
%    class  identity      posX      posY    forceX    forceY    torque
         1         1   -7.9800    0.0048   54.9665    2.9139    0.2144
% end

% frame   202
% time 202.0000
% report aster:force
%    class  identity      posX      posY    forceX    forceY    torque
         1         1   -7.9548    0.0031   65.0342    2.6418   -0.1604
% end

% frame   203
% time 203.0000
% report aster:force
%    class  identity      posX      posY    forceX    forceY    torque
         1         1   -7.9545    0.0101   48.1398    3.7759    0.1268
% end

% frame   204
% time 204.0000
% report aster:force
%    class  identity      posX      posY    forceX    forceY    torque
         1         1   -7.9690    0.0053   37.1938    0.9001    0.0047
% end

% frame   205
% time 205.0000
% report aster:force
%    class  identity      posX      posY    forceX    forceY    torque
         1         1   -7.9775   -0.0071   37.9113   -6.7562    0.0334
% end

% frame   206
% time 206.0000
% report aster:force
%    class  identity      posX      posY    forceX    forceY    torque
         1         1   -7.9789    0.0084   37.4675   -7.0043    0.1319
% end

% frame   207
% time 207.0000
% report aster:force
%    class  identity      posX      posY    forceX    forceY    torque
         1         1   -7.9877    0.0001   28.6402   -0.3670    0.0737
% end

% frame   208
% time 208.0000
% report aster:force
%    class  identity      posX      posY    forceX    forceY    torque
         1         1   -7.9998   -0.0040   29.7702    1.7256   -0.3660
% end

% frame   209
% time 209.0000
% report aster:force
%    class  identity      posX      posY    forceX    forceY    torque
         1         1   -7.9515   -0.0005   45.8768    4.7589    0.5226
% end

% frame   210
% time 210.0000
% report aster:force
%    class  identity      posX      posY    forceX    forceY    torque
         1         1   -7.9797    0.0031   46.2106   -1.6028    0.4356
% end

% frame   211
% time 211.0000
% report aster:force
%    class  identity      posX      posY    forceX    forceY    torque
         1         1   -7.9783    0.0042   44.1609    0.5769   -0.0091
% end

% frame   212
% time 212.0000
% report aster:force
%    class  identity      posX      posY    forceX    forceY    torque
         1         1   -7.9911    0.0008   40.4989    2.2763   -0.1070
% end

% frame   213
% time 213.0000
% report aster:force
%    class  identity      posX      posY    forceX    forceY    torque
         1         1   -7.9874   -0.0045   41.5017   -1.8912    0.3449
% end

% frame   214
% time 214.0000
% report aster:force
%    class  identity      posX      posY    forceX    forceY    torque
         1         1   -7.9983   -0.0069   35.4706    0.0763    0.0237
% end

% frame   215
% time 215.0000
% report aster:force
%    class  identity      posX      posY    forceX    forceY    torque
         1         1   -7.9726   -0.0012   38.6477   -2.9702   -0.2093
% end

% frame   216
% time 216.0000
% report aster:force
%    class  identity      posX      posY    forceX    forceY    torque
         1         1   -7.9794   -0.0007   41.1022    3.0285   -0.3401
% end

% frame   217
% time 217.0000
% report aster:force
%    class  identity      posX      posY    forceX    forceY    torque
         1         1   -7.9782   -0.0039   35.2609    6.7442   -0.0316
% end

% frame   218
% time 218.0000
% report aster:force
%    class  identity      posX      posY    forceX    forceY    torque
         1         1   -7.9890   -0.0061   33.2819    0.0563    0.0612
% end

% frame   219
% time 219.0000
% report aster:force
%    class  identity      posX      posY    forceX    forceY    torque
         1         1   -7.9968    0.0106   42.2627    3.9094    0.1348
% end

% frame   220
% time 220.0000
% report aster:force
%    class  identity      posX      posY    forceX    forceY    torque
         1         1   -7.9691    0.0022   53.2528   -2.4849   -0.2602
% end

% frame   221
% time 221.0000
% report aster:force
%    class  identity      posX      posY    forceX    forceY    torque
         1         1   -7.9593    0.0094   46.5343   -4.5195   -0.0931
% end

% frame   222
% time 222.0000
% report aster:force
%    class  identity      posX      posY    forceX    forceY    torque
         1         1   -7.9690    0.0022   41.5310   -0.6275    0.0141
% end

% frame   223
% time 223.0000
% report aster:force
%    class  identity      posX      posY    forceX    forceY    torque
         1         1   -7.9686   -0.0012   43.9952   -6.3923   -0.2655
% end

% frame   224
% time 224.0000
% report aster:force
%    class  identity      posX      posY    forceX    forceY    torque
         1         1   -7.9606    0.0007   40.0395   -9.2225   -0.1983
% end

% frame   225
% time 225.0000
% report aster:force
%    class  identity      posX      posY    forceX    forceY    torque
         1         1   -7.9749    0.0084   33.4335   -5.7794   -0.0105
% end

% frame   226
% time 226.0000
% report aster:force
%    class  identity      posX      posY    forceX    forceY    torque
         1         1   -7.9764    0.0096   30.5144    1.8994    0.0798
% end

% frame   227
% time 227.0000
% report aster:force
%    class  identity      posX      posY    forceX    forceY    torque
         1         1   -7.9756   -0.0027   34.6596   -1.9202   -0.1169
% end

% frame   228
% time 228.0000
% report aster:force
%    class  identity      posX      posY    forceX    forceY    torque
         1         1   -7.9879   -0.0029   33.3562   -0.6439    0.3097
% end

% frame   229
% time 229.0000
% report aster:force
%    class  identity      posX      posY    forceX    forceY    torque
         1         1   -7.9961    0.0024   34.0988   -0.3286    0.1928
% end

% frame   230
% time 230.0000
% report aster:force
%    class  identity      posX      posY    forceX    forceY    torque
         1         1   -7.9974   -0.0078   26.9409   -3.9117    0.2555
% end

% frame   231
% time 231.0000
% report aster:force
%    class  identity      posX      posY    forceX    forceY    torque
         1         1   -7.9518   -0.0034   41.2172   -4.0673    0.2227
% end

% frame   232
% time 232.0000
% report aster:force
%    class  identity      posX      posY    forceX    forceY    torque
         1         1   -7.9483   -0.0080   42.9953   -3.9366    0.0515
% end

% frame   233
% time 233.0000
% report aster:force
%    class  identity      posX      posY    forceX    forceY    torque
         1         1   -7.9773   -0.0030   38.4233   -7.7450    0.3865
% end

% frame   234
% time 234.0000
% report aster:force
%    class  identity      posX      posY    forceX    forceY    torque
         1         1   -7.9731    0.0037   42.5333   -1.9409   -0.0425
% end

% frame   235
% time 235.0000
% report aster:force
%    class  identity      posX      posY    forceX    forceY    torque
         1         1   -7.9679    0.0034   35.9781    3.4529   -0.1366
% end

% frame   236
% time 236.0000
% report aster:force
%    class  identity      posX      posY    forceX    forceY    torque
         1         1   -7.9676   -0.0025   28.7361    0.1380   -0.4270
% end

% frame   237
% time 237.0000
% report aster:force
%    class  identity      posX      posY    forceX    forceY    torque
         1         1   -7.9688    0.0114   35.1393   -0.1404   -0.2626
% end

% frame   238
% time 238.0000
% report aster:force
%    class  identity      posX      posY    forceX    forceY    torque
         1         1   -7.9800    0.0074   35.2910    1.8595    0.0378
% end

% frame   239
% time 239.0000
% report aster:force
%    class  identity      posX      posY    forceX    forceY    torque
         1         1   -7.9635    0.0056   43.4776   -5.5876    0.0612
% end

% frame   240
% time 240.0000
% report aster:force
%    class  identity      posX      posY    forceX    forceY    torque
         1         1   -7.9818    0.0005   44.4008    0.9824   -0.0507
% end

% frame   241
% time 241.0000
% report aster:force
%    class  identity      posX      posY    forceX    forceY    torque
         1         1   -7.9671    0.0046   49.7728    1.2059    0.0706
% end

% frame   242
% time 242.0000
% report aster:force
%    class  identity      posX      posY    forceX    forceY    torque
         1         1   -7.9666    0.0011   47.1208   -4.4472   -0.2424
% end

% frame   243
% time 243.0000
% report aster:force
%    class  identity      posX      posY    forceX    forceY    torque
         1         1   -7.9576    0.0065   48.7973    7.7410    0.0471
% end

% frame   244
% time 244.0000
% report aster:force
%    class  identity      posX      posY    forceX    forceY    torque
         1         1   -7.9784   -0.0000   47.2550    5.2443    0.1803
% end

% frame   245
% time 245.0000
% report aster:force
%    class  identity      posX      posY    forceX    forceY    torque
         1         1   -7.9951   -0.0036   28.3004    7.3812    0.0028
% end

% frame   246
% time 246.0000
% report aster:force
%    class  identity      posX      posY    forceX    forceY    torque
         1         1   -7.9830   -0.0003   35.5238    6.1150   -0.1963
% end

% frame   247
% time 247.0000
% report aster:force
%    class  identity      posX      posY    forceX    forceY    torque
         1         1   -7.9769   -0.0001   41.4241    6.8604   -0.1222
% end

% frame   248
% time 248.0000
% report aster:force
%    class  identity      posX      posY    forceX    forceY    torque
         1         1   -7.9538    0.0050   57.8716    2.2856    0.1896
% end

% frame   249
% time 249.0000
% report aster:force
%    class  identity      posX      posY    forceX    forceY    torque
         1         1   -7.9777    0.0016   51.2351    1.1742    0.4356
% end

% frame   250
% time 250.0000
% report aster:force
%    class  identity      posX      posY    forceX    forceY    torque
         1         1   -7.9702   -0.0040   51.3729    5.2298   -0.2642
% end

% frame   251
% time 251.0000
% report aster:force
%    class  identity      posX      posY    forceX    forceY    torque
         1         1   -7.9770   -0.0001   47.2413    1.9171    0.1046
% end

% frame   252
% time 252.0000
% report aster:force
%    class  identity      posX      posY    forceX    forceY    torque
         1         1   -7.9559    0.0032   53.8676   -5.0059   -0.0418
% end

% frame   253
% time 253.0000
% report aster:force
%    class  identity      posX      posY    forceX    forceY    torque
         1         1   -7.9664    0.0043   47.6066    0.4685   -0.0670
% end

% frame   254
% time 254.0000
% report aster:force
%    class  identity      posX      posY    forceX    forceY    torque
         1         1   -7.9928   -0.0041   46.9901   -1.0040    0.2012
% end

% frame   255
% time 255.0000
% report aster:force
%    class  identity      posX      posY    forceX    forceY    torque
         1         1   -7.9842    0.0057   50.7309   -1.3796    0.0938
% end

% frame   256
% time 256.0000
% report aster:force
%    class  identity      posX      posY    forceX    forceY    torque
         1         1   -7.9844    0.0026   61.7514   -1.3629   -0.0590
% end

% frame   257
% time 257.0000
% report aster:force
%    class  identity      posX      posY    forceX    forceY    torque
         1         1   -7.9627    0.0008   62.7407   -0.0705    0.0461
% end

% frame   258
% time 258.0000
% report aster:force
%    class  identity      posX      posY    forceX    forceY    torque
         1         1   -7.9716    0.0048   51.8861   -5.0519   -0.1409
% end

% frame   259
% time 259.0000
% report aster:force
%    class  identity      posX      posY    forceX    forceY    torque
         1         1   -7.9655    0.0148   52.8961    3.0190    0.1084
% end

% frame   260
% time 260.0000
% report aster:force
%    class  identity      posX      posY    forceX    forceY    torque
         1         1   -7.9928   -0.0094   46.2892    1.8478   -0.0478
% end

% frame   261
% time 261.0000
% report aster:force
%    class  identity      posX      posY    forceX    forceY    torque
         1         1   -7.9917   -0.0051   39.9328   -5.3880    0.3044
% end

% frame   262
% time 262.0000
% report aster:force
%    class  identity      posX      posY    forceX    forceY    torque
         1         1   -7.9741   -0.0056   42.8558   -3.6228   -0.2087
% end

% frame   263
% time 263.0000
% report aster:force
%    class  identity      posX      posY    forceX    forceY    torque
         1         1   -7.9707    0.0099   40.9594    2.5675   -0.1190
% end

% frame   264
% time 264.0000
% report aster:force
%    class  identity      posX      posY    forceX    forceY    torque
         1         1   -7.9797   -0.0056   39.5440   -1.8300   -0.2585
% end

% frame   265
% time 265.0000
% report aster:force
%    class  identity      posX      posY    forceX    forceY    torque
         1         1   -7.9804    0.0058   42.1449    0.1645   -0.3417
% end

% frame   266
% time 266.0000
% report aster:force
%    class  identity      posX      posY    forceX    forceY    torque
         1         1   -7.9762    0.0042   46.0645   -4.8924    0.1031
% end

% frame   267
% time 267.0000
% report aster:force
%    class  identity      posX      posY    forceX    forceY    torque
         1         1   -7.9794   -0.0099   46.7571    0.9062   -0.3634
% end

% frame   268
% time 268.0000
% report aster:force
%    class  identity      posX      posY    forceX    forceY    torque
         1         1   -7.9749    0.0000   47.7863    2.1229   -0.2229
% end

% frame   269
% time 269.0000
% report aster:force
%    class  identity      posX      posY    forceX    forceY    torque
         1         1   -7.9729    0.0011   48.1863    1.9502   -0.4620
% end

% frame   270
% time 270.0000
% report aster:force
%    class  identity      posX      posY    forceX    forceY    torque
         1         1   -7.9958   -0.0058   43.1660   -0.0098   -0.4511
% end

% frame   271
% time 271.0000
% report aster:force
%    class  identity      posX      posY    forceX    forceY    torque
         1         1   -7.9819   -0.0062   38.0848    1.2025    0.1099
% end

% frame   272
% time 272.0000
% report aster:force
%    class  identity      posX      posY    forceX    forceY    torque
         1         1   -7.9874    0.0021   32.4353    0.2150    0.1639
% end

% frame   273
% time 273.0000
% report aster:force
%    class  identity      posX      posY    forceX    forceY    torque
         1         1   -7.9888   -0.0024   29.6934   -4.5887   -0.0218
% end

% frame   274
% time 274.0000
% report aster:force
%    class  identity      posX      posY    forceX    forceY    torque
         1         1   -7.9621    0.0169   42.0178    1.0489   -0.1351
% end

% frame   275
% time 275.0000
% report aster:force
%    class  identity      posX      posY    forceX    forceY    torque
         1         1   -7.9706   -0.0030   41.5240    0.0297   -0.2672
% end

% frame   276
% time 276.0000
% report aster:force
%    class  identity      posX      posY    forceX    forceY    torque
         1         1   -7.9720   -0.0037   44.9840    2.6550    0.0887
% end

% frame   277
% time 277.0000
% report aster:force
%    class  identity      posX      posY    forceX    forceY    torque
         1         1   -7.9674    0.0045   46.3611    5.5041    0.0812
% end

% frame   278
% time 278.0000
% report aster:force
%    class  identity      posX      posY    forceX    forceY    torque
         1         1   -7.9599    0.0012   53.2949    2.9987    0.1223
% end

% frame   279
% time 279.0000
% report aster:force
%    class  identity      posX      posY    forceX    forceY    torque
         1         1   -7.9755    0.0047   41.7970   -4.3563   -0.0136
% end

% frame   280
% time 280.0000
% report aster:force
%    class  identity      posX      posY    forceX    forceY    torque
         1         1   -7.9854    0.0004   38.5675   -7.7355   -0.2830
% end

% frame   281
% time 281.0000
% report aster:force
%    class  identity      posX      posY    forceX    forceY    torque
         1         1   -7.9603    0.0092   48.5074   -3.1508    0.0963
% end

% frame   282
% time 282.0000
% report aster:force
%    class  identity      posX      posY    forceX    forceY    torque
         1         1   -7.9757   -0.0005   57.2542   -6.2408   -0.4609
% end

% frame   283
% time 283.0000
% report aster:force
%    class  identity      posX      posY    forceX    forceY    torque
         1         1   -7.9799    0.0084   54.6296    1.0768    0.1584
% end

% frame   284
% time 284.0000
% report aster:force
%    class  identity      posX      posY    forceX    forceY    torque
         1         1   -7.9596   -0.0049   56.5559    1.7028    0.0240
% end

% frame   285
% time 285.0000
% report aster:force
%    class  identity      posX      posY    forceX    forceY    torque
         1         1   -7.9635   -0.0068   51.0001    1.9267    0.1868
% end

% frame   286
% time 286.0000
% report aster:force
%    class  identity      posX      posY    forceX    forceY    torque
         1         1   -7.9888    0.0077   37.1875   -9.9409   -0.0006
% end

% frame   287
% time 287.0000
% report aster:force
%    class  identity      posX      posY    forceX    forceY    torque
         1         1   -7.9656   -0.0056   43.9872   -5.0551   -0.0088
% end

% frame   288
% time 288.0000
% report aster:force
%    class  identity      posX      posY    forceX    forceY    torque
         1         1   -7.9662   -0.0108   42.8188  -10.6299    0.2339
% end

% frame   289
% time 289.0000
% report aster:force
%    class  identity      posX      posY    forceX    forceY    torque
         1         1   -7.9723   -0.0019   35.7843    5.0155   -0.1130
% end

% frame   290
% time 290.0000
% report aster:force
%    class  identity      posX      posY    forceX    forceY    torque
         1         1   -7.9956    0.0028   35.1288    6.7775   -0.0883
% end

% frame   291
% time 291.0000
% report aster:force
%    class  identity      posX      posY    forceX    forceY    torque
         1         1   -7.9895    0.0111   29.1645    6.7465    0.2192
% end

% frame   292
% time 292.0000
% report aster:force
%    class  identity      posX      posY    forceX    forceY    torque
         1         1   -7.9534   -0.0059   52.4204    3.1082    0.0709
% end

% frame   293
% time 293.0000
% report aster:force
%    class  identity      posX      posY    forceX    forceY    torque
         1         1   -7.9614    0.0093   51.5840    1.8901    0.3221
% end

% frame   294
% time 294.0000
% report aster:force
%    class  identity      posX      posY    forceX    forceY    torque
         1         1   -7.9831   -0.0005   38.6575   -2.0130    0.2906
% end

% frame   295
% time 295.0000
% report aster:force
%    class  identity      posX      posY    forceX    forceY    torque
         1         1   -7.9861   -0.0067   26.9718   -7.9354   -0.1208
% end

% frame   296
% time 296.0000
% report aster:force
%    class  identity      posX      posY    forceX    forceY    torque
         1         1   -7.9763    0.0066   27.6373   -4.6985    0.2286
% end

% frame   297
% time 297.0000
% report aster:force
%    class  identity      posX      posY    forceX    forceY    torque
         1         1   -7.9814   -0.0061   29.4977   -9.0012   -0.1108
% end

% frame   298
% time 298.0000
% report aster:force
%    class  identity      posX      posY    forceX    forceY    torque
         1         1   -7.9833    0.0022   35.4562  -13.3346    0.3272
% end

% frame   299
% time 299.0000
% report aster:force
%    class  identity      posX      posY    forceX    forceY    torque
         1         1   -8.0038    0.0051   31.2735    0.9820   -0.2921
% end

% frame   300
% time 300.0000
% report aster:force
%    class  identity      posX      posY    forceX    forceY    torque
         1         1   -7.9916    0.0079   41.6219   -2.5259    0.1152
% end

% frame   301
% time 301.0000
% report aster:force
%    class  identity      posX      posY    forceX    forceY    torque
         1         1   -7.9772   -0.0044   38.2190   -7.6853   -0.0049
% end

% frame   302
% time 302.0000
% report aster:force
%    class  identity      posX      posY    forceX    forceY    torque
         1         1   -7.9744    0.0081   47.7725   -2.2396   -0.4127
% end

% frame   303
% time 303.0000
% report aster:force
%    class  identity      posX      posY    forceX    forceY    torque
         1         1   -7.9674    0.0042   45.8614   -3.1267   -0.1767
% end

% frame   304
% time 304.0000
% report aster:force
%    class  identity      posX      posY    forceX    forceY    torque
         1         1   -7.9968   -0.0010   47.0670    0.6513   -0.3413
% end

% frame   305
% time 305.0000
% report aster:force
%    class  identity      posX      posY    forceX    forceY    torque
         1         1   -7.9565    0.0059   56.9400   -1.8792   -0.0282
% end

% frame   306
% time 306.0000
% report aster:force
%    class  identity      posX      posY    forceX    forceY    torque
         1         1   -7.9640   -0.0079   46.9282   -3.2308    0.0884
% end

% frame   307
% time 307.0000
% report aster:force
%    class  identity      posX      posY    forceX    forceY    torque
         1         1   -7.9866    0.0066   51.5131    0.6081   -0.1476
% end

% frame   308
% time 308.0000
% report aster:force
%    class  identity      posX      posY    forceX    forceY    torque
         1         1   -7.9748   -0.0088   49.9251   -0.5845   -0.0122
% end

% frame   309
% time 309.0000
% report aster:force
%    class  identity      posX      posY    forceX    forceY    torque
         1         1   -7.9820   -0.0047   46.7377   -5.4443    0.0830
% end

% frame   310
% time 310.0000
% report aster:force
%    class  identity      posX      posY    forceX    forceY    torque
         1         1   -7.9715   -0.0001   52.7900   -3.3684   -0.3307
% end

% frame   311
% time 311.0000
% report aster:force
%    class  identity      posX      posY    forceX    forceY    torque
         1         1   -7.9783   -0.0022   43.7038   -7.2953   -0.1165
% end

% frame   312
% time 312.0000
% report aster:force
%    class  identity      posX      posY    forceX    forceY    torque
         1         1   -7.9905    0.0030   45.9369    0.9374    0.2276
% end

% frame   313
% time 313.0000
% report aster:force
%    class  identity      posX      posY    forceX    forceY    torque
         1         1   -7.9550    0.0005   54.8244   -3.3366    0.0691
% end

% frame   314
% time 314.0000
% report aster:force
%    class  identity      posX      posY    forceX    forceY    torque
         1         1   -7.9946    0.0143   52.1531   -0.9196    0.3866
% end

% frame   315
% time 315.0000
% report aster:force
%    class  identity      posX      posY    forceX    forceY    torque
         1         1   -8.0027   -0.0059   51.9713    3.3049    0.0032
% end

% frame   316
% time 316.0000
% report aster:force
%    class  identity      posX      posY    forceX    forceY    torque
         1         1   -7.9809   -0.0074   47.5042   -3.1016    0.3119
% end

% frame   317
% time 317.0000
% report aster:force
%    class  identity      posX      posY    forceX    forceY    torque
         1         1   -7.9692    0.0010   47.7074    5.8660    0.4301
% end

% frame   318
% time 318.0000
% report aster:force
%    class  identity      posX      posY    forceX    forceY    torque
         1         1   -7.9671   -0.0072   40.8106   -1.9949   -0.0014
% end

% frame   319
% time 319.0000
% report aster:force
%    class  identity      posX      posY    forceX    forceY    torque
         1         1   -7.9910    0.0084   45.8625   -4.4478    0.1355
% end

% frame   320
% time 320.0000
% report aster:force
%    class  identity      posX      posY    forceX    forceY    torque
         1         1   -7.9909    0.0004   39.8437   -3.6931    0.1660
% end

% frame   321
% time 321.0000
% report aster:force
%    class  identity      posX      posY    forceX    forceY    torque
         1         1   -7.9634    0.0050   47.9336   -4.8494    0.2303
% end

% frame   322
% time 322.0000
% report aster:force
%    class  identity      posX      posY    forceX    forceY    torque
         1         1   -7.9605    0.0044   44.4583   -1.5625    0.0932
% end

% frame   323
% time 323.0000
% report aster:force
%    class  identity      posX      posY    forceX    forceY    torque
         1         1   -7.9978   -0.0010   44.2244   -4.6196   -0.3861
% end

% frame   324
% time 324.0000
% report aster:force
%    class  identity      posX      posY    forceX    forceY    torque
         1         1   -7.9639    0.0036   49.2117   -0.4514    0.2077
% end

% frame   325
% time 325.0000
% report aster:force
%    class  identity      posX      posY    forceX    forceY    torque
         1         1   -7.9575    0.0053   50.3949    4.6205   -0.2535
% end

% frame   326
% time 326.0000
% report aster:force
%    class  identity      posX      posY    forceX    forceY    torque
         1         1   -7.9807    0.0013   43.0269    5.3961   -0.0399
% end

% frame   327
% time 327.0000
% report aster:force
%    class  identity      posX      posY    forceX    forceY    torque
         1         1   -7.9877   -0.0081   37.1294   -1.3153    0.1804
% end

% frame   328
% time 328.0000
% report aster:force
%    class  identity      posX      posY    forceX    forceY    torque
         1         1   -7.9705   -0.0041   37.0792   -9.2205   -0.4501
% end

% frame   329
% time 329.0000
% report aster:force
%    class  identity      posX      posY    forceX    forceY    torque
         1         1   -7.9978   -0.0055   28.2609   -4.7568   -0.1046
% end

% frame   330
% time 330.0000
% report aster:force
%    class  identity      posX      posY    forceX    forceY    torque
         1         1   -7.9883   -0.0083   36.5634   -3.5442    0.1661
% end

% frame   331
% time 331.0000
% report aster:force
%    class  identity      posX      posY    forceX    forceY    torque
         1         1   -7.9823   -0.0049   42.2623   -7.1071   -0.0451
% end

% frame   332
% time 332.0000
% report aster:force
%    class  identity      posX      posY    forceX    forceY    torque
         1         1   -7.9943   -0.0015   39.6268  -10.9834    0.1191
% end

% frame   333
% time 333.0000
% report aster:force
%    class  identity      posX      posY    forceX    forceY    torque
         1         1   -7.9653   -0.0092   42.7774   -9.7140    0.3608
% end

% frame   334
% time 334.0000
% report aster:force
%    class  identity      posX      posY    forceX    forceY    torque
         1         1   -7.9936   -0.0026   46.9817  -10.9180    0.0999
% end

% frame   335
% time 335.0000
% report aster:force
%    class  identity      posX      posY    forceX    forceY    torque
         1         1   -7.9857    0.0111   40.0732   -3.1735   -0.1650
% end

% frame   336
% time 336.0000
% report aster:force
%    class  identity      posX      posY    forceX    forceY    torque
         1         1   -7.9865   -0.0021   39.2197   -3.1403    0.2859
% end

% frame   337
% time 337.0000
% report aster:force
%    class  identity      posX      posY    forceX    forceY    torque
         1         1   -7.9632    0.0018   37.8072   -3.2613   -0.3575
% end

% frame   338
% time 338.0000
% report aster:force
%    class  identity      posX      posY    forceX    forceY    torque
         1         1   -7.9723    0.0036   33.4416    4.2584   -0.0610
% end

% frame   339
% time 339.0000
% report aster:force
%    class  identity      posX      posY    forceX    forceY    torque
         1         1   -7.9770    0.0071   31.3610    1.1496   -0.0690
% end

% frame   340
% time 340.0000
% report aster:force
%    class  identity      posX      posY    forceX    forceY    torque
         1         1   -7.9904    0.0018   28.3261    9.5282   -0.3001
% end

% frame   341
% time 341.0000
% report aster:force
%    class  identity      posX      posY    forceX    forceY    torque
         1         1   -7.9777   -0.0078   44.3125    1.3003    0.4960
% end

% frame   342
% time 342.0000
% report aster:force
%    class  identity      posX      posY    forceX    forceY    torque
         1         1   -7.9727   -0.0060   32.1533   -6.4232   -0.1572
% end

% frame   343
% time 343.0000
% report aster:force
%    class  identity      posX      posY    forceX    forceY    torque
         1         1   -7.9815   -0.0075   35.6875  -16.2098    0.1296
% end

% frame   344
% time 344.0000
% report aster:force
%    class  identity      posX      posY    forceX    forceY    torque
         1         1   -7.9817    0.0108   45.5266   -3.9575   -0.3731
% end

% frame   345
% time 345.0000
% report aster:force
%    class  identity      posX      posY    forceX    forceY    torque
         1         1   -7.9831    0.0079   46.8881   -0.7932   -0.3531
% end

% frame   346
% time 346.0000
% report aster:force
%    class  identity      posX      posY    forceX    forceY    torque
         1         1   -7.9956    0.0005   45.7935   -1.7188    0.3377
% end

% frame   347
% time 347.0000
% report aster:force
%    class  identity      posX      posY    forceX    forceY    torque
         1         1   -7.9456    0.0064   61.7774   -4.1113    0.0956
% end

% frame   348
% time 348.0000
% report aster:force
%    class  identity      posX      posY    forceX    forceY    torque
         1         1   -7.9619    0.0043   50.8228   -4.2857   -0.1180
% end

% frame   349
% time 349.0000
% report aster:force
%    class  identity      posX      posY    forceX    forceY    torque
         1         1   -7.9592   -0.0040   53.3285    0.9887   -0.7090
% end

% frame   350
% time 350.0000
% report aster:force
%    class  identity      posX      posY    forceX    forceY    torque
         1         1   -7.9846   -0.0138   52.4827   -4.3214   -0.1765
% end

% frame   351
% time 351.0000
% report aster:force
%    class  identity      posX      posY    forceX    forceY    torque
         1         1   -7.9722   -0.0038   48.4932   -5.5149   -0.2058
% end

% frame   352
% time 352.0000
% report aster:force
%    class  identity      posX      posY    forceX    forceY    torque
         1         1   -7.9697   -0.0029   46.3044  -12.6000    0.1840
% end

% frame   353
% time 353.0000
% report aster:force
%    class  identity      posX      posY    forceX    forceY    torque
         1         1   -7.9736    0.0014   44.6734   -1.5188    0.2094
% end

% frame   354
% time 354.0000
% report aster:force
%    class  identity      posX      posY    forceX    forceY    torque
         1         1   -7.9864    0.0063   45.2813    3.7481   -0.2035
% end

% frame   355
% time 355.0000
% report aster:force
%    class  identity      posX      posY    forceX    forceY    torque
         1         1   -7.9743   -0.0048   39.8284   -0.2799    0.2015
% end

% frame   356
% time 356.0000
% report aster:force
%    class  identity      posX      posY    forceX    forceY    torque
         1         1   -7.9836    0.0064   45.5562   -3.3066    0.3154
% end

% frame   357
% time 357.0000
% report aster:force
%    class  identity      posX      posY    forceX    forceY    torque
         1         1   -7.9846   -0.0018   38.3124   -5.8392   -0.2192
% end

% frame   358
% time 358.0000
% report aster:force
%    class  identity      posX      posY    forceX    forceY    torque
         1         1   -7.9857   -0.0071   39.5688    3.3943   -0.1427
% end

% frame   359
% time 359.0000
% report aster:force
%    class  identity      posX      posY    forceX    forceY    torque
         1         1   -7.9751   -0.0026   44.7661   -2.9359   -0.3139
% end

% frame   360
% time 360.0000
% report aster:force
%    class  identity      posX      posY    forceX    forceY    torque
         1         1   -7.9757   -0.0051   42.5393   -6.2285    0.3653
% end

% frame   361
% time 361.0000
% report aster:force
%    class  identity      posX      posY    forceX    forceY    torque
         1         1   -7.9905    0.0067   43.9977    1.5844    0.2200
% end

% frame   362
% time 362.0000
% report aster:force
%    class  identity      posX      posY    forceX    forceY    torque
         1         1   -7.9732   -0.0023   48.4948    8.6469    0.0872
% end

% frame   363
% time 363.0000
% report aster:force
%    class  identity      posX      posY    forceX    forceY    torque
         1         1   -7.9608    0.0144   47.2374   -2.8622    0.2500
% end

% frame   364
% time 364.0000
% report aster:force
%    class  identity      posX      posY    forceX    forceY    torque
         1         1   -7.9669   -0.0010   33.3077   -5.5776   -0.0416
% end

% frame   365
% time 365.0000
% report aster:force
%    class  identity      posX      posY    forceX    forceY    torque
         1         1   -7.9886   -0.0086   31.7518    0.7100   -0.1502
% end

% frame   366
% time 366.0000
% report aster:force
%    class  identity      posX      posY    forceX    forceY    torque
         1         1   -7.9736   -0.0036   30.3479    4.6228   -0.0484
% end

% frame   367
% time 367.0000
% report aster:force
%    class  identity      posX      posY    forceX    forceY    torque
         1         1   -7.9710    0.0044   43.0126   -3.9846    0.3238
% end

% frame   368
% time 368.0000
% report aster:force
%    class  identity      posX      posY    forceX    forceY    torque
         1         1   -7.9616   -0.0089   48.7586   -6.0410   -0.4819
% end

% frame   369
% time 369.0000
% report aster:force
%    class  identity      posX      posY    forceX    forceY    torque
         1         1   -7.9800   -0.0006   41.8856    1.7428   -0.3814
% end

% frame   370
% time 370.0000
% report aster:force
%    class  identity      posX      posY    forceX    forceY    torque
         1         1   -7.9720   -0.0038   46.4226    4.5530   -0.0999
% end

% frame   371
% time 371.0000
% report aster:force
%    class  identity      posX      posY    forceX    forceY    torque
         1         1   -7.9739   -0.0088   43.8269    3.1554    0.2439
% end

% frame   372
% time 372.0000
% report aster:force
%    class  identity      posX      posY    forceX    forceY    torque
         1         1   -7.9728    0.0015   52.1251   -2.4690    0.0518
% end

% frame   373
% time 373.0000
% report aster:force
%    class  identity      posX      posY    forceX    forceY    torque
         1         1   -7.9881   -0.0106   43.9783   -3.8897   -0.1859
% end

% frame   374
% time 374.0000
% report aster:force
%    class  identity      posX      posY    forceX    forceY    torque
         1         1   -7.9959    0.0005   31.7816   -6.6128   -0.5303
% end

% frame   375
% time 375.0000
% report aster:force
%    class  identity      posX      posY    forceX    forceY    torque
         1         1   -8.0005    0.0071   35.8699    5.4362    0.2164
% end

% frame   376
% time 376.0000
% report aster:force
%    class  identity      posX      posY    forceX    forceY    torque
         1         1   -7.9761    0.0017   40.9391    0.5378   -0.1422
% end

% frame   377
% time 377.0000
% report aster:force
%    class  identity      posX      posY    forceX    forceY    torque
         1         1   -7.9894   -0.0009   42.8867   -3.1399    0.0284
% end

% frame   378
% time 378.0000
% report aster:force
%    class  identity      posX      posY    forceX    forceY    torque
         1         1   -7.9821   -0.0046   48.7433   -2.5389    0.2835
% end

% frame   379
% time 379.0000
% report aster:force
%    class  identity      posX      posY    forceX    forceY    torque
         1         1   -7.9926   -0.0172   35.4046    2.5942    0.1006
% end

% frame   380
% time 380.0000
% report aster:force
%    class  identity      posX      posY    forceX    forceY    torque
         1         1   -7.9977   -0.0136   45.7201    2.8332    0.2031
% end

% frame   381
% time 381.0000
% report aster:force
%    class  identity      posX      posY    forceX    forceY    torque
         1         1   -7.9837    0.0099   43.6612    5.2502    0.1120
% end

% frame   382
% time 382.0000
% report aster:force
%    class  identity      posX      posY    forceX    forceY    torque
         1         1   -7.9887    0.0039   40.2678    7.7270    0.0088
% end

% frame   383
% time 383.0000
% report aster:force
%    class  identity      posX      posY    forceX    forceY    torque
         1         1   -7.9777    0.0053   40.2062    0.8140    0.3913
% end

% frame   384
% time 384.0000
% report aster:force
%    class  identity      posX      posY    forceX    forceY    torque
         1         1   -7.9865   -0.0055   40.1462   -4.1278    0.1026
% end

% frame   385
% time 385.0000
% report aster:force
%    class  identity      posX      posY    forceX    forceY    torque
         1         1   -7.9697   -0.0029   40.3582   -5.0201   -0.0597
% end

% frame   386
% time 386.0000
% report aster:force
%    class  identity      posX      posY    forceX    forceY    torque
         1         1   -7.9865   -0.0017   42.7476   -3.8205    0.3378
% end

% frame   387
% time 387.0000
% report aster:force
%    class  identity      posX      posY    forceX    forceY    torque
         1         1   -7.9906   -0.0004   47.3009    0.5444   -0.1253
% end

% frame   388
% time 388.0000
% report aster:force
%    class  identity      posX      posY    forceX    forceY    torque
         1         1   -7.9726   -0.0099   49.1756   -8.3591    0.0722
% end

% frame   389
% time 389.0000
% report aster:force
%    class  identity      posX      posY    forceX    forceY    torque
         1         1   -7.9845    0.0025   39.3041   -1.3109   -0.4981
% end

% frame   390
% time 390.0000
% report aster:force
%    class  identity      posX      posY    forceX    forceY    torque
         1         1   -7.9818    0.0039   45.6923    3.4178    0.0540
% end

% frame   391
% time 391.0000
% report aster:force
%    class  identity      posX      posY    forceX    forceY    torque
         1         1   -7.9839    0.0110   40.5175    5.5743   -0.1274
% end

% frame   392
% time 392.0000
% report aster:force
%    class  identity      posX      posY    forceX    forceY    torque
         1         1   -8.0237    0.0013   31.3840    2.1592    0.2137
% end

% frame   393
% time 393.0000
% report aster:force
%    class  identity      posX      posY    forceX    forceY    torque
         1         1   -7.9717   -0.0002   40.4584    2.3805   -0.0683
% end

% frame   394
% time 394.0000
% report aster:force
%    class  identity      posX      posY    forceX    forceY    torque
         1         1   -7.9696    0.0054   50.4424   -4.7831    0.4217
% end

% frame   395
% time 395.0000
% report aster:force
%    class  identity      posX      posY    forceX    forceY    torque
         1         1   -7.9762    0.0052   52.6402    1.2973    0.0298
% end

% frame   396
% time 396.0000
% report aster:force
%    class  identity      posX      posY    forceX    forceY    torque
         1         1   -8.0002   -0.0076   43.3050    3.5940    0.1046
% end

% frame   397
% time 397.0000
% report aster:force
%    class  identity      posX      posY    forceX    forceY    torque
         1         1   -7.9956    0.0051   48.1501   -1.5283    0.0075
% end

% frame   398
% time 398.0000
% report aster:force
%    class  identity      posX      posY    forceX    forceY    torque
         1         1   -7.9803   -0.0005   53.4084    0.4805    0.0729
% end

% frame   399
% time 399.0000
% report aster:force
%    class  identity      posX      posY    forceX    forceY    torque
         1         1   -7.9826    0.0018   46.5342   -0.6795   -0.0324
% end

% frame   400
% time 400.0000
% report aster:force
%    class  identity      posX      posY    forceX    forceY    torque
         1         1   -7.9572   -0.0129   53.9950   -2.7936   -0.5293
% end

% frame   401
% time 401.0000
% report aster:force
%    class  identity      posX      posY    forceX    forceY    torque
         1         1   -7.9943   -0.0078   38.1241   -4.6794    0.2470
% end

% frame   402
% time 402.0000
% report aster:force
%    class  identity      posX      posY    forceX    forceY    torque
         1         1   -7.9803   -0.0020   46.5129   -6.1984    0.1369
% end

% frame   403
% time 403.0000
% report aster:force
%    class  identity      posX      posY    forceX    forceY    torque
         1         1   -7.9852   -0.0120   56.7465   -3.3876    0.4462
% end

% frame   404
% time 404.0000
% report aster:force
%    class  identity      posX      posY    forceX    forceY    torque
         1         1   -7.9678    0.0042   58.8302   -6.9923    0.0141
% end

% frame   405
% time 405.0000
% report aster:force
%    class  identity      posX      posY    forceX    forceY    torque
         1         1   -7.9653   -0.0010   54.9066    2.2005   -0.1750
% end

% frame   406
% time 406.0000
% report aster:force
%    class  identity      posX      posY    forceX    forceY    torque
         1         1   -7.9904   -0.0068   52.9939   -4.8820    0.1790
% end

% frame   407
% time 407.0000
% report aster:force
%    class  identity      posX      posY    forceX    forceY    torque
         1         1   -7.9887   -0.0022   52.9589   -6.6502    0.1588
% end

% frame   408
% time 408.0000
% report aster:force
%    class  identity      posX      posY    forceX    forceY    torque
         1         1   -7.9833   -0.0102   55.6849   -8.1297    0.2155
% end

% frame   409
% time 409.0000
% report aster:force
%    class  identity      posX      posY    forceX    forceY    torque
         1         1   -7.9882   -0.0048   48.4828   -2.2940    0.2115
% end

% frame   410
% time 410.0000
% report aster:force
%    class  identity      posX      posY    forceX    forceY    torque
         1         1   -7.9861    0.0040   43.4928    8.0937   -0.0393
% end

% frame   411
% time 411.0000
% report aster:force
%    class  identity      posX      posY    forceX    forceY    torque
         1         1   -7.9922    0.0052   49.8018    5.9954    0.2074
% end

% frame   412
% time 412.0000
% report aster:force
%    class  identity      posX      posY    forceX    forceY    torque
         1         1   -7.9841   -0.0044   41.2645    4.9030    0.0141
% end

% frame   413
% time 413.0000
% report aster:force
%    class  identity      posX      posY    forceX    forceY    torque
         1         1   -7.9819   -0.0001   38.4083    1.5054   -0.0219
% end

% frame   414
% time 414.0000
% report aster:force
%    class  identity      posX      posY    forceX    forceY    torque
         1         1   -7.9840   -0.0035   28.0983    0.0236    0.2577
% end

% frame   415
% time 415.0000
% report aster:force
%    class  identity      posX      posY    forceX    forceY    torque
         1         1   -7.9761    0.0017   26.5486    5.1468   -0.0744
% end

% frame   416
% time 416.0000
% report aster:force
%    class  identity      posX      posY    forceX    forceY    torque
         1         1   -7.9858    0.0043   36.3942  -11.5290    0.2399
% end

% frame   417
% time 417.0000
% report aster:force
%    class  identity      posX      posY    forceX    forceY    torque
         1         1   -7.9767    0.0060   41.9732   -3.2204   -0.1613
% end

% frame   418
% time 418.0000
% report aster:force
%    class  identity      posX      posY    forceX    forceY    torque
         1         1   -7.9829    0.0061   46.2954   -1.7574   -0.1412
% end

% frame   419
% time 419.0000
% report aster:force
%    class  identity      posX      posY    forceX    forceY    torque
         1         1   -7.9639    0.0025   45.5359    6.1257   -0.1974
% end

% frame   420
% time 420.0000
% report aster:force
%    class  identity      posX      posY    forceX    forceY    torque
         1         1   -7.9749    0.0017   43.1228   -4.1979    0.0491
% end

% frame   421
% time 421.0000
% report aster:force
%    class  identity      posX      posY    forceX    forceY    torque
         1         1   -7.9801    0.0006   39.7379    2.2576   -0.4204
% end

% frame   422
% time 422.0000
% report aster:force
%    class  identity      posX      posY    forceX    forceY    torque
         1         1   -7.9929    0.0047   38.7642   -4.6903    0.0649
% end

% frame   423
% time 423.0000
% report aster:force
%    class  identity      posX      posY    forceX    forceY    torque
         1         1   -8.0000    0.0064   39.2950   -2.1461    0.4753
% end

% frame   424
% time 424.0000
% report aster:force
%    class  identity      posX      posY    forceX    forceY    torque
         1         1   -7.9842   -0.0003   49.3812    0.5981   -0.1057
% end

% frame   425
% time 425.0000
% report aster:force
%    class  identity      posX      posY    forceX    forceY    torque
         1         1   -7.9791    0.0032   40.8142   -0.2076   -0.1680
% end

% frame   426
% time 426.0000
% report aster:force
%    class  identity      posX      posY    forceX    forceY    torque
         1         1   -7.9824    0.0070   50.4639    4.5933   -0.0120
% end

% frame   427
% time 427.0000
% report aster:force
%    class  identity      posX      posY    forceX    forceY    torque
         1         1   -7.9801    0.0019   49.3980    0.0632   -0.6011
% end

% frame   428
% time 428.0000
% report aster:force
%    class  identity      posX      posY    forceX    forceY    torque
         1         1   -7.9779    0.0013   46.7915   -3.5399    0.1662
% end

% frame   429
% time 429.0000
% report aster:force
%    class  identity      posX      posY    forceX    forceY    torque
         1         1   -7.9862   -0.0045   46.9057   -1.2223    0.2763
% end

% frame   430
% time 430.0000
% report aster:force
%    class  identity      posX      posY    forceX    forceY    torque
         1         1   -8.0153    0.0073   41.6051    0.2618    0.1655
% end

% frame   431
% time 431.0000
% report aster:force
%    class  identity      posX      posY    forceX    forceY    torque
         1         1   -7.9812   -0.0044   45.1091    0.4410   -0.3895
% end

% frame   432
% time 432.0000
% report aster:force
%    class  identity      posX      posY    forceX    forceY    torque
         1         1   -7.9596   -0.0054   58.5178   -8.0325    0.2362
% end

% frame   433
% time 433.0000
% report aster:force
%    class  identity      posX      posY    forceX    forceY    torque
         1         1   -7.9627   -0.0060   55.4895   -6.2203   -0.0662
% end

% frame   434
% time 434.0000
% report aster:force
%    class  identity      posX      posY    forceX    forceY    torque
         1         1   -7.9923   -0.0023   44.5455   -0.3425    0.0310
% end

% frame   435
% time 435.0000
% report aster:force
%    class  identity      posX      posY    forceX    forceY    torque
         1         1   -7.9662    0.0003   55.6800    4.2775    0.1364
% end

% frame   436
% time 436.0000
% report aster:force
%    class  identity      posX      posY    forceX    forceY    torque
         1         1   -7.9907   -0.0000   42.5024    3.2311   -0.0972
% end

% frame   437
% time 437.0000
% report aster:force
%    class  identity      posX      posY    forceX    forceY    torque
         1         1   -7.9941    0.0133   43.1490    1.9281    0.3986
% end

% frame   438
% time 438.0000
% report aster:force
%    class  identity      posX      posY    forceX    forceY    torque
         1         1   -7.9738    0.0050   35.4432    3.5044   -0.3606
% end

% frame   439
% time 439.0000
% report aster:force
%    class  identity      posX      posY    forceX    forceY    torque
         1         1   -7.9796    0.0060   35.2755    1.9284   -0.0758
% end

% frame   440
% time 440.0000
% report aster:force
%    class  identity      posX      posY    forceX    forceY    torque
         1         1   -7.9836   -0.0055   38.3052   -5.5191   -0.1227
% end

% frame   441
% time 441.0000
% report aster:force
%    class  identity      posX      posY    forceX    forceY    torque
         1         1   -8.0000    0.0074   35.6007    3.2092   -0.2657
% end

% frame   442
% time 442.0000
% report aster:force
%    class  identity      posX      posY    forceX    forceY    torque
         1         1   -7.9861    0.0037   27.8845   -7.1989   -0.3875
% end

% frame   443
% time 443.0000
% report aster:force
%    class  identity      posX      posY    forceX    forceY    torque
         1         1   -7.9689   -0.0084   42.7009  -12.2720   -0.4527
% end

% frame   444
% time 444.0000
% report aster:force
%    class  identity      posX      posY    forceX    forceY    torque
         1         1   -7.9717   -0.0053   46.2785   -6.1561    0.1228
% end

% frame   445
% time 445.0000
% report aster:force
%    class  identity      posX      posY    forceX    forceY    torque
         1         1   -7.9693    0.0012   45.4601   -6.1690    0.0889
% end

% frame   446
% time 446.0000
% report aster:force
%    class  identity      posX      posY    forceX    forceY    torque
         1         1   -7.9732   -0.0038   44.7305    7.2179    0.0157
% end

% frame   447
% time 447.0000
% report aster:force
%    class  identity      posX      posY    forceX    forceY    torque
         1         1   -7.9971    0.0041   44.4788   -0.5419    0.0669
% end

% frame   448
% time 448.0000
% report aster:force
%    class  identity      posX      posY    forceX    forceY    torque
         1         1   -8.0079    0.0057   36.4562   -3.7318    0.0479
% end

% frame   449
% time 449.0000
% report aster:force
%    class  identity      posX      posY    forceX    forceY    torque
         1         1   -7.9766    0.0007   35.2185    6.1149    0.0831
% end

% frame   450
% time 450.0000
% report aster:force
%    class  identity      posX      posY    forceX    forceY    torque
         1         1   -7.9750   -0.0015   31.9249   -1.7738    0.1036
% end

% frame   451
% time 451.0000
% report aster:force
%    class  identity      posX      posY    forceX    forceY    torque
         1         1   -7.9807   -0.0079   41.1833   -9.9928   -0.4536
% end

% frame   452
% time 452.0000
% report aster:force
%    class  identity      posX      posY    forceX    forceY    torque
         1         1   -7.9900   -0.0038   36.2411   -7.1086   -0.2917
% end

% frame   453
% time 453.0000
% report aster:force
%    class  identity      posX      posY    forceX    forceY    torque
         1         1   -7.9797    0.0033   31.0721   -3.4747   -0.0137
% end

% frame   454
% time 454.0000
% report aster:force
%    class  identity      posX      posY    forceX    forceY    torque
         1         1   -7.9990    0.0088   29.9482   -2.1203    0.2349
% end

% frame   455
% time 455.0000
% report aster:force
%    class  identity      posX      posY    forceX    forceY    torque
         1         1   -7.9838    0.0062   25.2735   -4.7496   -0.0696
% end

% frame   456
% time 456.0000
% report aster:force
%    class  identity      posX      posY    forceX    forceY    torque
         1         1   -7.9651    0.0030   30.3516    1.2726   -0.2747
% end

% frame   457
% time 457.0000
% report aster:force
%    class  identity      posX      posY    forceX    forceY    torque
         1         1   -8.0001   -0.0021   24.0168    4.3121    0.2016
% end

% frame   458
% time 458.0000
% report aster:force
%    class  identity      posX      posY    forceX    forceY    torque
         1         1   -7.9703   -0.0107   34.8692    2.2541    0.1378
% end

% frame   459
% time 459.0000
% report aster:force
%    class  identity      posX      posY    forceX    forceY    torque
         1         1   -7.9669   -0.0040   42.0640    0.1999   -0.0895
% end

% frame   460
% time 460.0000
% report aster:force
%    class  identity      posX      posY    forceX    forceY    torque
         1         1   -7.9855   -0.0024   28.5580   -3.1348   -0.0145
% end

% frame   461
% time 461.0000
% report aster:force
%    class  identity      posX      posY    forceX    forceY    torque
         1         1   -7.9991   -0.0070   18.9609   -6.0536   -0.1538
% end

% frame   462
% time 462.0000
% report aster:force
%    class  identity      posX      posY    forceX    forceY    torque
         1         1   -7.9966    0.0034   21.3544    4.0268   -0.3292
% end

% frame   463
% time 463.0000
% report aster:force
%    class  identity      posX      posY    forceX    forceY    torque
         1         1   -8.0011    0.0057   26.3941   -7.5966    0.3037
% end

% frame   464
% time 464.0000
% report aster:force
%    class  identity      posX      posY    forceX    forceY    torque
         1         1   -7.9657    0.0015   34.4599   -7.0526    0.2394
% end

% frame   465
% time 465.0000
% report aster:force
%    class  identity      posX      posY    forceX    forceY    torque
         1         1   -7.9766    0.0018   31.8796   -1.0616   -0.2728
% end

% frame   466
% time 466.0000
% report aster:force
%    class  identity      posX      posY    forceX    forceY    torque
         1         1   -7.9652    0.0048   31.2293   -8.6529    0.3058
% end

% frame   467
% time 467.0000
% report aster:force
%    class  identity      posX      posY    forceX    forceY    torque
         1         1   -7.9792   -0.0021   31.6366   -0.4037    0.0640
% end

% frame   468
% time 468.0000
% report aster:force
%    class  identity      posX      posY    forceX    forceY    torque
         1         1   -7.9973    0.0063   30.5214    2.8833    0.3645
% end

% frame   469
% time 469.0000
% report aster:force
%    class  identity      posX      posY    forceX    forceY    torque
         1         1   -7.9904   -0.0048   23.8138   -3.8287    0.4234
% end

% frame   470
% time 470.0000
% report aster:force
%    class  identity      posX      posY    forceX    forceY    torque
         1         1   -7.9592    0.0010   34.6800    5.5784   -0.4318
% end

% frame   471
% time 471.0000
% report aster:force
%    class  identity      posX      posY    forceX    forceY    torque
         1         1   -7.9810   -0.0064   38.7499   -7.6080   -0.2994
% end

% frame   472
% time 472.0000
% report aster:force
%    class  identity      posX      posY    forceX    forceY    torque
         1         1   -7.9786   -0.0149   36.2248   -6.5910   -0.1235
% end

% frame   473
% time 473.0000
% report aster:force
%    class  identity      posX      posY    forceX    forceY    torque
         1         1   -7.9871   -0.0042   33.0116   -9.7706   -0.2029
% end

% frame   474
% time 474.0000
% report aster:force
%    class  identity      posX      posY    forceX    forceY    torque
         1         1   -7.9617    0.0011   36.2705   -3.6311    0.1901
% end

% frame   475
% time 475.0000
% report aster:force
%    class  identity      posX      posY    forceX    forceY    torque
         1         1   -7.9812    0.0043   21.3476    1.4577    0.0300
% end

% frame   476
% time 476.0000
% report aster:force
%    class  identity      posX      posY    forceX    forceY    torque
         1         1   -7.9791    0.0158   30.0576    8.4376   -0.0649
% end

% frame   477
% time 477.0000
% report aster:force
%    class  identity      posX      posY    forceX    forceY    torque
         1         1   -7.9720    0.0094   37.1342    0.4806    0.3446
% end

% frame   478
% time 478.0000
% report aster:force
%    class  identity      posX      posY    forceX    forceY    torque
         1         1   -7.9731    0.0012   39.5914    2.2686   -0.2395
% end

% frame   479
% time 479.0000
% report aster:force
%    class  identity      posX      posY    forceX    forceY    torque
         1         1   -7.9723    0.0008   48.7011    6.2264    0.1719
% end

% frame   480
% time 480.0000
% report aster:force
%    class  identity      posX      posY    forceX    forceY    torque
         1         1   -7.9547    0.0032   52.5452    4.9932   -0.0075
% end

% frame   481
% time 481.0000
% report aster:force
%    class  identity      posX      posY    forceX    forceY    torque
         1         1   -7.9547    0.0114   56.9688    5.2986   -0.0112
% end

% frame   482
% time 482.0000
% report aster:force
%    class  identity      posX      posY    forceX    forceY    torque
         1         1   -7.9742   -0.0059   42.0100    7.6476   -0.2003
% end

% frame   483
% time 483.0000
% report aster:force
%    class  identity      posX      posY    forceX    forceY    torque
         1         1   -7.9640   -0.0152   44.1508    1.2846   -0.3567
% end

% frame   484
% time 484.0000
% report aster:force
%    class  identity      posX      posY    forceX    forceY    torque
         1         1   -7.9766    0.0148   40.7444    6.2925   -0.2015
% end

% frame   485
% time 485.0000
% report aster:force
%    class  identity      posX      posY    forceX    forceY    torque
         1         1   -7.9949    0.0009   34.1117    1.3438    0.1213
% end

% frame   486
% time 486.0000
% report aster:force
%    class  identity      posX      posY    forceX    forceY    torque
         1         1   -7.9682   -0.0030   38.6275   -2.5345   -0.2913
% end

% frame   487
% time 487.0000
% report aster:force
%    class  identity      posX      posY    forceX    forceY    torque
         1         1   -7.9914    0.0077   39.6425   -1.1065   -0.2507
% end

% frame   488
% time 488.0000
% report aster:force
%    class  identity      posX      posY    forceX    forceY    torque
         1         1   -7.9867    0.0001   41.2608  -10.8102   -0.2298
% end

% frame   489
% time 489.0000
% report aster:force
%    class  identity      posX      posY    forceX    forceY    torque
         1         1   -7.9904   -0.0024   33.6672    2.4407   -0.0321
% end

% frame   490
% time 490.0000
% report aster:force
%    class  identity      posX      posY    forceX    forceY    torque
         1         1   -7.9808    0.0033   43.2567    1.2172    0.3726
% end

% frame   491
% time 491.0000
% report aster:force
%    class  identity      posX      posY    forceX    forceY    torque
         1         1   -7.9626    0.0054   41.9843    9.3337   -0.1472
% end

% frame   492
% time 492.0000
% report aster:force
%    class  identity      posX      posY    forceX    forceY    torque
         1         1   -7.9637   -0.0103   44.8546    6.1131    0.1968
% end

% frame   493
% time 493.0000
% report aster:force
%    class  identity      posX      posY    forceX    forceY    torque
         1         1   -7.9699    0.0030   52.7308    1.3620    0.0819
% end

% frame   494
% time 494.0000
% report aster:force
%    class  identity      posX      posY    forceX    forceY    torque
         1         1   -7.9842   -0.0001   45.6496    6.1308    0.3344
% end

% frame   495
% time 495.0000
% report aster:force
%    class  identity      posX      posY    forceX    forceY    torque
         1         1   -7.9675   -0.0039   50.6770    1.5888    0.0200
% end

% frame   496
% time 496.0000
% report aster:force
%    class  identity      posX      posY    forceX    forceY    torque
         1         1   -7.9640   -0.0065   55.3075   -3.9897    0.0565
% end

% frame   497
% time 497.0000
% report aster:force
%    class  identity      posX      posY    forceX    forceY    torque
         1         1   -7.9889    0.0012   40.7388   -2.2970   -0.0358
% end

% frame   498
% time 498.0000
% report aster:force
%    class  identity      posX      posY    forceX    forceY    torque
         1         1   -7.9576   -0.0114   50.9555   -4.6810   -0.5609
% end

% frame   499
% time 499.0000
% report aster:force
%    class  identity      posX      posY    forceX    forceY    torque
         1         1   -7.9809   -0.0068   48.8481    0.4802    0.1202
% end

% frame   500
% time 500.0000
% report aster:force
%    class  identity      posX      posY    forceX    forceY    torque
         1         1   -7.9812    0.0059   49.9554   -3.9784    0.0196
% end
