
% frame   0
% time 0.0000
% report aster:force
%    class  identity      posX      posY    forceX    forceY    torque
         1         1   -6.0000    0.0000   -0.0000    0.0004   -0.0045
% end

% frame   1
% time 1.0000
% report aster:force
%    class  identity      posX      posY    forceX    forceY    torque
         1         1   -5.0024   -0.0075   -4.0422    0.3069   -0.0070
% end

% frame   2
% time 2.0000
% report aster:force
%    class  identity      posX      posY    forceX    forceY    torque
         1         1   -5.0007   -0.0011   -2.8463   -3.9184    0.0946
% end

% frame   3
% time 3.0000
% report aster:force
%    class  identity      posX      posY    forceX    forceY    torque
         1         1   -5.0046    0.0039    0.5454    0.8861    0.0164
% end

% frame   4
% time 4.0000
% report aster:force
%    class  identity      posX      posY    forceX    forceY    torque
         1         1   -4.9725   -0.0044    4.4717   -0.7264    0.0205
% end

% frame   5
% time 5.0000
% report aster:force
%    class  identity      posX      posY    forceX    forceY    torque
         1         1   -4.9864    0.0058    4.8032    0.5593    0.3684
% end

% frame   6
% time 6.0000
% report aster:force
%    class  identity      posX      posY    forceX    forceY    torque
         1         1   -4.9961   -0.0043    0.3801    0.8135   -0.0677
% end

% frame   7
% time 7.0000
% report aster:force
%    class  identity      posX      posY    forceX    forceY    torque
         1         1   -4.9847   -0.0023   15.4983   -3.9168    0.3552
% end

% frame   8
% time 8.0000
% report aster:force
%    class  identity      posX      posY    forceX    forceY    torque
         1         1   -4.9804    0.0018   14.0780    6.8230    0.3896
% end

% frame   9
% time 9.0000
% report aster:force
%    class  identity      posX      posY    forceX    forceY    torque
         1         1   -4.9877   -0.0001   13.7011    0.4304    0.3205
% end

% frame   10
% time 10.0000
% report aster:force
%    class  identity      posX      posY    forceX    forceY    torque
         1         1   -4.9788   -0.0008   19.2529    2.3415    0.3003
% end

% frame   11
% time 11.0000
% report aster:force
%    class  identity      posX      posY    forceX    forceY    torque
         1         1   -4.9910   -0.0022   16.3696   -0.1514    0.0737
% end

% frame   12
% time 12.0000
% report aster:force
%    class  identity      posX      posY    forceX    forceY    torque
         1         1   -4.9897    0.0069   11.3041   -2.6494   -0.4889
% end

% frame   13
% time 13.0000
% report aster:force
%    class  identity      posX      posY    forceX    forceY    torque
         1         1   -4.9890   -0.0087   16.8178   -9.0876    0.0647
% end

% frame   14
% time 14.0000
% report aster:force
%    class  identity      posX      posY    forceX    forceY    torque
         1         1   -4.9999    0.0208   15.5046   -1.5475   -0.0879
% end

% frame   15
% time 15.0000
% report aster:force
%    class  identity      posX      posY    forceX    forceY    torque
         1         1   -5.0111    0.0000   11.7365    1.1798   -0.1971
% end

% frame   16
% time 16.0000
% report aster:force
%    class  identity      posX      posY    forceX    forceY    torque
         1         1   -5.0009    0.0021   18.5098    0.6742   -0.3514
% end

% frame   17
% time 17.0000
% report aster:force
%    class  identity      posX      posY    forceX    forceY    torque
         1         1   -4.9898    0.0065   16.2243   -0.2164   -0.1337
% end

% frame   18
% time 18.0000
% report aster:force
%    class  identity      posX      posY    forceX    forceY    torque
         1         1   -4.9908   -0.0032   25.1577  -10.0660    0.1772
% end

% frame   19
% time 19.0000
% report aster:force
%    class  identity      posX      posY    forceX    forceY    torque
         1         1   -4.9763    0.0036   21.1054   -2.3820   -0.3597
% end

% frame   20
% time 20.0000
% report aster:force
%    class  identity      posX      posY    forceX    forceY    torque
         1         1   -4.9979   -0.0164   14.3989   -4.9482    0.1529
% end

% frame   21
% time 21.0000
% report aster:force
%    class  identity      posX      posY    forceX    forceY    torque
         1         1   -4.9993   -0.0142   10.7529   -5.8767    0.1411
% end

% frame   22
% time 22.0000
% report aster:force
%    class  identity      posX      posY    forceX    forceY    torque
         1         1   -4.9857   -0.0135   18.3800   -1.8514    0.3233
% end

% frame   23
% time 23.0000
% report aster:force
%    class  identity      posX      posY    forceX    forceY    torque
         1         1   -5.0028   -0.0054    9.9607    0.6744   -0.0257
% end

% frame   24
% time 24.0000
% report aster:force
%    class  identity      posX      posY    forceX    forceY    torque
         1         1   -4.9807    0.0001   15.5184    0.1952   -0.1856
% end

% frame   25
% time 25.0000
% report aster:force
%    class  identity      posX      posY    forceX    forceY    torque
         1         1   -4.9956    0.0014    6.4244   -4.9445   -0.0495
% end

% frame   26
% time 26.0000
% report aster:force
%    class  identity      posX      posY    forceX    forceY    torque
         1         1   -4.9948    0.0044   18.2899   -2.2231   -0.1851
% end

% frame   27
% time 27.0000
% report aster:force
%    class  identity      posX      posY    forceX    forceY    torque
         1         1   -4.9946   -0.0003   12.9730    1.5919   -0.1340
% end

% frame   28
% time 28.0000
% report aster:force
%    class  identity      posX      posY    forceX    forceY    torque
         1         1   -5.0023    0.0028   15.7576   -2.9980   -0.0762
% end

% frame   29
% time 29.0000
% report aster:force
%    class  identity      posX      posY    forceX    forceY    torque
         1         1   -5.0007    0.0034   16.5816    4.8590   -0.3884
% end

% frame   30
% time 30.0000
% report aster:force
%    class  identity      posX      posY    forceX    forceY    torque
         1         1   -4.9895    0.0016   17.7353   -0.4859   -0.3423
% end

% frame   31
% time 31.0000
% report aster:force
%    class  identity      posX      posY    forceX    forceY    torque
         1         1   -4.9969    0.0055   14.6241    4.1704    0.3737
% end

% frame   32
% time 32.0000
% report aster:force
%    class  identity      posX      posY    forceX    forceY    torque
         1         1   -4.9903    0.0157   19.3986    4.3401   -0.1163
% end

% frame   33
% time 33.0000
% report aster:force
%    class  identity      posX      posY    forceX    forceY    torque
         1         1   -4.9824   -0.0148   18.9427   -4.9078    0.1540
% end

% frame   34
% time 34.0000
% report aster:force
%    class  identity      posX      posY    forceX    forceY    torque
         1         1   -5.0230   -0.0035   14.9646    2.6467    0.2156
% end

% frame   35
% time 35.0000
% report aster:force
%    class  identity      posX      posY    forceX    forceY    torque
         1         1   -4.9914   -0.0028   18.3137    1.0995    0.3540
% end

% frame   36
% time 36.0000
% report aster:force
%    class  identity      posX      posY    forceX    forceY    torque
         1         1   -5.0059    0.0065   12.4376    1.1257    0.1044
% end

% frame   37
% time 37.0000
% report aster:force
%    class  identity      posX      posY    forceX    forceY    torque
         1         1   -5.0017    0.0130   13.3945   -0.2671   -0.0626
% end

% frame   38
% time 38.0000
% report aster:force
%    class  identity      posX      posY    forceX    forceY    torque
         1         1   -4.9756    0.0008   12.9533   -3.3229    0.1535
% end

% frame   39
% time 39.0000
% report aster:force
%    class  identity      posX      posY    forceX    forceY    torque
         1         1   -4.9939    0.0000   13.5387   -4.3301   -0.1024
% end

% frame   40
% time 40.0000
% report aster:force
%    class  identity      posX      posY    forceX    forceY    torque
         1         1   -4.9795   -0.0074   15.4946   -2.6666   -0.1820
% end

% frame   41
% time 41.0000
% report aster:force
%    class  identity      posX      posY    forceX    forceY    torque
         1         1   -4.9992    0.0115    8.3328   -1.6509   -0.1636
% end

% frame   42
% time 42.0000
% report aster:force
%    class  identity      posX      posY    forceX    forceY    torque
         1         1   -4.9685    0.0073   12.5535   -6.6409   -0.0328
% end

% frame   43
% time 43.0000
% report aster:force
%    class  identity      posX      posY    forceX    forceY    torque
         1         1   -4.9997   -0.0018   10.2075   -2.7693    0.0289
% end

% frame   44
% time 44.0000
% report aster:force
%    class  identity      posX      posY    forceX    forceY    torque
         1         1   -5.0004   -0.0113   15.0346   -6.8510   -0.3868
% end

% frame   45
% time 45.0000
% report aster:force
%    class  identity      posX      posY    forceX    forceY    torque
         1         1   -4.9859   -0.0103   19.5486   -0.3868   -0.5911
% end

% frame   46
% time 46.0000
% report aster:force
%    class  identity      posX      posY    forceX    forceY    torque
         1         1   -5.0065   -0.0087    9.7436    0.2170    0.3081
% end

% frame   47
% time 47.0000
% report aster:force
%    class  identity      posX      posY    forceX    forceY    torque
         1         1   -5.0042   -0.0074    8.1358   -0.6081    0.0584
% end

% frame   48
% time 48.0000
% report aster:force
%    class  identity      posX      posY    forceX    forceY    torque
         1         1   -4.9944   -0.0077    9.7165    0.5627    0.0878
% end

% frame   49
% time 49.0000
% report aster:force
%    class  identity      posX      posY    forceX    forceY    torque
         1         1   -4.9992    0.0184   11.2011   -0.5929    0.0301
% end

% frame   50
% time 50.0000
% report aster:force
%    class  identity      posX      posY    forceX    forceY    torque
         1         1   -4.9938    0.0075   10.7919   -6.2020   -0.0144
% end

% frame   51
% time 51.0000
% report aster:force
%    class  identity      posX      posY    forceX    forceY    torque
         1         1   -5.0089   -0.0027    6.3644   -4.1426   -0.2797
% end

% frame   52
% time 52.0000
% report aster:force
%    class  identity      posX      posY    forceX    forceY    torque
         1         1   -5.0059   -0.0072    7.6613   -0.8143   -0.2582
% end

% frame   53
% time 53.0000
% report aster:force
%    class  identity      posX      posY    forceX    forceY    torque
         1         1   -4.9725    0.0122   11.2416    0.8957   -0.1472
% end

% frame   54
% time 54.0000
% report aster:force
%    class  identity      posX      posY    forceX    forceY    torque
         1         1   -5.0086   -0.0004    8.5758   -6.5566    0.2703
% end

% frame   55
% time 55.0000
% report aster:force
%    class  identity      posX      posY    forceX    forceY    torque
         1         1   -5.0025    0.0023   12.6001   -2.0252   -0.2286
% end

% frame   56
% time 56.0000
% report aster:force
%    class  identity      posX      posY    forceX    forceY    torque
         1         1   -5.0017    0.0089   10.2298   -4.7808    0.0429
% end

% frame   57
% time 57.0000
% report aster:force
%    class  identity      posX      posY    forceX    forceY    torque
         1         1   -4.9949   -0.0085    0.4922   -4.0713    0.1265
% end

% frame   58
% time 58.0000
% report aster:force
%    class  identity      posX      posY    forceX    forceY    torque
         1         1   -4.9784   -0.0008    8.5447    3.2601    0.1831
% end

% frame   59
% time 59.0000
% report aster:force
%    class  identity      posX      posY    forceX    forceY    torque
         1         1   -4.9919    0.0085    6.7359    6.2884   -0.3933
% end

% frame   60
% time 60.0000
% report aster:force
%    class  identity      posX      posY    forceX    forceY    torque
         1         1   -4.9866    0.0050   13.6560    0.8947    0.3871
% end

% frame   61
% time 61.0000
% report aster:force
%    class  identity      posX      posY    forceX    forceY    torque
         1         1   -4.9995   -0.0002   11.4065   -0.3210   -0.1329
% end

% frame   62
% time 62.0000
% report aster:force
%    class  identity      posX      posY    forceX    forceY    torque
         1         1   -4.9895   -0.0001   12.1667   -0.0841   -0.0564
% end

% frame   63
% time 63.0000
% report aster:force
%    class  identity      posX      posY    forceX    forceY    torque
         1         1   -4.9796    0.0052   20.1806   -0.5979   -0.0873
% end

% frame   64
% time 64.0000
% report aster:force
%    class  identity      posX      posY    forceX    forceY    torque
         1         1   -4.9853   -0.0049   13.6448   -2.9225   -0.3687
% end

% frame   65
% time 65.0000
% report aster:force
%    class  identity      posX      posY    forceX    forceY    torque
         1         1   -5.0027    0.0173    2.9069    4.0423   -0.0515
% end

% frame   66
% time 66.0000
% report aster:force
%    class  identity      posX      posY    forceX    forceY    torque
         1         1   -4.9939    0.0106    3.9593   -8.0228   -0.2273
% end

% frame   67
% time 67.0000
% report aster:force
%    class  identity      posX      posY    forceX    forceY    torque
         1         1   -4.9832    0.0045   12.4765   -3.0303    0.1629
% end

% frame   68
% time 68.0000
% report aster:force
%    class  identity      posX      posY    forceX    forceY    torque
         1         1   -4.9923    0.0054   13.4360   -4.0402   -0.0054
% end

% frame   69
% time 69.0000
% report aster:force
%    class  identity      posX      posY    forceX    forceY    torque
         1         1   -4.9908    0.0114    6.0651   -7.7306    0.1400
% end

% frame   70
% time 70.0000
% report aster:force
%    class  identity      posX      posY    forceX    forceY    torque
         1         1   -4.9806    0.0045    4.4871   -6.9071   -0.4152
% end

% frame   71
% time 71.0000
% report aster:force
%    class  identity      posX      posY    forceX    forceY    torque
         1         1   -4.9764    0.0088    8.4787    3.5538   -0.2116
% end

% frame   72
% time 72.0000
% report aster:force
%    class  identity      posX      posY    forceX    forceY    torque
         1         1   -4.9939   -0.0009   10.5318   -7.0856   -0.1016
% end

% frame   73
% time 73.0000
% report aster:force
%    class  identity      posX      posY    forceX    forceY    torque
         1         1   -4.9740    0.0043   23.7505   -7.2321    0.1338
% end

% frame   74
% time 74.0000
% report aster:force
%    class  identity      posX      posY    forceX    forceY    torque
         1         1   -4.9646   -0.0106   19.2376   -2.3715   -0.3675
% end

% frame   75
% time 75.0000
% report aster:force
%    class  identity      posX      posY    forceX    forceY    torque
         1         1   -4.9880   -0.0060   17.3248    1.5909    0.1494
% end

% frame   76
% time 76.0000
% report aster:force
%    class  identity      posX      posY    forceX    forceY    torque
         1         1   -4.9825    0.0062   18.7306   -6.0068   -0.1405
% end

% frame   77
% time 77.0000
% report aster:force
%    class  identity      posX      posY    forceX    forceY    torque
         1         1   -4.9863   -0.0007   17.8144   -4.2464   -0.0882
% end

% frame   78
% time 78.0000
% report aster:force
%    class  identity      posX      posY    forceX    forceY    torque
         1         1   -4.9652    0.0103   28.9587   -9.6207   -0.1428
% end

% frame   79
% time 79.0000
% report aster:force
%    class  identity      posX      posY    forceX    forceY    torque
         1         1   -4.9908   -0.0021   20.4618    5.9727    0.2432
% end

% frame   80
% time 80.0000
% report aster:force
%    class  identity      posX      posY    forceX    forceY    torque
         1         1   -4.9732    0.0070   19.2279    1.8337    0.3343
% end

% frame   81
% time 81.0000
% report aster:force
%    class  identity      posX      posY    forceX    forceY    torque
         1         1   -4.9823   -0.0099   15.6288   -2.9808   -0.1265
% end

% frame   82
% time 82.0000
% report aster:force
%    class  identity      posX      posY    forceX    forceY    torque
         1         1   -4.9623    0.0001   26.1814   -2.1701    0.3030
% end

% frame   83
% time 83.0000
% report aster:force
%    class  identity      posX      posY    forceX    forceY    torque
         1         1   -4.9908    0.0084   18.2526    5.0042   -0.0823
% end

% frame   84
% time 84.0000
% report aster:force
%    class  identity      posX      posY    forceX    forceY    torque
         1         1   -4.9736    0.0013   25.2682   -7.0654    0.0905
% end

% frame   85
% time 85.0000
% report aster:force
%    class  identity      posX      posY    forceX    forceY    torque
         1         1   -4.9867   -0.0022   27.5379    5.8778   -0.2957
% end

% frame   86
% time 86.0000
% report aster:force
%    class  identity      posX      posY    forceX    forceY    torque
         1         1   -4.9793   -0.0061   24.9773    0.1415   -0.3709
% end

% frame   87
% time 87.0000
% report aster:force
%    class  identity      posX      posY    forceX    forceY    torque
         1         1   -4.9799   -0.0020   23.7357    7.0377    0.4849
% end

% frame   88
% time 88.0000
% report aster:force
%    class  identity      posX      posY    forceX    forceY    torque
         1         1   -4.9952    0.0026    8.6180    8.2677    0.0646
% end

% frame   89
% time 89.0000
% report aster:force
%    class  identity      posX      posY    forceX    forceY    torque
         1         1   -4.9807    0.0057   14.4742   12.5687   -0.0032
% end

% frame   90
% time 90.0000
% report aster:force
%    class  identity      posX      posY    forceX    forceY    torque
         1         1   -4.9916   -0.0049   16.0909   -2.0808    0.1008
% end

% frame   91
% time 91.0000
% report aster:force
%    class  identity      posX      posY    forceX    forceY    torque
         1         1   -4.9986    0.0043   18.1444    4.4170   -0.0011
% end

% frame   92
% time 92.0000
% report aster:force
%    class  identity      posX      posY    forceX    forceY    torque
         1         1   -4.9821   -0.0019   10.7417  -13.5130    0.0402
% end

% frame   93
% time 93.0000
% report aster:force
%    class  identity      posX      posY    forceX    forceY    torque
         1         1   -4.9783   -0.0023   17.2799    1.0340    0.3989
% end

% frame   94
% time 94.0000
% report aster:force
%    class  identity      posX      posY    forceX    forceY    torque
         1         1   -4.9956   -0.0098    8.2071    4.1457   -0.1194
% end

% frame   95
% time 95.0000
% report aster:force
%    class  identity      posX      posY    forceX    forceY    torque
         1         1   -4.9737    0.0125   16.4361    5.8077   -0.0267
% end

% frame   96
% time 96.0000
% report aster:force
%    class  identity      posX      posY    forceX    forceY    torque
         1         1   -4.9838    0.0104   12.9710   -1.2194   -0.0455
% end

% frame   97
% time 97.0000
% report aster:force
%    class  identity      posX      posY    forceX    forceY    torque
         1         1   -4.9979    0.0010    4.6781    1.8656    0.1042
% end

% frame   98
% time 98.0000
% report aster:force
%    class  identity      posX      posY    forceX    forceY    torque
         1         1   -4.9998    0.0049    9.3807    2.9980   -0.2166
% end

% frame   99
% time 99.0000
% report aster:force
%    class  identity      posX      posY    forceX    forceY    torque
         1         1   -4.9890    0.0025    9.8253    1.5918    0.1676
% end

% frame   100
% time 100.0000
% report aster:force
%    class  identity      posX      posY    forceX    forceY    torque
         1         1   -4.9843    0.0032   10.2745    2.8076    0.1149
% end

% frame   101
% time 101.0000
% report aster:force
%    class  identity      posX      posY    forceX    forceY    torque
         1         1   -4.9998    0.0030    8.5540    0.6198   -0.0798
% end

% frame   102
% time 102.0000
% report aster:force
%    class  identity      posX      posY    forceX    forceY    torque
         1         1   -4.9923    0.0116   16.4944   -0.5816   -0.0248
% end

% frame   103
% time 103.0000
% report aster:force
%    class  identity      posX      posY    forceX    forceY    torque
         1         1   -4.9866    0.0090   18.2421  -10.2063   -0.1780
% end

% frame   104
% time 104.0000
% report aster:force
%    class  identity      posX      posY    forceX    forceY    torque
         1         1   -4.9991    0.0134   18.7617   -3.9530   -0.2517
% end

% frame   105
% time 105.0000
% report aster:force
%    class  identity      posX      posY    forceX    forceY    torque
         1         1   -4.9809   -0.0011   17.7217   -4.7021   -0.0184
% end

% frame   106
% time 106.0000
% report aster:force
%    class  identity      posX      posY    forceX    forceY    torque
         1         1   -4.9928    0.0102    7.6322   -2.6750    0.5560
% end

% frame   107
% time 107.0000
% report aster:force
%    class  identity      posX      posY    forceX    forceY    torque
         1         1   -5.0140   -0.0052    4.7226   -4.8135    0.0074
% end

% frame   108
% time 108.0000
% report aster:force
%    class  identity      posX      posY    forceX    forceY    torque
         1         1   -5.0096   -0.0045    9.8590   -3.6049    0.1177
% end

% frame   109
% time 109.0000
% report aster:force
%    class  identity      posX      posY    forceX    forceY    torque
         1         1   -5.0019   -0.0094    7.2025   -4.4542    0.1059
% end

% frame   110
% time 110.0000
% report aster:force
%    class  identity      posX      posY    forceX    forceY    torque
         1         1   -4.9920   -0.0054   16.6560    1.4913   -0.0122
% end

% frame   111
% time 111.0000
% report aster:force
%    class  identity      posX      posY    forceX    forceY    torque
         1         1   -5.0094   -0.0024   13.5832   -5.6358    0.2688
% end

% frame   112
% time 112.0000
% report aster:force
%    class  identity      posX      posY    forceX    forceY    torque
         1         1   -4.9794    0.0016   18.3396   -2.6896   -0.1406
% end

% frame   113
% time 113.0000
% report aster:force
%    class  identity      posX      posY    forceX    forceY    torque
         1         1   -4.9866   -0.0002   11.2046   -9.0629    0.0922
% end

% frame   114
% time 114.0000
% report aster:force
%    class  identity      posX      posY    forceX    forceY    torque
         1         1   -5.0066    0.0029    6.7171   -5.8744    0.3596
% end

% frame   115
% time 115.0000
% report aster:force
%    class  identity      posX      posY    forceX    forceY    torque
         1         1   -5.0045   -0.0051   11.4799    1.1844   -0.2053
% end

% frame   116
% time 116.0000
% report aster:force
%    class  identity      posX      posY    forceX    forceY    torque
         1         1   -4.9892   -0.0002   15.5736   -1.5993   -0.2199
% end

% frame   117
% time 117.0000
% report aster:force
%    class  identity      posX      posY    forceX    forceY    torque
         1         1   -4.9781    0.0056   20.9048   -2.3431   -0.0287
% end

% frame   118
% time 118.0000
% report aster:force
%    class  identity      posX      posY    forceX    forceY    torque
         1         1   -4.9941    0.0038   15.1116   -9.0878   -0.3803
% end

% frame   119
% time 119.0000
% report aster:force
%    class  identity      posX      posY    forceX    forceY    torque
         1         1   -5.0053    0.0024   14.3704    2.9664   -0.0133
% end

% frame   120
% time 120.0000
% report aster:force
%    class  identity      posX      posY    forceX    forceY    torque
         1         1   -4.9708    0.0113   24.9803   -2.4242    0.0597
% end

% frame   121
% time 121.0000
% report aster:force
%    class  identity      posX      posY    forceX    forceY    torque
         1         1   -4.9953    0.0028   13.7744    4.1536    0.0505
% end

% frame   122
% time 122.0000
% report aster:force
%    class  identity      posX      posY    forceX    forceY    torque
         1         1   -5.0095    0.0023    2.1922   -0.9099   -0.2698
% end

% frame   123
% time 123.0000
% report aster:force
%    class  identity      posX      posY    forceX    forceY    torque
         1         1   -5.0000    0.0151    8.8722    0.0477   -0.1085
% end

% frame   124
% time 124.0000
% report aster:force
%    class  identity      posX      posY    forceX    forceY    torque
         1         1   -4.9958   -0.0006   16.4110   -3.8505    0.1093
% end

% frame   125
% time 125.0000
% report aster:force
%    class  identity      posX      posY    forceX    forceY    torque
         1         1   -4.9944   -0.0050   16.0179   -0.8292   -0.0432
% end

% frame   126
% time 126.0000
% report aster:force
%    class  identity      posX      posY    forceX    forceY    torque
         1         1   -5.0003    0.0040   20.4720   -3.0432    0.3369
% end

% frame   127
% time 127.0000
% report aster:force
%    class  identity      posX      posY    forceX    forceY    torque
         1         1   -4.9827    0.0069   25.3357  -12.5566   -0.0789
% end

% frame   128
% time 128.0000
% report aster:force
%    class  identity      posX      posY    forceX    forceY    torque
         1         1   -4.9914    0.0089   20.3518   -1.2891    0.2030
% end

% frame   129
% time 129.0000
% report aster:force
%    class  identity      posX      posY    forceX    forceY    torque
         1         1   -5.0060   -0.0104   12.7270   -1.8071   -0.2273
% end

% frame   130
% time 130.0000
% report aster:force
%    class  identity      posX      posY    forceX    forceY    torque
         1         1   -4.9684    0.0004   23.0328   -2.6231    0.1372
% end

% frame   131
% time 131.0000
% report aster:force
%    class  identity      posX      posY    forceX    forceY    torque
         1         1   -4.9913   -0.0214   16.0405   -3.5145   -0.1159
% end

% frame   132
% time 132.0000
% report aster:force
%    class  identity      posX      posY    forceX    forceY    torque
         1         1   -4.9899    0.0081    9.4336   -5.0242    0.1484
% end

% frame   133
% time 133.0000
% report aster:force
%    class  identity      posX      posY    forceX    forceY    torque
         1         1   -5.0113   -0.0003   10.7228    4.3044   -0.0721
% end

% frame   134
% time 134.0000
% report aster:force
%    class  identity      posX      posY    forceX    forceY    torque
         1         1   -4.9896   -0.0028   17.2574    3.9589    0.3392
% end

% frame   135
% time 135.0000
% report aster:force
%    class  identity      posX      posY    forceX    forceY    torque
         1         1   -4.9969   -0.0030   17.4972    7.2057   -0.2368
% end

% frame   136
% time 136.0000
% report aster:force
%    class  identity      posX      posY    forceX    forceY    torque
         1         1   -4.9881    0.0021   18.7434    2.9337    0.4058
% end

% frame   137
% time 137.0000
% report aster:force
%    class  identity      posX      posY    forceX    forceY    torque
         1         1   -4.9879   -0.0065   22.1101    0.5800    0.1176
% end

% frame   138
% time 138.0000
% report aster:force
%    class  identity      posX      posY    forceX    forceY    torque
         1         1   -4.9742    0.0062   19.5830    5.0391   -0.2064
% end

% frame   139
% time 139.0000
% report aster:force
%    class  identity      posX      posY    forceX    forceY    torque
         1         1   -4.9844    0.0152   19.8456   -7.3483    0.1223
% end

% frame   140
% time 140.0000
% report aster:force
%    class  identity      posX      posY    forceX    forceY    torque
         1         1   -4.9962    0.0139   18.1786    0.4518    0.2045
% end

% frame   141
% time 141.0000
% report aster:force
%    class  identity      posX      posY    forceX    forceY    torque
         1         1   -4.9934    0.0141   15.4247   -2.7341   -0.1484
% end

% frame   142
% time 142.0000
% report aster:force
%    class  identity      posX      posY    forceX    forceY    torque
         1         1   -4.9923    0.0067   16.7057    0.2753   -0.2738
% end

% frame   143
% time 143.0000
% report aster:force
%    class  identity      posX      posY    forceX    forceY    torque
         1         1   -4.9837   -0.0085   21.0065   -4.8387    0.0126
% end

% frame   144
% time 144.0000
% report aster:force
%    class  identity      posX      posY    forceX    forceY    torque
         1         1   -4.9726    0.0066   27.4428    2.6045    0.2883
% end

% frame   145
% time 145.0000
% report aster:force
%    class  identity      posX      posY    forceX    forceY    torque
         1         1   -4.9735   -0.0070   20.0962   -1.6031    0.2887
% end

% frame   146
% time 146.0000
% report aster:force
%    class  identity      posX      posY    forceX    forceY    torque
         1         1   -5.0049   -0.0090   12.2287    1.3783    0.0212
% end

% frame   147
% time 147.0000
% report aster:force
%    class  identity      posX      posY    forceX    forceY    torque
         1         1   -4.9761    0.0059   24.5178   -5.5186    0.1313
% end

% frame   148
% time 148.0000
% report aster:force
%    class  identity      posX      posY    forceX    forceY    torque
         1         1   -4.9985    0.0155   12.1662   -2.5342   -0.1559
% end

% frame   149
% time 149.0000
% report aster:force
%    class  identity      posX      posY    forceX    forceY    torque
         1         1   -4.9961   -0.0041   22.0133   -1.6743    0.3183
% end

% frame   150
% time 150.0000
% report aster:force
%    class  identity      posX      posY    forceX    forceY    torque
         1         1   -5.0009    0.0065   18.1153    0.1602   -0.2200
% end

% frame   151
% time 151.0000
% report aster:force
%    class  identity      posX      posY    forceX    forceY    torque
         1         1   -4.9785    0.0096   20.7020   -1.2002   -0.1410
% end

% frame   152
% time 152.0000
% report aster:force
%    class  identity      posX      posY    forceX    forceY    torque
         1         1   -5.0116    0.0047   10.5099   -0.1966   -0.3397
% end

% frame   153
% time 153.0000
% report aster:force
%    class  identity      posX      posY    forceX    forceY    torque
         1         1   -4.9686    0.0050   21.9371   -7.5273    0.7373
% end

% frame   154
% time 154.0000
% report aster:force
%    class  identity      posX      posY    forceX    forceY    torque
         1         1   -4.9971   -0.0145   12.9052   -7.5275    0.0355
% end

% frame   155
% time 155.0000
% report aster:force
%    class  identity      posX      posY    forceX    forceY    torque
         1         1   -4.9924    0.0008   12.7228   -2.9548    0.0386
% end

% frame   156
% time 156.0000
% report aster:force
%    class  identity      posX      posY    forceX    forceY    torque
         1         1   -4.9937    0.0082   18.6564   -1.6583    0.1473
% end

% frame   157
% time 157.0000
% report aster:force
%    class  identity      posX      posY    forceX    forceY    torque
         1         1   -5.0017    0.0071   10.4268    0.3530   -0.3815
% end

% frame   158
% time 158.0000
% report aster:force
%    class  identity      posX      posY    forceX    forceY    torque
         1         1   -4.9986    0.0090    7.6011    6.4847    0.0026
% end

% frame   159
% time 159.0000
% report aster:force
%    class  identity      posX      posY    forceX    forceY    torque
         1         1   -4.9937    0.0115   12.1299   -1.0535    0.0637
% end

% frame   160
% time 160.0000
% report aster:force
%    class  identity      posX      posY    forceX    forceY    torque
         1         1   -4.9812    0.0080    7.2960   -7.4880   -0.5270
% end

% frame   161
% time 161.0000
% report aster:force
%    class  identity      posX      posY    forceX    forceY    torque
         1         1   -4.9841    0.0065   12.0057  -10.4759   -0.2512
% end

% frame   162
% time 162.0000
% report aster:force
%    class  identity      posX      posY    forceX    forceY    torque
         1         1   -4.9958    0.0019   10.2576   -3.7811    0.0672
% end

% frame   163
% time 163.0000
% report aster:force
%    class  identity      posX      posY    forceX    forceY    torque
         1         1   -4.9943    0.0063   14.0028   -1.9205    0.0431
% end

% frame   164
% time 164.0000
% report aster:force
%    class  identity      posX      posY    forceX    forceY    torque
         1         1   -4.9993    0.0011   13.2934   -1.5638    0.3424
% end

% frame   165
% time 165.0000
% report aster:force
%    class  identity      posX      posY    forceX    forceY    torque
         1         1   -5.0008    0.0043   13.0003   -1.5106    0.2861
% end

% frame   166
% time 166.0000
% report aster:force
%    class  identity      posX      posY    forceX    forceY    torque
         1         1   -4.9937    0.0025   11.5293   -5.6680   -0.0810
% end

% frame   167
% time 167.0000
% report aster:force
%    class  identity      posX      posY    forceX    forceY    torque
         1         1   -5.0020    0.0020    8.0705   -1.1984   -0.1840
% end

% frame   168
% time 168.0000
% report aster:force
%    class  identity      posX      posY    forceX    forceY    torque
         1         1   -4.9872    0.0060   11.6808   -0.3430    0.5039
% end

% frame   169
% time 169.0000
% report aster:force
%    class  identity      posX      posY    forceX    forceY    torque
         1         1   -5.0091    0.0029    7.7549   -5.6368    0.1652
% end

% frame   170
% time 170.0000
% report aster:force
%    class  identity      posX      posY    forceX    forceY    torque
         1         1   -4.9917    0.0135   15.2832   10.5398    0.3456
% end

% frame   171
% time 171.0000
% report aster:force
%    class  identity      posX      posY    forceX    forceY    torque
         1         1   -4.9915   -0.0081    2.4484   -0.4566    0.1677
% end

% frame   172
% time 172.0000
% report aster:force
%    class  identity      posX      posY    forceX    forceY    torque
         1         1   -4.9868    0.0101   14.6506   -7.9431    0.0520
% end

% frame   173
% time 173.0000
% report aster:force
%    class  identity      posX      posY    forceX    forceY    torque
         1         1   -5.0025    0.0080   10.7674   -2.9502    0.1793
% end

% frame   174
% time 174.0000
% report aster:force
%    class  identity      posX      posY    forceX    forceY    torque
         1         1   -4.9783    0.0077   14.9597  -12.8693   -0.2076
% end

% frame   175
% time 175.0000
% report aster:force
%    class  identity      posX      posY    forceX    forceY    torque
         1         1   -4.9894    0.0114   19.1161   -6.7811    0.2515
% end

% frame   176
% time 176.0000
% report aster:force
%    class  identity      posX      posY    forceX    forceY    torque
         1         1   -4.9868    0.0023   23.2685   -9.6429    0.1065
% end

% frame   177
% time 177.0000
% report aster:force
%    class  identity      posX      posY    forceX    forceY    torque
         1         1   -4.9970    0.0057   26.5428   -4.3823   -0.1516
% end

% frame   178
% time 178.0000
% report aster:force
%    class  identity      posX      posY    forceX    forceY    torque
         1         1   -5.0072    0.0005   18.3286   -0.3408   -0.1982
% end

% frame   179
% time 179.0000
% report aster:force
%    class  identity      posX      posY    forceX    forceY    torque
         1         1   -5.0062    0.0057    9.5283   -4.4162   -0.2480
% end

% frame   180
% time 180.0000
% report aster:force
%    class  identity      posX      posY    forceX    forceY    torque
         1         1   -4.9925   -0.0068   16.4200   -5.7958   -0.0483
% end

% frame   181
% time 181.0000
% report aster:force
%    class  identity      posX      posY    forceX    forceY    torque
         1         1   -4.9867    0.0028   10.8868    3.2649   -0.5110
% end

% frame   182
% time 182.0000
% report aster:force
%    class  identity      posX      posY    forceX    forceY    torque
         1         1   -5.0047    0.0071   11.0243   -3.3763   -0.0465
% end

% frame   183
% time 183.0000
% report aster:force
%    class  identity      posX      posY    forceX    forceY    torque
         1         1   -4.9968    0.0025   11.3811    2.7318   -0.2780
% end

% frame   184
% time 184.0000
% report aster:force
%    class  identity      posX      posY    forceX    forceY    torque
         1         1   -4.9937   -0.0105   15.2006    1.3524    0.0722
% end

% frame   185
% time 185.0000
% report aster:force
%    class  identity      posX      posY    forceX    forceY    torque
         1         1   -4.9819   -0.0036   27.0876   -1.3246   -0.0350
% end

% frame   186
% time 186.0000
% report aster:force
%    class  identity      posX      posY    forceX    forceY    torque
         1         1   -4.9959   -0.0008   23.8077   -2.9788   -0.1871
% end

% frame   187
% time 187.0000
% report aster:force
%    class  identity      posX      posY    forceX    forceY    torque
         1         1   -4.9907    0.0010   17.5510    1.9454   -0.3435
% end

% frame   188
% time 188.0000
% report aster:force
%    class  identity      posX      posY    forceX    forceY    torque
         1         1   -5.0061    0.0029    6.7027   -4.2000   -0.0196
% end

% frame   189
% time 189.0000
% report aster:force
%    class  identity      posX      posY    forceX    forceY    torque
         1         1   -4.9952    0.0068   15.8517   -3.4541    0.0414
% end

% frame   190
% time 190.0000
% report aster:force
%    class  identity      posX      posY    forceX    forceY    torque
         1         1   -5.0052   -0.0116   16.2519   -3.0570    0.2862
% end

% frame   191
% time 191.0000
% report aster:force
%    class  identity      posX      posY    forceX    forceY    torque
         1         1   -4.9859   -0.0122   29.4887   -5.9526    0.3095
% end

% frame   192
% time 192.0000
% report aster:force
%    class  identity      posX      posY    forceX    forceY    torque
         1         1   -4.9860   -0.0041   30.1352   -3.6321   -0.0882
% end

% frame   193
% time 193.0000
% report aster:force
%    class  identity      posX      posY    forceX    forceY    torque
         1         1   -4.9905    0.0032   24.6115   -0.6557    0.0113
% end

% frame   194
% time 194.0000
% report aster:force
%    class  identity      posX      posY    forceX    forceY    torque
         1         1   -4.9773    0.0051   13.8615   -8.8694   -0.6775
% end

% frame   195
% time 195.0000
% report aster:force
%    class  identity      posX      posY    forceX    forceY    torque
         1         1   -4.9752    0.0091   19.5421   -4.1223   -0.0504
% end

% frame   196
% time 196.0000
% report aster:force
%    class  identity      posX      posY    forceX    forceY    torque
         1         1   -4.9877    0.0087   24.9254   -2.7038   -0.3873
% end

% frame   197
% time 197.0000
% report aster:force
%    class  identity      posX      posY    forceX    forceY    torque
         1         1   -5.0009    0.0049   20.7798   -5.2331   -0.3666
% end

% frame   198
% time 198.0000
% report aster:force
%    class  identity      posX      posY    forceX    forceY    torque
         1         1   -4.9986    0.0013   20.6561    2.2959    0.2536
% end

% frame   199
% time 199.0000
% report aster:force
%    class  identity      posX      posY    forceX    forceY    torque
         1         1   -4.9974    0.0068   23.4463   -1.2381   -0.1732
% end

% frame   200
% time 200.0000
% report aster:force
%    class  identity      posX      posY    forceX    forceY    torque
         1         1   -4.9927    0.0148   16.6667    1.8889   -0.3134
% end

% frame   201
% time 201.0000
% report aster:force
%    class  identity      posX      posY    forceX    forceY    torque
         1         1   -4.9981    0.0082   19.0866    0.4890    0.0160
% end

% frame   202
% time 202.0000
% report aster:force
%    class  identity      posX      posY    forceX    forceY    torque
         1         1   -4.9828   -0.0001   14.1020   -4.6907    0.0565
% end

% frame   203
% time 203.0000
% report aster:force
%    class  identity      posX      posY    forceX    forceY    torque
         1         1   -4.9915   -0.0040   13.5539   -6.0434   -0.1097
% end

% frame   204
% time 204.0000
% report aster:force
%    class  identity      posX      posY    forceX    forceY    torque
         1         1   -4.9981   -0.0038   15.8928   -9.8132    0.5028
% end

% frame   205
% time 205.0000
% report aster:force
%    class  identity      posX      posY    forceX    forceY    torque
         1         1   -4.9984   -0.0055    9.1876   -2.4924   -0.4087
% end

% frame   206
% time 206.0000
% report aster:force
%    class  identity      posX      posY    forceX    forceY    torque
         1         1   -4.9915   -0.0103   18.9449    2.5148   -0.1604
% end

% frame   207
% time 207.0000
% report aster:force
%    class  identity      posX      posY    forceX    forceY    torque
         1         1   -4.9743   -0.0033   25.6808    1.8525   -0.2658
% end

% frame   208
% time 208.0000
% report aster:force
%    class  identity      posX      posY    forceX    forceY    torque
         1         1   -4.9851   -0.0098   21.9589    2.6183    0.5836
% end

% frame   209
% time 209.0000
% report aster:force
%    class  identity      posX      posY    forceX    forceY    torque
         1         1   -4.9956   -0.0080   31.9445   -6.3954    0.1135
% end

% frame   210
% time 210.0000
% report aster:force
%    class  identity      posX      posY    forceX    forceY    torque
         1         1   -4.9884    0.0154   28.8102    4.7472    0.1753
% end

% frame   211
% time 211.0000
% report aster:force
%    class  identity      posX      posY    forceX    forceY    torque
         1         1   -4.9959    0.0018   24.0807   -3.9639    0.0443
% end

% frame   212
% time 212.0000
% report aster:force
%    class  identity      posX      posY    forceX    forceY    torque
         1         1   -5.0070   -0.0026   23.1607    1.7702    0.2084
% end

% frame   213
% time 213.0000
% report aster:force
%    class  identity      posX      posY    forceX    forceY    torque
         1         1   -5.0060   -0.0116   17.1967   -7.1596   -0.0792
% end

% frame   214
% time 214.0000
% report aster:force
%    class  identity      posX      posY    forceX    forceY    torque
         1         1   -5.0028   -0.0111   20.0104   -8.3589   -0.0822
% end

% frame   215
% time 215.0000
% report aster:force
%    class  identity      posX      posY    forceX    forceY    torque
         1         1   -5.0032    0.0052   22.6514   -3.2922   -0.2404
% end

% frame   216
% time 216.0000
% report aster:force
%    class  identity      posX      posY    forceX    forceY    torque
         1         1   -4.9885    0.0073   11.3403    0.2021   -0.2662
% end

% frame   217
% time 217.0000
% report aster:force
%    class  identity      posX      posY    forceX    forceY    torque
         1         1   -5.0022    0.0036   14.3572   -2.2933   -0.0857
% end

% frame   218
% time 218.0000
% report aster:force
%    class  identity      posX      posY    forceX    forceY    torque
         1         1   -5.0045   -0.0141   19.3877   -4.4483    0.1014
% end

% frame   219
% time 219.0000
% report aster:force
%    class  identity      posX      posY    forceX    forceY    torque
         1         1   -4.9929    0.0020   20.4540   -1.6239   -0.1215
% end

% frame   220
% time 220.0000
% report aster:force
%    class  identity      posX      posY    forceX    forceY    torque
         1         1   -5.0068    0.0019   14.8920    1.2846    0.1112
% end

% frame   221
% time 221.0000
% report aster:force
%    class  identity      posX      posY    forceX    forceY    torque
         1         1   -4.9792    0.0110   15.2565   -4.0299   -0.0208
% end

% frame   222
% time 222.0000
% report aster:force
%    class  identity      posX      posY    forceX    forceY    torque
         1         1   -4.9879   -0.0100   11.9288   -2.3242    0.1574
% end

% frame   223
% time 223.0000
% report aster:force
%    class  identity      posX      posY    forceX    forceY    torque
         1         1   -4.9942    0.0178    8.9550   -5.2460    0.3464
% end

% frame   224
% time 224.0000
% report aster:force
%    class  identity      posX      posY    forceX    forceY    torque
         1         1   -4.9886    0.0054   14.3177   -9.2135    0.0203
% end

% frame   225
% time 225.0000
% report aster:force
%    class  identity      posX      posY    forceX    forceY    torque
         1         1   -4.9993    0.0127   12.8807   -9.1999   -0.0105
% end

% frame   226
% time 226.0000
% report aster:force
%    class  identity      posX      posY    forceX    forceY    torque
         1         1   -4.9925    0.0023   13.6636  -10.9432   -0.0523
% end

% frame   227
% time 227.0000
% report aster:force
%    class  identity      posX      posY    forceX    forceY    torque
         1         1   -4.9880    0.0025   10.1380   -5.9129   -0.0993
% end

% frame   228
% time 228.0000
% report aster:force
%    class  identity      posX      posY    forceX    forceY    torque
         1         1   -4.9748    0.0019   19.4936   -9.1179   -0.4381
% end

% frame   229
% time 229.0000
% report aster:force
%    class  identity      posX      posY    forceX    forceY    torque
         1         1   -4.9822    0.0045   15.8874   -7.7051   -0.1239
% end

% frame   230
% time 230.0000
% report aster:force
%    class  identity      posX      posY    forceX    forceY    torque
         1         1   -4.9925    0.0123   16.4018   -1.9956    0.2304
% end

% frame   231
% time 231.0000
% report aster:force
%    class  identity      posX      posY    forceX    forceY    torque
         1         1   -5.0028    0.0024   13.5267    0.9139   -0.2253
% end

% frame   232
% time 232.0000
% report aster:force
%    class  identity      posX      posY    forceX    forceY    torque
         1         1   -5.0102   -0.0009   12.6242    1.2172    0.1580
% end

% frame   233
% time 233.0000
% report aster:force
%    class  identity      posX      posY    forceX    forceY    torque
         1         1   -4.9839   -0.0011   16.7043    5.0268    0.4360
% end

% frame   234
% time 234.0000
% report aster:force
%    class  identity      posX      posY    forceX    forceY    torque
         1         1   -4.9981   -0.0039    7.8646    1.9962    0.0112
% end

% frame   235
% time 235.0000
% report aster:force
%    class  identity      posX      posY    forceX    forceY    torque
         1         1   -4.9798    0.0085   14.1920   -7.9537    0.0808
% end

% frame   236
% time 236.0000
% report aster:force
%    class  identity      posX      posY    forceX    forceY    torque
         1         1   -4.9902    0.0061   11.4599    2.1101    0.1925
% end

% frame   237
% time 237.0000
% report aster:force
%    class  identity      posX      posY    forceX    forceY    torque
         1         1   -5.0066   -0.0047   11.0307   -1.0850    0.0350
% end

% frame   238
% time 238.0000
% report aster:force
%    class  identity      posX      posY    forceX    forceY    torque
         1         1   -5.0027    0.0098   14.8485   -1.1265    0.2851
% end

% frame   239
% time 239.0000
% report aster:force
%    class  identity      posX      posY    forceX    forceY    torque
         1         1   -4.9756   -0.0045   21.1331   -0.5567    0.2768
% end

% frame   240
% time 240.0000
% report aster:force
%    class  identity      posX      posY    forceX    forceY    torque
         1         1   -4.9929   -0.0019   13.2113   -5.5848   -0.0003
% end

% frame   241
% time 241.0000
% report aster:force
%    class  identity      posX      posY    forceX    forceY    torque
         1         1   -5.0000    0.0050   14.7526   -6.2905   -0.4017
% end

% frame   242
% time 242.0000
% report aster:force
%    class  identity      posX      posY    forceX    forceY    torque
         1         1   -4.9940    0.0173    9.5190   -6.7948    0.0472
% end

% frame   243
% time 243.0000
% report aster:force
%    class  identity      posX      posY    forceX    forceY    torque
         1         1   -4.9892    0.0075   26.6794  -11.6824    0.0879
% end

% frame   244
% time 244.0000
% report aster:force
%    class  identity      posX      posY    forceX    forceY    torque
         1         1   -4.9947   -0.0095   15.9341   -0.8428   -0.0200
% end

% frame   245
% time 245.0000
% report aster:force
%    class  identity      posX      posY    forceX    forceY    torque
         1         1   -5.0045    0.0081   14.7674   -7.9830   -0.3895
% end

% frame   246
% time 246.0000
% report aster:force
%    class  identity      posX      posY    forceX    forceY    torque
         1         1   -5.0034    0.0018   19.0013   -2.5178   -0.4611
% end

% frame   247
% time 247.0000
% report aster:force
%    class  identity      posX      posY    forceX    forceY    torque
         1         1   -5.0079    0.0088   16.7763    0.1068    0.3721
% end

% frame   248
% time 248.0000
% report aster:force
%    class  identity      posX      posY    forceX    forceY    torque
         1         1   -4.9964    0.0079   18.6140   -1.3028    0.2613
% end

% frame   249
% time 249.0000
% report aster:force
%    class  identity      posX      posY    forceX    forceY    torque
         1         1   -4.9964   -0.0066   17.8591   -8.9040   -0.2161
% end

% frame   250
% time 250.0000
% report aster:force
%    class  identity      posX      posY    forceX    forceY    torque
         1         1   -5.0045   -0.0088    8.8950    1.9640   -0.0497
% end

% frame   251
% time 251.0000
% report aster:force
%    class  identity      posX      posY    forceX    forceY    torque
         1         1   -4.9824   -0.0026   15.1314   -3.9283    0.1399
% end

% frame   252
% time 252.0000
% report aster:force
%    class  identity      posX      posY    forceX    forceY    torque
         1         1   -4.9720   -0.0025   21.1699   -0.2246   -0.1285
% end

% frame   253
% time 253.0000
% report aster:force
%    class  identity      posX      posY    forceX    forceY    torque
         1         1   -4.9683    0.0013   23.7572    0.1170   -0.0442
% end

% frame   254
% time 254.0000
% report aster:force
%    class  identity      posX      posY    forceX    forceY    torque
         1         1   -5.0015    0.0044   16.6227   -3.9367   -0.3157
% end

% frame   255
% time 255.0000
% report aster:force
%    class  identity      posX      posY    forceX    forceY    torque
         1         1   -4.9897    0.0093   12.3450   -4.6015    0.1062
% end

% frame   256
% time 256.0000
% report aster:force
%    class  identity      posX      posY    forceX    forceY    torque
         1         1   -4.9989   -0.0013   13.1358   -4.5182   -0.1163
% end

% frame   257
% time 257.0000
% report aster:force
%    class  identity      posX      posY    forceX    forceY    torque
         1         1   -5.0076    0.0154   12.5677   -1.5686   -0.3655
% end

% frame   258
% time 258.0000
% report aster:force
%    class  identity      posX      posY    forceX    forceY    torque
         1         1   -4.9980    0.0069   18.2188   -3.8335   -0.1727
% end

% frame   259
% time 259.0000
% report aster:force
%    class  identity      posX      posY    forceX    forceY    torque
         1         1   -4.9838    0.0039   18.0389   -1.8992   -0.1837
% end

% frame   260
% time 260.0000
% report aster:force
%    class  identity      posX      posY    forceX    forceY    torque
         1         1   -4.9963    0.0006   16.8366   -7.2960   -0.0446
% end

% frame   261
% time 261.0000
% report aster:force
%    class  identity      posX      posY    forceX    forceY    torque
         1         1   -5.0018   -0.0044   20.3201   -8.6435   -0.0760
% end

% frame   262
% time 262.0000
% report aster:force
%    class  identity      posX      posY    forceX    forceY    torque
         1         1   -4.9928    0.0091   13.3382    3.0018   -0.2353
% end

% frame   263
% time 263.0000
% report aster:force
%    class  identity      posX      posY    forceX    forceY    torque
         1         1   -4.9894   -0.0110   19.8518  -10.3608    0.0359
% end

% frame   264
% time 264.0000
% report aster:force
%    class  identity      posX      posY    forceX    forceY    torque
         1         1   -5.0007   -0.0016   11.3014    4.8303   -0.1138
% end

% frame   265
% time 265.0000
% report aster:force
%    class  identity      posX      posY    forceX    forceY    torque
         1         1   -4.9834    0.0073   16.0695    6.9058    0.4554
% end

% frame   266
% time 266.0000
% report aster:force
%    class  identity      posX      posY    forceX    forceY    torque
         1         1   -4.9933   -0.0033   19.8230   -0.6530    0.2501
% end

% frame   267
% time 267.0000
% report aster:force
%    class  identity      posX      posY    forceX    forceY    torque
         1         1   -4.9931    0.0072   21.3133   -0.1941    0.2574
% end

% frame   268
% time 268.0000
% report aster:force
%    class  identity      posX      posY    forceX    forceY    torque
         1         1   -4.9962   -0.0143   17.9046   -1.4494   -0.3181
% end

% frame   269
% time 269.0000
% report aster:force
%    class  identity      posX      posY    forceX    forceY    torque
         1         1   -4.9958   -0.0011   17.7590    6.8732   -0.1945
% end

% frame   270
% time 270.0000
% report aster:force
%    class  identity      posX      posY    forceX    forceY    torque
         1         1   -5.0030    0.0007   12.5783    4.6722   -0.1852
% end

% frame   271
% time 271.0000
% report aster:force
%    class  identity      posX      posY    forceX    forceY    torque
         1         1   -4.9950    0.0198   21.4335   -2.3265    0.0137
% end

% frame   272
% time 272.0000
% report aster:force
%    class  identity      posX      posY    forceX    forceY    torque
         1         1   -5.0010   -0.0085   23.2206    1.3280    0.0919
% end

% frame   273
% time 273.0000
% report aster:force
%    class  identity      posX      posY    forceX    forceY    torque
         1         1   -5.0034    0.0059   17.6439    2.9699   -0.1408
% end

% frame   274
% time 274.0000
% report aster:force
%    class  identity      posX      posY    forceX    forceY    torque
         1         1   -5.0114   -0.0076   21.3981    0.5155    0.2056
% end

% frame   275
% time 275.0000
% report aster:force
%    class  identity      posX      posY    forceX    forceY    torque
         1         1   -5.0004   -0.0035   21.5454   -2.9073    0.5529
% end

% frame   276
% time 276.0000
% report aster:force
%    class  identity      posX      posY    forceX    forceY    torque
         1         1   -4.9841   -0.0067   23.0238   -4.0174   -0.2391
% end

% frame   277
% time 277.0000
% report aster:force
%    class  identity      posX      posY    forceX    forceY    torque
         1         1   -4.9952   -0.0056   19.1309    6.3768    0.5601
% end

% frame   278
% time 278.0000
% report aster:force
%    class  identity      posX      posY    forceX    forceY    torque
         1         1   -5.0086   -0.0006   13.6156    6.8589    0.1686
% end

% frame   279
% time 279.0000
% report aster:force
%    class  identity      posX      posY    forceX    forceY    torque
         1         1   -5.0044    0.0001    9.6831   -0.2246   -0.0853
% end

% frame   280
% time 280.0000
% report aster:force
%    class  identity      posX      posY    forceX    forceY    torque
         1         1   -4.9900    0.0030   12.3460    2.1066    0.2421
% end

% frame   281
% time 281.0000
% report aster:force
%    class  identity      posX      posY    forceX    forceY    torque
         1         1   -4.9889   -0.0069   11.4518   -3.7327    0.0153
% end

% frame   282
% time 282.0000
% report aster:force
%    class  identity      posX      posY    forceX    forceY    torque
         1         1   -4.9978    0.0046    8.5296   -1.5966    0.1939
% end

% frame   283
% time 283.0000
% report aster:force
%    class  identity      posX      posY    forceX    forceY    torque
         1         1   -4.9702   -0.0046   23.5222   -1.6809    0.0413
% end

% frame   284
% time 284.0000
% report aster:force
%    class  identity      posX      posY    forceX    forceY    torque
         1         1   -5.0009   -0.0134   19.6356    5.7104    0.2672
% end

% frame   285
% time 285.0000
% report aster:force
%    class  identity      posX      posY    forceX    forceY    torque
         1         1   -4.9890   -0.0017   14.8478    8.1663    0.4057
% end

% frame   286
% time 286.0000
% report aster:force
%    class  identity      posX      posY    forceX    forceY    torque
         1         1   -5.0007    0.0039    7.8568    0.9791    0.3218
% end

% frame   287
% time 287.0000
% report aster:force
%    class  identity      posX      posY    forceX    forceY    torque
         1         1   -4.9919   -0.0104    9.7823    6.3997   -0.3593
% end

% frame   288
% time 288.0000
% report aster:force
%    class  identity      posX      posY    forceX    forceY    torque
         1         1   -4.9968   -0.0036   20.4328    3.5375    0.1889
% end

% frame   289
% time 289.0000
% report aster:force
%    class  identity      posX      posY    forceX    forceY    torque
         1         1   -4.9904   -0.0090   24.2895    8.4085    0.2431
% end

% frame   290
% time 290.0000
% report aster:force
%    class  identity      posX      posY    forceX    forceY    torque
         1         1   -5.0018   -0.0014   15.9543    5.6957   -0.1083
% end

% frame   291
% time 291.0000
% report aster:force
%    class  identity      posX      posY    forceX    forceY    torque
         1         1   -4.9807   -0.0130   12.2885   -5.7975    0.0422
% end

% frame   292
% time 292.0000
% report aster:force
%    class  identity      posX      posY    forceX    forceY    torque
         1         1   -5.0073    0.0041   25.3399    1.3919   -0.1634
% end

% frame   293
% time 293.0000
% report aster:force
%    class  identity      posX      posY    forceX    forceY    torque
         1         1   -4.9944   -0.0037   27.7358   -6.7432   -0.1201
% end

% frame   294
% time 294.0000
% report aster:force
%    class  identity      posX      posY    forceX    forceY    torque
         1         1   -5.0021   -0.0044   21.4455   -1.9618    0.2146
% end

% frame   295
% time 295.0000
% report aster:force
%    class  identity      posX      posY    forceX    forceY    torque
         1         1   -4.9985   -0.0030   21.7830   -3.8670   -0.2122
% end

% frame   296
% time 296.0000
% report aster:force
%    class  identity      posX      posY    forceX    forceY    torque
         1         1   -4.9824    0.0097   18.4664   -1.3585   -0.1201
% end

% frame   297
% time 297.0000
% report aster:force
%    class  identity      posX      posY    forceX    forceY    torque
         1         1   -4.9884    0.0006    2.4769   -3.2179   -0.2599
% end

% frame   298
% time 298.0000
% report aster:force
%    class  identity      posX      posY    forceX    forceY    torque
         1         1   -5.0025    0.0004    3.3741   -1.7337    0.0860
% end

% frame   299
% time 299.0000
% report aster:force
%    class  identity      posX      posY    forceX    forceY    torque
         1         1   -4.9969   -0.0066   13.1364   -4.4501    0.0477
% end

% frame   300
% time 300.0000
% report aster:force
%    class  identity      posX      posY    forceX    forceY    torque
         1         1   -5.0008   -0.0037    9.6591   -6.7241    0.0038
% end

% frame   301
% time 301.0000
% report aster:force
%    class  identity      posX      posY    forceX    forceY    torque
         1         1   -4.9947   -0.0088   11.2483   -3.7732   -0.0181
% end

% frame   302
% time 302.0000
% report aster:force
%    class  identity      posX      posY    forceX    forceY    torque
         1         1   -4.9934   -0.0086   16.8682   -1.9820    0.0480
% end

% frame   303
% time 303.0000
% report aster:force
%    class  identity      posX      posY    forceX    forceY    torque
         1         1   -4.9988    0.0092   21.8955   -4.7041   -0.4137
% end

% frame   304
% time 304.0000
% report aster:force
%    class  identity      posX      posY    forceX    forceY    torque
         1         1   -4.9919    0.0066   26.1233    0.9829    0.1647
% end

% frame   305
% time 305.0000
% report aster:force
%    class  identity      posX      posY    forceX    forceY    torque
         1         1   -4.9973   -0.0136   24.5942   -1.5235    0.1102
% end

% frame   306
% time 306.0000
% report aster:force
%    class  identity      posX      posY    forceX    forceY    torque
         1         1   -5.0051    0.0073   20.8613   -0.2811   -0.0377
% end

% frame   307
% time 307.0000
% report aster:force
%    class  identity      posX      posY    forceX    forceY    torque
         1         1   -4.9940    0.0009   20.0560   -2.8053   -0.1288
% end

% frame   308
% time 308.0000
% report aster:force
%    class  identity      posX      posY    forceX    forceY    torque
         1         1   -4.9929   -0.0095   16.4566   -5.5742   -0.0645
% end

% frame   309
% time 309.0000
% report aster:force
%    class  identity      posX      posY    forceX    forceY    torque
         1         1   -5.0008    0.0001   24.8826   -2.1210    0.2730
% end

% frame   310
% time 310.0000
% report aster:force
%    class  identity      posX      posY    forceX    forceY    torque
         1         1   -4.9838   -0.0004   26.8156    3.9383   -0.0404
% end

% frame   311
% time 311.0000
% report aster:force
%    class  identity      posX      posY    forceX    forceY    torque
         1         1   -4.9974    0.0067   27.1842    4.8163    0.1239
% end

% frame   312
% time 312.0000
% report aster:force
%    class  identity      posX      posY    forceX    forceY    torque
         1         1   -4.9889    0.0033   22.9048    2.6413   -0.1915
% end

% frame   313
% time 313.0000
% report aster:force
%    class  identity      posX      posY    forceX    forceY    torque
         1         1   -4.9654   -0.0017   32.7177    2.1308    0.0425
% end

% frame   314
% time 314.0000
% report aster:force
%    class  identity      posX      posY    forceX    forceY    torque
         1         1   -4.9890    0.0027   17.2968   -5.0733   -0.0625
% end

% frame   315
% time 315.0000
% report aster:force
%    class  identity      posX      posY    forceX    forceY    torque
         1         1   -4.9760    0.0045   22.3081   -4.2615   -0.0620
% end

% frame   316
% time 316.0000
% report aster:force
%    class  identity      posX      posY    forceX    forceY    torque
         1         1   -5.0085    0.0070   15.0792   -0.3678   -0.0171
% end

% frame   317
% time 317.0000
% report aster:force
%    class  identity      posX      posY    forceX    forceY    torque
         1         1   -4.9911    0.0146   26.6468   -5.7062    0.1514
% end

% frame   318
% time 318.0000
% report aster:force
%    class  identity      posX      posY    forceX    forceY    torque
         1         1   -4.9657    0.0013   20.2370  -10.8962   -0.1208
% end

% frame   319
% time 319.0000
% report aster:force
%    class  identity      posX      posY    forceX    forceY    torque
         1         1   -5.0048    0.0005   13.4744   -2.2623    0.2430
% end

% frame   320
% time 320.0000
% report aster:force
%    class  identity      posX      posY    forceX    forceY    torque
         1         1   -4.9891    0.0109   16.8534    2.4727   -0.1839
% end

% frame   321
% time 321.0000
% report aster:force
%    class  identity      posX      posY    forceX    forceY    torque
         1         1   -4.9876    0.0069   21.5896   -4.6032   -0.1132
% end

% frame   322
% time 322.0000
% report aster:force
%    class  identity      posX      posY    forceX    forceY    torque
         1         1   -4.9714   -0.0146   27.5197  -11.1788   -0.2259
% end

% frame   323
% time 323.0000
% report aster:force
%    class  identity      posX      posY    forceX    forceY    torque
         1         1   -4.9745    0.0016   25.7867   -4.3137    0.1019
% end

% frame   324
% time 324.0000
% report aster:force
%    class  identity      posX      posY    forceX    forceY    torque
         1         1   -4.9926    0.0101   24.6509    1.7904    0.0477
% end

% frame   325
% time 325.0000
% report aster:force
%    class  identity      posX      posY    forceX    forceY    torque
         1         1   -4.9786    0.0146   30.8811   -5.8012    0.2373
% end

% frame   326
% time 326.0000
% report aster:force
%    class  identity      posX      posY    forceX    forceY    torque
         1         1   -4.9782   -0.0098   29.4123   -5.9712    0.2327
% end

% frame   327
% time 327.0000
% report aster:force
%    class  identity      posX      posY    forceX    forceY    torque
         1         1   -4.9761    0.0116   23.8661    1.6194   -0.0975
% end

% frame   328
% time 328.0000
% report aster:force
%    class  identity      posX      posY    forceX    forceY    torque
         1         1   -4.9954    0.0200   12.9433   -8.9609   -0.1906
% end

% frame   329
% time 329.0000
% report aster:force
%    class  identity      posX      posY    forceX    forceY    torque
         1         1   -4.9807    0.0017   16.9655   -6.4874   -0.2583
% end

% frame   330
% time 330.0000
% report aster:force
%    class  identity      posX      posY    forceX    forceY    torque
         1         1   -4.9819    0.0018   18.5061    2.8883    0.2754
% end

% frame   331
% time 331.0000
% report aster:force
%    class  identity      posX      posY    forceX    forceY    torque
         1         1   -5.0028    0.0000   12.3311   -1.9842    0.2620
% end

% frame   332
% time 332.0000
% report aster:force
%    class  identity      posX      posY    forceX    forceY    torque
         1         1   -4.9851    0.0019   16.9758   -3.0850    0.2011
% end

% frame   333
% time 333.0000
% report aster:force
%    class  identity      posX      posY    forceX    forceY    torque
         1         1   -4.9917   -0.0095   22.8905   -5.6866   -0.0273
% end

% frame   334
% time 334.0000
% report aster:force
%    class  identity      posX      posY    forceX    forceY    torque
         1         1   -4.9956   -0.0000   23.4093    3.2300   -0.1067
% end

% frame   335
% time 335.0000
% report aster:force
%    class  identity      posX      posY    forceX    forceY    torque
         1         1   -5.0034   -0.0065   23.4110   -4.1334    0.0098
% end

% frame   336
% time 336.0000
% report aster:force
%    class  identity      posX      posY    forceX    forceY    torque
         1         1   -4.9994   -0.0049   19.1932    0.8782    0.2100
% end

% frame   337
% time 337.0000
% report aster:force
%    class  identity      posX      posY    forceX    forceY    torque
         1         1   -5.0131    0.0054    4.2247   -3.6923    0.0435
% end

% frame   338
% time 338.0000
% report aster:force
%    class  identity      posX      posY    forceX    forceY    torque
         1         1   -5.0104   -0.0050    8.2095   -0.2795   -0.0346
% end

% frame   339
% time 339.0000
% report aster:force
%    class  identity      posX      posY    forceX    forceY    torque
         1         1   -4.9946   -0.0066   16.5835   -0.4364   -0.0323
% end

% frame   340
% time 340.0000
% report aster:force
%    class  identity      posX      posY    forceX    forceY    torque
         1         1   -4.9934    0.0086   19.4698    4.5507   -0.5721
% end

% frame   341
% time 341.0000
% report aster:force
%    class  identity      posX      posY    forceX    forceY    torque
         1         1   -4.9738   -0.0013   23.8770   -0.9149    0.0351
% end

% frame   342
% time 342.0000
% report aster:force
%    class  identity      posX      posY    forceX    forceY    torque
         1         1   -4.9985   -0.0067   27.3413    1.1599   -0.1561
% end

% frame   343
% time 343.0000
% report aster:force
%    class  identity      posX      posY    forceX    forceY    torque
         1         1   -4.9927   -0.0016   19.7167   -4.8014    0.1671
% end

% frame   344
% time 344.0000
% report aster:force
%    class  identity      posX      posY    forceX    forceY    torque
         1         1   -5.0083   -0.0052   14.5262    5.4927    0.3789
% end

% frame   345
% time 345.0000
% report aster:force
%    class  identity      posX      posY    forceX    forceY    torque
         1         1   -4.9877   -0.0042   13.2922    0.0234    0.1708
% end

% frame   346
% time 346.0000
% report aster:force
%    class  identity      posX      posY    forceX    forceY    torque
         1         1   -5.0095    0.0013   10.3949   -1.1474   -0.0056
% end

% frame   347
% time 347.0000
% report aster:force
%    class  identity      posX      posY    forceX    forceY    torque
         1         1   -5.0084    0.0043   15.4440   -0.1638   -0.0170
% end

% frame   348
% time 348.0000
% report aster:force
%    class  identity      posX      posY    forceX    forceY    torque
         1         1   -4.9979   -0.0007   14.2975   -0.7238    0.4281
% end

% frame   349
% time 349.0000
% report aster:force
%    class  identity      posX      posY    forceX    forceY    torque
         1         1   -5.0050    0.0052   13.6185    5.3111    0.2751
% end

% frame   350
% time 350.0000
% report aster:force
%    class  identity      posX      posY    forceX    forceY    torque
         1         1   -4.9949    0.0042   16.2455    0.9691   -0.0659
% end

% frame   351
% time 351.0000
% report aster:force
%    class  identity      posX      posY    forceX    forceY    torque
         1         1   -5.0058    0.0019   18.7820   -3.9699    0.1337
% end

% frame   352
% time 352.0000
% report aster:force
%    class  identity      posX      posY    forceX    forceY    torque
         1         1   -5.0009    0.0048   21.1169   -8.3597    0.1280
% end

% frame   353
% time 353.0000
% report aster:force
%    class  identity      posX      posY    forceX    forceY    torque
         1         1   -5.0059    0.0203   20.7366   -5.4097    0.1341
% end

% frame   354
% time 354.0000
% report aster:force
%    class  identity      posX      posY    forceX    forceY    torque
         1         1   -4.9991   -0.0057   23.6212   -2.6788   -0.1616
% end

% frame   355
% time 355.0000
% report aster:force
%    class  identity      posX      posY    forceX    forceY    torque
         1         1   -5.0128   -0.0055   18.3594    0.0726    0.0069
% end

% frame   356
% time 356.0000
% report aster:force
%    class  identity      posX      posY    forceX    forceY    torque
         1         1   -5.0113   -0.0163   17.1447    0.3775    0.1947
% end

% frame   357
% time 357.0000
% report aster:force
%    class  identity      posX      posY    forceX    forceY    torque
         1         1   -5.0076   -0.0138   23.0166   -0.4757   -0.1807
% end

% frame   358
% time 358.0000
% report aster:force
%    class  identity      posX      posY    forceX    forceY    torque
         1         1   -5.0064   -0.0240   19.0515   -0.8878   -0.0258
% end

% frame   359
% time 359.0000
% report aster:force
%    class  identity      posX      posY    forceX    forceY    torque
         1         1   -5.0025    0.0002   12.4078    0.7189    0.0406
% end

% frame   360
% time 360.0000
% report aster:force
%    class  identity      posX      posY    forceX    forceY    torque
         1         1   -4.9910    0.0051   17.5569   -0.1119   -0.1914
% end

% frame   361
% time 361.0000
% report aster:force
%    class  identity      posX      posY    forceX    forceY    torque
         1         1   -4.9956    0.0077   12.2007   -4.6459    0.1906
% end

% frame   362
% time 362.0000
% report aster:force
%    class  identity      posX      posY    forceX    forceY    torque
         1         1   -4.9971    0.0039   22.0429   -7.0393   -0.0156
% end

% frame   363
% time 363.0000
% report aster:force
%    class  identity      posX      posY    forceX    forceY    torque
         1         1   -4.9996    0.0077   23.1728   -2.1905    0.3885
% end

% frame   364
% time 364.0000
% report aster:force
%    class  identity      posX      posY    forceX    forceY    torque
         1         1   -4.9902   -0.0076   22.3361  -10.8228    0.2189
% end

% frame   365
% time 365.0000
% report aster:force
%    class  identity      posX      posY    forceX    forceY    torque
         1         1   -4.9687    0.0072   24.6979    0.4440    0.4091
% end

% frame   366
% time 366.0000
% report aster:force
%    class  identity      posX      posY    forceX    forceY    torque
         1         1   -5.0001   -0.0046   24.5323   -5.1727    0.5986
% end

% frame   367
% time 367.0000
% report aster:force
%    class  identity      posX      posY    forceX    forceY    torque
         1         1   -4.9977    0.0096   28.8748    7.4218   -0.3444
% end

% frame   368
% time 368.0000
% report aster:force
%    class  identity      posX      posY    forceX    forceY    torque
         1         1   -4.9909    0.0028   38.6686    6.0982    0.3402
% end

% frame   369
% time 369.0000
% report aster:force
%    class  identity      posX      posY    forceX    forceY    torque
         1         1   -4.9892    0.0075   30.0493    5.9170    0.2171
% end

% frame   370
% time 370.0000
% report aster:force
%    class  identity      posX      posY    forceX    forceY    torque
         1         1   -5.0076    0.0088   13.3232    3.4341   -0.3984
% end

% frame   371
% time 371.0000
% report aster:force
%    class  identity      posX      posY    forceX    forceY    torque
         1         1   -4.9948    0.0086   15.2022   -1.7986    0.2346
% end

% frame   372
% time 372.0000
% report aster:force
%    class  identity      posX      posY    forceX    forceY    torque
         1         1   -5.0093    0.0119   19.8507    5.6925    0.3435
% end

% frame   373
% time 373.0000
% report aster:force
%    class  identity      posX      posY    forceX    forceY    torque
         1         1   -4.9862   -0.0063   25.0728   -2.1165   -0.1936
% end

% frame   374
% time 374.0000
% report aster:force
%    class  identity      posX      posY    forceX    forceY    torque
         1         1   -4.9794   -0.0002   25.5833    1.1988    0.2037
% end

% frame   375
% time 375.0000
% report aster:force
%    class  identity      posX      posY    forceX    forceY    torque
         1         1   -5.0039    0.0001   21.5668    1.5283   -0.1685
% end

% frame   376
% time 376.0000
% report aster:force
%    class  identity      posX      posY    forceX    forceY    torque
         1         1   -5.0025   -0.0035   21.3031    0.0343    0.7004
% end

% frame   377
% time 377.0000
% report aster:force
%    class  identity      posX      posY    forceX    forceY    torque
         1         1   -4.9779    0.0008   16.5752   -4.2540    0.3523
% end

% frame   378
% time 378.0000
% report aster:force
%    class  identity      posX      posY    forceX    forceY    torque
         1         1   -4.9972    0.0052   14.3967   -4.4085   -0.1986
% end

% frame   379
% time 379.0000
% report aster:force
%    class  identity      posX      posY    forceX    forceY    torque
         1         1   -4.9764    0.0020   20.4111   -3.2502    0.3864
% end

% frame   380
% time 380.0000
% report aster:force
%    class  identity      posX      posY    forceX    forceY    torque
         1         1   -4.9949    0.0030   19.4346   -4.4117   -0.5359
% end

% frame   381
% time 381.0000
% report aster:force
%    class  identity      posX      posY    forceX    forceY    torque
         1         1   -4.9902    0.0022   20.2810   -7.8676   -0.1249
% end

% frame   382
% time 382.0000
% report aster:force
%    class  identity      posX      posY    forceX    forceY    torque
         1         1   -4.9978   -0.0094   18.5741   -3.6158   -0.0808
% end

% frame   383
% time 383.0000
% report aster:force
%    class  identity      posX      posY    forceX    forceY    torque
         1         1   -4.9989    0.0026   19.2306    4.8527   -0.0228
% end

% frame   384
% time 384.0000
% report aster:force
%    class  identity      posX      posY    forceX    forceY    torque
         1         1   -4.9705    0.0087   27.5953    3.7073   -0.1881
% end

% frame   385
% time 385.0000
% report aster:force
%    class  identity      posX      posY    forceX    forceY    torque
         1         1   -4.9917   -0.0047   24.9640    6.4258    0.0165
% end

% frame   386
% time 386.0000
% report aster:force
%    class  identity      posX      posY    forceX    forceY    torque
         1         1   -4.9817    0.0109   22.7060    0.5293   -0.5738
% end

% frame   387
% time 387.0000
% report aster:force
%    class  identity      posX      posY    forceX    forceY    torque
         1         1   -4.9958   -0.0010   15.6550   -3.6090    0.0006
% end

% frame   388
% time 388.0000
% report aster:force
%    class  identity      posX      posY    forceX    forceY    torque
         1         1   -5.0042    0.0086   10.9055   -0.3870    0.1321
% end

% frame   389
% time 389.0000
% report aster:force
%    class  identity      posX      posY    forceX    forceY    torque
         1         1   -4.9856    0.0119   26.1110    0.7280   -0.2882
% end

% frame   390
% time 390.0000
% report aster:force
%    class  identity      posX      posY    forceX    forceY    torque
         1         1   -4.9809    0.0110   26.1176   -1.8666    0.0043
% end

% frame   391
% time 391.0000
% report aster:force
%    class  identity      posX      posY    forceX    forceY    torque
         1         1   -4.9819    0.0022   25.8548   -1.5141    0.0503
% end

% frame   392
% time 392.0000
% report aster:force
%    class  identity      posX      posY    forceX    forceY    torque
         1         1   -4.9960   -0.0085   14.2045   -7.5545   -0.1627
% end

% frame   393
% time 393.0000
% report aster:force
%    class  identity      posX      posY    forceX    forceY    torque
         1         1   -5.0046    0.0037   18.0390    8.9479   -0.1307
% end

% frame   394
% time 394.0000
% report aster:force
%    class  identity      posX      posY    forceX    forceY    torque
         1         1   -5.0018    0.0010   16.9748    3.8470   -0.0557
% end

% frame   395
% time 395.0000
% report aster:force
%    class  identity      posX      posY    forceX    forceY    torque
         1         1   -5.0001   -0.0007   19.6588    0.0107   -0.3564
% end

% frame   396
% time 396.0000
% report aster:force
%    class  identity      posX      posY    forceX    forceY    torque
         1         1   -5.0045   -0.0057   15.1918    1.5348    0.0389
% end

% frame   397
% time 397.0000
% report aster:force
%    class  identity      posX      posY    forceX    forceY    torque
         1         1   -5.0094   -0.0047   11.7056    1.1789   -0.1300
% end

% frame   398
% time 398.0000
% report aster:force
%    class  identity      posX      posY    forceX    forceY    torque
         1         1   -5.0020    0.0108   11.5564   -4.7438   -0.5479
% end

% frame   399
% time 399.0000
% report aster:force
%    class  identity      posX      posY    forceX    forceY    torque
         1         1   -5.0119   -0.0015   15.1118   -3.6052    0.0882
% end

% frame   400
% time 400.0000
% report aster:force
%    class  identity      posX      posY    forceX    forceY    torque
         1         1   -4.9974    0.0070   26.7864   -1.0403   -0.1163
% end

% frame   401
% time 401.0000
% report aster:force
%    class  identity      posX      posY    forceX    forceY    torque
         1         1   -4.9740    0.0087   25.4279   -5.3767    0.0177
% end

% frame   402
% time 402.0000
% report aster:force
%    class  identity      posX      posY    forceX    forceY    torque
         1         1   -5.0034    0.0003   16.7732    4.6360    0.0999
% end

% frame   403
% time 403.0000
% report aster:force
%    class  identity      posX      posY    forceX    forceY    torque
         1         1   -5.0078    0.0170   12.8756    0.7885   -0.1407
% end

% frame   404
% time 404.0000
% report aster:force
%    class  identity      posX      posY    forceX    forceY    torque
         1         1   -4.9921    0.0022   14.5148   -1.1584    0.2858
% end

% frame   405
% time 405.0000
% report aster:force
%    class  identity      posX      posY    forceX    forceY    torque
         1         1   -4.9898   -0.0039   18.7007    2.0165    0.0883
% end

% frame   406
% time 406.0000
% report aster:force
%    class  identity      posX      posY    forceX    forceY    torque
         1         1   -4.9943    0.0039   15.1988    1.2222    0.1445
% end

% frame   407
% time 407.0000
% report aster:force
%    class  identity      posX      posY    forceX    forceY    torque
         1         1   -4.9885   -0.0036   19.0042   -0.0235   -0.1214
% end

% frame   408
% time 408.0000
% report aster:force
%    class  identity      posX      posY    forceX    forceY    torque
         1         1   -4.9886    0.0042   18.7980    3.6616   -0.2360
% end

% frame   409
% time 409.0000
% report aster:force
%    class  identity      posX      posY    forceX    forceY    torque
         1         1   -5.0023   -0.0089   16.6686    1.4271    0.0155
% end

% frame   410
% time 410.0000
% report aster:force
%    class  identity      posX      posY    forceX    forceY    torque
         1         1   -5.0040   -0.0035    7.6841   -2.7984   -0.1418
% end

% frame   411
% time 411.0000
% report aster:force
%    class  identity      posX      posY    forceX    forceY    torque
         1         1   -5.0025   -0.0071   12.3655   -0.1171   -0.0893
% end

% frame   412
% time 412.0000
% report aster:force
%    class  identity      posX      posY    forceX    forceY    torque
         1         1   -5.0055   -0.0144   16.6745   -3.3911    0.0038
% end

% frame   413
% time 413.0000
% report aster:force
%    class  identity      posX      posY    forceX    forceY    torque
         1         1   -4.9825    0.0044   26.3784   -3.5011    0.4727
% end

% frame   414
% time 414.0000
% report aster:force
%    class  identity      posX      posY    forceX    forceY    torque
         1         1   -4.9854    0.0065   27.5869   -2.7108    0.4792
% end

% frame   415
% time 415.0000
% report aster:force
%    class  identity      posX      posY    forceX    forceY    torque
         1         1   -4.9962   -0.0064   26.8972    0.6209    0.4411
% end

% frame   416
% time 416.0000
% report aster:force
%    class  identity      posX      posY    forceX    forceY    torque
         1         1   -4.9961    0.0010   26.3701   -4.2912   -0.4839
% end

% frame   417
% time 417.0000
% report aster:force
%    class  identity      posX      posY    forceX    forceY    torque
         1         1   -4.9934    0.0059   26.8549   -3.1602    0.4120
% end

% frame   418
% time 418.0000
% report aster:force
%    class  identity      posX      posY    forceX    forceY    torque
         1         1   -4.9794    0.0072   32.3708    1.2826    0.2435
% end

% frame   419
% time 419.0000
% report aster:force
%    class  identity      posX      posY    forceX    forceY    torque
         1         1   -4.9896   -0.0162   24.8481   -0.6913    0.1740
% end

% frame   420
% time 420.0000
% report aster:force
%    class  identity      posX      posY    forceX    forceY    torque
         1         1   -5.0101    0.0005   15.8645    2.1571   -0.0539
% end

% frame   421
% time 421.0000
% report aster:force
%    class  identity      posX      posY    forceX    forceY    torque
         1         1   -4.9870   -0.0195   20.3742    0.6723   -0.1285
% end

% frame   422
% time 422.0000
% report aster:force
%    class  identity      posX      posY    forceX    forceY    torque
         1         1   -4.9882   -0.0029   12.5416   -0.9377    0.0386
% end

% frame   423
% time 423.0000
% report aster:force
%    class  identity      posX      posY    forceX    forceY    torque
         1         1   -4.9877    0.0095   18.6648   -3.9569   -0.0316
% end

% frame   424
% time 424.0000
% report aster:force
%    class  identity      posX      posY    forceX    forceY    torque
         1         1   -4.9953   -0.0030   22.9675    3.8281   -0.1336
% end

% frame   425
% time 425.0000
% report aster:force
%    class  identity      posX      posY    forceX    forceY    torque
         1         1   -4.9870    0.0094   24.4323   -0.0813    0.3819
% end

% frame   426
% time 426.0000
% report aster:force
%    class  identity      posX      posY    forceX    forceY    torque
         1         1   -5.0011    0.0059   21.0702    1.6306    0.0810
% end

% frame   427
% time 427.0000
% report aster:force
%    class  identity      posX      posY    forceX    forceY    torque
         1         1   -5.0057    0.0049   13.5089    1.6245   -0.2409
% end

% frame   428
% time 428.0000
% report aster:force
%    class  identity      posX      posY    forceX    forceY    torque
         1         1   -4.9808    0.0096   24.7965    4.9233    0.1127
% end

% frame   429
% time 429.0000
% report aster:force
%    class  identity      posX      posY    forceX    forceY    torque
         1         1   -4.9912   -0.0070   23.5972   -2.5033   -0.1618
% end

% frame   430
% time 430.0000
% report aster:force
%    class  identity      posX      posY    forceX    forceY    torque
         1         1   -4.9807    0.0012   24.6492   -0.3726   -0.4808
% end

% frame   431
% time 431.0000
% report aster:force
%    class  identity      posX      posY    forceX    forceY    torque
         1         1   -5.0025    0.0054   20.6775    3.9143   -0.2023
% end

% frame   432
% time 432.0000
% report aster:force
%    class  identity      posX      posY    forceX    forceY    torque
         1         1   -5.0002   -0.0089   22.9482   -5.8685   -0.1522
% end

% frame   433
% time 433.0000
% report aster:force
%    class  identity      posX      posY    forceX    forceY    torque
         1         1   -4.9913    0.0055   16.0760   -2.8373    0.0545
% end

% frame   434
% time 434.0000
% report aster:force
%    class  identity      posX      posY    forceX    forceY    torque
         1         1   -5.0058   -0.0064    4.3423   -1.3060   -0.0553
% end

% frame   435
% time 435.0000
% report aster:force
%    class  identity      posX      posY    forceX    forceY    torque
         1         1   -4.9852   -0.0064   22.2459   -0.5195   -0.2385
% end

% frame   436
% time 436.0000
% report aster:force
%    class  identity      posX      posY    forceX    forceY    torque
         1         1   -4.9815    0.0073   22.7492    2.2746    0.0819
% end

% frame   437
% time 437.0000
% report aster:force
%    class  identity      posX      posY    forceX    forceY    torque
         1         1   -4.9931   -0.0013   21.9518    3.8655    0.3639
% end

% frame   438
% time 438.0000
% report aster:force
%    class  identity      posX      posY    forceX    forceY    torque
         1         1   -5.0006   -0.0024   17.3543    2.4101   -0.1076
% end

% frame   439
% time 439.0000
% report aster:force
%    class  identity      posX      posY    forceX    forceY    torque
         1         1   -4.9785   -0.0108   19.7616   -4.2073    0.1103
% end

% frame   440
% time 440.0000
% report aster:force
%    class  identity      posX      posY    forceX    forceY    torque
         1         1   -4.9835   -0.0021   27.7311   -0.4698    0.7093
% end

% frame   441
% time 441.0000
% report aster:force
%    class  identity      posX      posY    forceX    forceY    torque
         1         1   -4.9989    0.0007   16.6595   -5.4848   -0.0318
% end

% frame   442
% time 442.0000
% report aster:force
%    class  identity      posX      posY    forceX    forceY    torque
         1         1   -4.9888    0.0111   13.7727   -4.7791   -0.3402
% end

% frame   443
% time 443.0000
% report aster:force
%    class  identity      posX      posY    forceX    forceY    torque
         1         1   -4.9922    0.0028   11.8052   -2.0057    0.3145
% end

% frame   444
% time 444.0000
% report aster:force
%    class  identity      posX      posY    forceX    forceY    torque
         1         1   -5.0006   -0.0022   14.4743   -1.9413   -0.1045
% end

% frame   445
% time 445.0000
% report aster:force
%    class  identity      posX      posY    forceX    forceY    torque
         1         1   -4.9924    0.0019   18.1948   -4.0363   -0.0450
% end

% frame   446
% time 446.0000
% report aster:force
%    class  identity      posX      posY    forceX    forceY    torque
         1         1   -4.9861    0.0168   20.4222   -1.6087   -0.3009
% end

% frame   447
% time 447.0000
% report aster:force
%    class  identity      posX      posY    forceX    forceY    torque
         1         1   -4.9914   -0.0097   21.1607    0.0135   -0.1291
% end

% frame   448
% time 448.0000
% report aster:force
%    class  identity      posX      posY    forceX    forceY    torque
         1         1   -5.0050    0.0061   24.2882   -3.9060   -0.1235
% end

% frame   449
% time 449.0000
% report aster:force
%    class  identity      posX      posY    forceX    forceY    torque
         1         1   -4.9923   -0.0088   21.5338   -2.7117   -0.0327
% end

% frame   450
% time 450.0000
% report aster:force
%    class  identity      posX      posY    forceX    forceY    torque
         1         1   -4.9872    0.0111   11.4956    5.3304   -0.1756
% end

% frame   451
% time 451.0000
% report aster:force
%    class  identity      posX      posY    forceX    forceY    torque
         1         1   -5.0026    0.0106   12.4894   -0.6135   -0.2336
% end

% frame   452
% time 452.0000
% report aster:force
%    class  identity      posX      posY    forceX    forceY    torque
         1         1   -4.9815    0.0015   14.1869    1.4050    0.0677
% end

% frame   453
% time 453.0000
% report aster:force
%    class  identity      posX      posY    forceX    forceY    torque
         1         1   -4.9864   -0.0083   23.0001    1.3948    0.2311
% end

% frame   454
% time 454.0000
% report aster:force
%    class  identity      posX      posY    forceX    forceY    torque
         1         1   -4.9820    0.0014   20.6088    7.2711    0.0475
% end

% frame   455
% time 455.0000
% report aster:force
%    class  identity      posX      posY    forceX    forceY    torque
         1         1   -4.9991    0.0000    9.4910    4.9425   -0.4049
% end

% frame   456
% time 456.0000
% report aster:force
%    class  identity      posX      posY    forceX    forceY    torque
         1         1   -5.0044    0.0032    6.7733    0.5111    0.2819
% end

% frame   457
% time 457.0000
% report aster:force
%    class  identity      posX      posY    forceX    forceY    torque
         1         1   -4.9864   -0.0152   26.4013   -1.8017    0.1102
% end

% frame   458
% time 458.0000
% report aster:force
%    class  identity      posX      posY    forceX    forceY    torque
         1         1   -4.9822    0.0074   22.3577   10.6732    0.1891
% end

% frame   459
% time 459.0000
% report aster:force
%    class  identity      posX      posY    forceX    forceY    torque
         1         1   -4.9864   -0.0013   15.6319   -4.1374   -0.5558
% end

% frame   460
% time 460.0000
% report aster:force
%    class  identity      posX      posY    forceX    forceY    torque
         1         1   -4.9912    0.0069   15.3884   -8.4520    0.2383
% end

% frame   461
% time 461.0000
% report aster:force
%    class  identity      posX      posY    forceX    forceY    torque
         1         1   -4.9914    0.0091   17.6622   -0.5992   -0.0302
% end

% frame   462
% time 462.0000
% report aster:force
%    class  identity      posX      posY    forceX    forceY    torque
         1         1   -4.9863    0.0061   13.6914   -3.4989   -0.2784
% end

% frame   463
% time 463.0000
% report aster:force
%    class  identity      posX      posY    forceX    forceY    torque
         1         1   -5.0034    0.0024    8.4877   -6.2704    0.1060
% end

% frame   464
% time 464.0000
% report aster:force
%    class  identity      posX      posY    forceX    forceY    torque
         1         1   -4.9933    0.0037   17.0830    2.3203    0.0307
% end

% frame   465
% time 465.0000
% report aster:force
%    class  identity      posX      posY    forceX    forceY    torque
         1         1   -4.9991   -0.0010   18.3929    3.4690    0.0307
% end

% frame   466
% time 466.0000
% report aster:force
%    class  identity      posX      posY    forceX    forceY    torque
         1         1   -4.9845    0.0015   14.1245    1.6784    0.1059
% end

% frame   467
% time 467.0000
% report aster:force
%    class  identity      posX      posY    forceX    forceY    torque
         1         1   -4.9884    0.0044   14.9589    6.4689    0.0539
% end

% frame   468
% time 468.0000
% report aster:force
%    class  identity      posX      posY    forceX    forceY    torque
         1         1   -4.9944    0.0005    9.5752    6.0901    0.3343
% end

% frame   469
% time 469.0000
% report aster:force
%    class  identity      posX      posY    forceX    forceY    torque
         1         1   -4.9990    0.0056    2.0321    0.5342    0.0582
% end

% frame   470
% time 470.0000
% report aster:force
%    class  identity      posX      posY    forceX    forceY    torque
         1         1   -4.9815    0.0020   15.2869   -2.0488   -0.1660
% end

% frame   471
% time 471.0000
% report aster:force
%    class  identity      posX      posY    forceX    forceY    torque
         1         1   -5.0006   -0.0103   17.0893   -3.3395    0.3346
% end

% frame   472
% time 472.0000
% report aster:force
%    class  identity      posX      posY    forceX    forceY    torque
         1         1   -4.9943    0.0024   23.0863   -8.5905   -0.0585
% end

% frame   473
% time 473.0000
% report aster:force
%    class  identity      posX      posY    forceX    forceY    torque
         1         1   -5.0095    0.0075   14.9743   -1.9646    0.1718
% end

% frame   474
% time 474.0000
% report aster:force
%    class  identity      posX      posY    forceX    forceY    torque
         1         1   -5.0106    0.0029   16.5096   -5.2244    0.0036
% end

% frame   475
% time 475.0000
% report aster:force
%    class  identity      posX      posY    forceX    forceY    torque
         1         1   -5.0008   -0.0065   11.8716   -1.5406    0.5562
% end

% frame   476
% time 476.0000
% report aster:force
%    class  identity      posX      posY    forceX    forceY    torque
         1         1   -5.0167    0.0018   10.4749    2.3601    0.1010
% end

% frame   477
% time 477.0000
% report aster:force
%    class  identity      posX      posY    forceX    forceY    torque
         1         1   -5.0028   -0.0048   13.0659   -0.4719    0.4049
% end

% frame   478
% time 478.0000
% report aster:force
%    class  identity      posX      posY    forceX    forceY    torque
         1         1   -4.9993   -0.0084   14.1435   -0.4672    0.0035
% end

% frame   479
% time 479.0000
% report aster:force
%    class  identity      posX      posY    forceX    forceY    torque
         1         1   -4.9941    0.0059   12.7702   -2.2806    0.1973
% end

% frame   480
% time 480.0000
% report aster:force
%    class  identity      posX      posY    forceX    forceY    torque
         1         1   -4.9987   -0.0026   18.0716    0.9898   -0.0198
% end

% frame   481
% time 481.0000
% report aster:force
%    class  identity      posX      posY    forceX    forceY    torque
         1         1   -5.0055   -0.0020   18.5708   -3.8726    0.2331
% end

% frame   482
% time 482.0000
% report aster:force
%    class  identity      posX      posY    forceX    forceY    torque
         1         1   -4.9757    0.0079   26.8308   -1.2106   -0.1717
% end

% frame   483
% time 483.0000
% report aster:force
%    class  identity      posX      posY    forceX    forceY    torque
         1         1   -5.0015    0.0021   17.9699   -2.5628    0.1775
% end

% frame   484
% time 484.0000
% report aster:force
%    class  identity      posX      posY    forceX    forceY    torque
         1         1   -4.9886   -0.0004   22.9814   -6.3505    0.0444
% end

% frame   485
% time 485.0000
% report aster:force
%    class  identity      posX      posY    forceX    forceY    torque
         1         1   -5.0058    0.0119   21.5184   -8.6091   -0.3461
% end

% frame   486
% time 486.0000
% report aster:force
%    class  identity      posX      posY    forceX    forceY    torque
         1         1   -4.9958    0.0119   26.2367   -7.3953    0.2239
% end

% frame   487
% time 487.0000
% report aster:force
%    class  identity      posX      posY    forceX    forceY    torque
         1         1   -5.0053    0.0001   22.5702    1.2507    0.1556
% end

% frame   488
% time 488.0000
% report aster:force
%    class  identity      posX      posY    forceX    forceY    torque
         1         1   -5.0098   -0.0141   16.2209   -6.3541    0.1491
% end

% frame   489
% time 489.0000
% report aster:force
%    class  identity      posX      posY    forceX    forceY    torque
         1         1   -5.0074   -0.0040   24.4830   -1.5500   -0.1525
% end

% frame   490
% time 490.0000
% report aster:force
%    class  identity      posX      posY    forceX    forceY    torque
         1         1   -5.0028   -0.0149   31.9209   -4.2079   -0.2680
% end

% frame   491
% time 491.0000
% report aster:force
%    class  identity      posX      posY    forceX    forceY    torque
         1         1   -4.9940    0.0046   24.2979    1.4404   -0.0179
% end

% frame   492
% time 492.0000
% report aster:force
%    class  identity      posX      posY    forceX    forceY    torque
         1         1   -4.9811   -0.0104   33.1887   -3.2420    0.2910
% end

% frame   493
% time 493.0000
% report aster:force
%    class  identity      posX      posY    forceX    forceY    torque
         1         1   -4.9945    0.0087   27.0469    4.5142   -0.1112
% end

% frame   494
% time 494.0000
% report aster:force
%    class  identity      posX      posY    forceX    forceY    torque
         1         1   -5.0055   -0.0172   27.5629   -2.6729   -0.1741
% end

% frame   495
% time 495.0000
% report aster:force
%    class  identity      posX      posY    forceX    forceY    torque
         1         1   -5.0061   -0.0093   20.0468   -2.3091   -0.4400
% end

% frame   496
% time 496.0000
% report aster:force
%    class  identity      posX      posY    forceX    forceY    torque
         1         1   -5.0080    0.0033   15.8080   -1.0147    0.0045
% end

% frame   497
% time 497.0000
% report aster:force
%    class  identity      posX      posY    forceX    forceY    torque
         1         1   -5.0054    0.0035   14.5388   -4.9790   -0.3356
% end

% frame   498
% time 498.0000
% report aster:force
%    class  identity      posX      posY    forceX    forceY    torque
         1         1   -4.9993    0.0041   19.5176   -6.0371    0.0161
% end

% frame   499
% time 499.0000
% report aster:force
%    class  identity      posX      posY    forceX    forceY    torque
         1         1   -4.9982   -0.0030   14.9132   -3.4269    0.3648
% end

% frame   500
% time 500.0000
% report aster:force
%    class  identity      posX      posY    forceX    forceY    torque
         1         1   -4.9898    0.0018   13.3239   -4.4682    0.1468
% end
