
% frame   0
% time 0.0000
% report aster:force
%    class  identity      posX      posY    forceX    forceY    torque
         1         1   -6.0000    0.0000    0.0014    0.0001    0.0027
% end

% frame   1
% time 1.0000
% report aster:force
%    class  identity      posX      posY    forceX    forceY    torque
         1         1    1.9997   -0.0018   -0.6423   -1.3080   -0.4291
% end

% frame   2
% time 2.0000
% report aster:force
%    class  identity      posX      posY    forceX    forceY    torque
         1         1    1.9964   -0.0029   -2.8032   -1.3420   -0.4512
% end

% frame   3
% time 3.0000
% report aster:force
%    class  identity      posX      posY    forceX    forceY    torque
         1         1    1.9962    0.0079    2.1168   -1.0498   -0.6574
% end

% frame   4
% time 4.0000
% report aster:force
%    class  identity      posX      posY    forceX    forceY    torque
         1         1    2.0096    0.0056   -2.1698   -0.9023    0.0066
% end

% frame   5
% time 5.0000
% report aster:force
%    class  identity      posX      posY    forceX    forceY    torque
         1         1    1.9988    0.0065    2.6614   -1.6727    0.3556
% end

% frame   6
% time 6.0000
% report aster:force
%    class  identity      posX      posY    forceX    forceY    torque
         1         1    1.9962    0.0004   -6.5277   -1.7592   -0.2550
% end

% frame   7
% time 7.0000
% report aster:force
%    class  identity      posX      posY    forceX    forceY    torque
         1         1    1.9975   -0.0031   -3.5436    4.0745   -0.1154
% end

% frame   8
% time 8.0000
% report aster:force
%    class  identity      posX      posY    forceX    forceY    torque
         1         1    1.9769   -0.0088   -4.8918    0.4569   -0.0820
% end

% frame   9
% time 9.0000
% report aster:force
%    class  identity      posX      posY    forceX    forceY    torque
         1         1    1.9981   -0.0116   -7.6875   -3.3517   -0.2362
% end

% frame   10
% time 10.0000
% report aster:force
%    class  identity      posX      posY    forceX    forceY    torque
         1         1    1.9905    0.0053  -12.4316    4.6183    0.0060
% end

% frame   11
% time 11.0000
% report aster:force
%    class  identity      posX      posY    forceX    forceY    torque
         1         1    2.0048    0.0004   -3.3649    0.4447   -0.0586
% end

% frame   12
% time 12.0000
% report aster:force
%    class  identity      posX      posY    forceX    forceY    torque
         1         1    2.0121    0.0113    1.7405   -5.1653    0.2656
% end

% frame   13
% time 13.0000
% report aster:force
%    class  identity      posX      posY    forceX    forceY    torque
         1         1    1.9978   -0.0051   -2.5127   -0.0961    0.3383
% end

% frame   14
% time 14.0000
% report aster:force
%    class  identity      posX      posY    forceX    forceY    torque
         1         1    2.0103   -0.0070   -9.5567   -5.1519   -0.1233
% end

% frame   15
% time 15.0000
% report aster:force
%    class  identity      posX      posY    forceX    forceY    torque
         1         1    1.9936    0.0025   -5.8554    3.8944   -0.4640
% end

% frame   16
% time 16.0000
% report aster:force
%    class  identity      posX      posY    forceX    forceY    torque
         1         1    2.0035    0.0019   -7.3933    3.5812   -0.2903
% end

% frame   17
% time 17.0000
% report aster:force
%    class  identity      posX      posY    forceX    forceY    torque
         1         1    1.9910    0.0035  -10.0053    4.3038   -0.3689
% end

% frame   18
% time 18.0000
% report aster:force
%    class  identity      posX      posY    forceX    forceY    torque
         1         1    2.0078    0.0015   -8.1478    4.0011   -0.1366
% end

% frame   19
% time 19.0000
% report aster:force
%    class  identity      posX      posY    forceX    forceY    torque
         1         1    1.9983   -0.0014   -2.9749    0.5424   -0.0376
% end

% frame   20
% time 20.0000
% report aster:force
%    class  identity      posX      posY    forceX    forceY    torque
         1         1    1.9980    0.0018   -1.1366    1.5981    0.1923
% end

% frame   21
% time 21.0000
% report aster:force
%    class  identity      posX      posY    forceX    forceY    torque
         1         1    2.0082   -0.0072   -4.6045   -3.8390   -0.3747
% end

% frame   22
% time 22.0000
% report aster:force
%    class  identity      posX      posY    forceX    forceY    torque
         1         1    2.0096   -0.0053   -7.1561    1.9785   -0.0030
% end

% frame   23
% time 23.0000
% report aster:force
%    class  identity      posX      posY    forceX    forceY    torque
         1         1    2.0128    0.0076   -3.4203    7.5729    0.0931
% end

% frame   24
% time 24.0000
% report aster:force
%    class  identity      posX      posY    forceX    forceY    torque
         1         1    2.0035    0.0056   -1.7272   -0.0398    0.2503
% end

% frame   25
% time 25.0000
% report aster:force
%    class  identity      posX      posY    forceX    forceY    torque
         1         1    2.0156   -0.0090   -0.8631   -2.5300    0.2306
% end

% frame   26
% time 26.0000
% report aster:force
%    class  identity      posX      posY    forceX    forceY    torque
         1         1    2.0021    0.0044   -7.3467    4.4568    0.1415
% end

% frame   27
% time 27.0000
% report aster:force
%    class  identity      posX      posY    forceX    forceY    torque
         1         1    2.0030    0.0137   -1.7042    3.3878   -0.3023
% end

% frame   28
% time 28.0000
% report aster:force
%    class  identity      posX      posY    forceX    forceY    torque
         1         1    1.9934   -0.0060   -9.6390   -0.8861    0.3362
% end

% frame   29
% time 29.0000
% report aster:force
%    class  identity      posX      posY    forceX    forceY    torque
         1         1    2.0278    0.0065   -7.0437    5.8939    0.2099
% end

% frame   30
% time 30.0000
% report aster:force
%    class  identity      posX      posY    forceX    forceY    torque
         1         1    2.0103    0.0167  -11.9289    5.6432    0.1570
% end

% frame   31
% time 31.0000
% report aster:force
%    class  identity      posX      posY    forceX    forceY    torque
         1         1    1.9988    0.0023   -7.0379    0.5764   -0.1946
% end

% frame   32
% time 32.0000
% report aster:force
%    class  identity      posX      posY    forceX    forceY    torque
         1         1    2.0195   -0.0014   -4.6958    1.5035    0.0330
% end

% frame   33
% time 33.0000
% report aster:force
%    class  identity      posX      posY    forceX    forceY    torque
         1         1    2.0018    0.0038  -11.0383    4.6871   -0.2044
% end

% frame   34
% time 34.0000
% report aster:force
%    class  identity      posX      posY    forceX    forceY    torque
         1         1    1.9828    0.0051  -14.7421    5.7700    0.0614
% end

% frame   35
% time 35.0000
% report aster:force
%    class  identity      posX      posY    forceX    forceY    torque
         1         1    2.0125   -0.0038   -3.5955    0.3915    0.4612
% end

% frame   36
% time 36.0000
% report aster:force
%    class  identity      posX      posY    forceX    forceY    torque
         1         1    1.9874    0.0084   -7.3578   -0.2656    0.1477
% end

% frame   37
% time 37.0000
% report aster:force
%    class  identity      posX      posY    forceX    forceY    torque
         1         1    1.9904    0.0123  -13.2662    0.0367   -0.5279
% end

% frame   38
% time 38.0000
% report aster:force
%    class  identity      posX      posY    forceX    forceY    torque
         1         1    2.0046   -0.0025  -16.1958    6.1366    0.1604
% end

% frame   39
% time 39.0000
% report aster:force
%    class  identity      posX      posY    forceX    forceY    torque
         1         1    1.9864   -0.0078  -15.2603    2.9311   -0.4583
% end

% frame   40
% time 40.0000
% report aster:force
%    class  identity      posX      posY    forceX    forceY    torque
         1         1    1.9956   -0.0021  -11.5387    1.0370   -0.5499
% end

% frame   41
% time 41.0000
% report aster:force
%    class  identity      posX      posY    forceX    forceY    torque
         1         1    2.0052    0.0096   -4.5765    4.1183    0.4617
% end

% frame   42
% time 42.0000
% report aster:force
%    class  identity      posX      posY    forceX    forceY    torque
         1         1    2.0232    0.0036    2.5117   -1.8392    0.2997
% end

% frame   43
% time 43.0000
% report aster:force
%    class  identity      posX      posY    forceX    forceY    torque
         1         1    1.9881   -0.0076  -11.4815    2.9290    0.4289
% end

% frame   44
% time 44.0000
% report aster:force
%    class  identity      posX      posY    forceX    forceY    torque
         1         1    2.0019   -0.0071   -3.9935   -0.2693   -0.1346
% end

% frame   45
% time 45.0000
% report aster:force
%    class  identity      posX      posY    forceX    forceY    torque
         1         1    2.0032   -0.0073   -4.8387    2.4819   -0.2506
% end

% frame   46
% time 46.0000
% report aster:force
%    class  identity      posX      posY    forceX    forceY    torque
         1         1    2.0209   -0.0112   -2.1684   -2.6727    0.2255
% end

% frame   47
% time 47.0000
% report aster:force
%    class  identity      posX      posY    forceX    forceY    torque
         1         1    1.9906    0.0020   -5.1617   -3.9932    0.2566
% end

% frame   48
% time 48.0000
% report aster:force
%    class  identity      posX      posY    forceX    forceY    torque
         1         1    1.9920   -0.0096   -9.9131   -0.1788    0.1386
% end

% frame   49
% time 49.0000
% report aster:force
%    class  identity      posX      posY    forceX    forceY    torque
         1         1    2.0127   -0.0222   -4.3188   -1.8837    0.0581
% end

% frame   50
% time 50.0000
% report aster:force
%    class  identity      posX      posY    forceX    forceY    torque
         1         1    2.0148   -0.0075  -10.9579   -6.9810   -0.5531
% end

% frame   51
% time 51.0000
% report aster:force
%    class  identity      posX      posY    forceX    forceY    torque
         1         1    2.0071    0.0066   -8.9346   -2.4265   -0.1070
% end

% frame   52
% time 52.0000
% report aster:force
%    class  identity      posX      posY    forceX    forceY    torque
         1         1    1.9982    0.0068  -14.4673    3.2402   -0.0142
% end

% frame   53
% time 53.0000
% report aster:force
%    class  identity      posX      posY    forceX    forceY    torque
         1         1    2.0119   -0.0074   -6.4974   -3.0866    0.1320
% end

% frame   54
% time 54.0000
% report aster:force
%    class  identity      posX      posY    forceX    forceY    torque
         1         1    1.9974    0.0075   -8.1834    1.3415   -0.2364
% end

% frame   55
% time 55.0000
% report aster:force
%    class  identity      posX      posY    forceX    forceY    torque
         1         1    1.9879    0.0052   -0.0034   -1.3381    0.0197
% end

% frame   56
% time 56.0000
% report aster:force
%    class  identity      posX      posY    forceX    forceY    torque
         1         1    1.9965    0.0147   -5.4414   -2.4333   -0.6146
% end

% frame   57
% time 57.0000
% report aster:force
%    class  identity      posX      posY    forceX    forceY    torque
         1         1    1.9824    0.0130   -2.0179    1.3165    0.0051
% end

% frame   58
% time 58.0000
% report aster:force
%    class  identity      posX      posY    forceX    forceY    torque
         1         1    2.0102   -0.0006   -4.8012   -0.1158   -0.0055
% end

% frame   59
% time 59.0000
% report aster:force
%    class  identity      posX      posY    forceX    forceY    torque
         1         1    2.0059    0.0074   -3.5691   -0.7720    0.1755
% end

% frame   60
% time 60.0000
% report aster:force
%    class  identity      posX      posY    forceX    forceY    torque
         1         1    1.9883    0.0231   -3.6008    7.8197    0.1436
% end

% frame   61
% time 61.0000
% report aster:force
%    class  identity      posX      posY    forceX    forceY    torque
         1         1    1.9954   -0.0008   -3.7327    1.2861    0.0317
% end

% frame   62
% time 62.0000
% report aster:force
%    class  identity      posX      posY    forceX    forceY    torque
         1         1    1.9919    0.0012   -3.1105    0.1604    0.5651
% end

% frame   63
% time 63.0000
% report aster:force
%    class  identity      posX      posY    forceX    forceY    torque
         1         1    1.9930   -0.0025   -7.4503    4.5111    0.0434
% end

% frame   64
% time 64.0000
% report aster:force
%    class  identity      posX      posY    forceX    forceY    torque
         1         1    2.0086    0.0046    1.2637    1.2481   -0.2003
% end

% frame   65
% time 65.0000
% report aster:force
%    class  identity      posX      posY    forceX    forceY    torque
         1         1    2.0235   -0.0013   -9.8031    1.7377    0.1023
% end

% frame   66
% time 66.0000
% report aster:force
%    class  identity      posX      posY    forceX    forceY    torque
         1         1    1.9902   -0.0105   -0.9101    0.0740   -0.0800
% end

% frame   67
% time 67.0000
% report aster:force
%    class  identity      posX      posY    forceX    forceY    torque
         1         1    1.9853   -0.0078   -2.8286    2.0559   -0.0221
% end

% frame   68
% time 68.0000
% report aster:force
%    class  identity      posX      posY    forceX    forceY    torque
         1         1    1.9987    0.0076   -0.6552   -3.2378   -0.2967
% end

% frame   69
% time 69.0000
% report aster:force
%    class  identity      posX      posY    forceX    forceY    torque
         1         1    2.0164    0.0010   -1.2619    1.4116   -0.3914
% end

% frame   70
% time 70.0000
% report aster:force
%    class  identity      posX      posY    forceX    forceY    torque
         1         1    1.9901   -0.0041   -6.7867    2.8772   -0.1806
% end

% frame   71
% time 71.0000
% report aster:force
%    class  identity      posX      posY    forceX    forceY    torque
         1         1    1.9927   -0.0035   -9.9477   -1.8674   -0.3145
% end

% frame   72
% time 72.0000
% report aster:force
%    class  identity      posX      posY    forceX    forceY    torque
         1         1    1.9951    0.0075   -4.7343   -3.7410   -0.3823
% end

% frame   73
% time 73.0000
% report aster:force
%    class  identity      posX      posY    forceX    forceY    torque
         1         1    1.9955   -0.0081   -1.9624   -3.6435   -0.3599
% end

% frame   74
% time 74.0000
% report aster:force
%    class  identity      posX      posY    forceX    forceY    torque
         1         1    1.9971   -0.0010   -7.0015    2.8641    0.3193
% end

% frame   75
% time 75.0000
% report aster:force
%    class  identity      posX      posY    forceX    forceY    torque
         1         1    1.9980    0.0040    0.7736    3.2504   -0.1962
% end

% frame   76
% time 76.0000
% report aster:force
%    class  identity      posX      posY    forceX    forceY    torque
         1         1    1.9820    0.0035   -8.5312    0.7129    0.0283
% end

% frame   77
% time 77.0000
% report aster:force
%    class  identity      posX      posY    forceX    forceY    torque
         1         1    1.9929   -0.0016   -5.9533   -0.9325    0.1730
% end

% frame   78
% time 78.0000
% report aster:force
%    class  identity      posX      posY    forceX    forceY    torque
         1         1    1.9940   -0.0099  -10.5774    1.1238    0.2673
% end

% frame   79
% time 79.0000
% report aster:force
%    class  identity      posX      posY    forceX    forceY    torque
         1         1    2.0089   -0.0011  -10.3281   -6.6197   -0.0422
% end

% frame   80
% time 80.0000
% report aster:force
%    class  identity      posX      posY    forceX    forceY    torque
         1         1    1.9982   -0.0001   -7.4840   -3.4386    0.0070
% end

% frame   81
% time 81.0000
% report aster:force
%    class  identity      posX      posY    forceX    forceY    torque
         1         1    2.0155    0.0099   -2.1732    2.4461    0.4421
% end

% frame   82
% time 82.0000
% report aster:force
%    class  identity      posX      posY    forceX    forceY    torque
         1         1    2.0051   -0.0132   -1.2651   -3.6393    0.0193
% end

% frame   83
% time 83.0000
% report aster:force
%    class  identity      posX      posY    forceX    forceY    torque
         1         1    1.9970   -0.0110   -5.1637   -4.1702   -0.2193
% end

% frame   84
% time 84.0000
% report aster:force
%    class  identity      posX      posY    forceX    forceY    torque
         1         1    1.9910   -0.0180   -4.5457    2.5944    0.0525
% end

% frame   85
% time 85.0000
% report aster:force
%    class  identity      posX      posY    forceX    forceY    torque
         1         1    1.9946   -0.0210   -8.2280   -2.4024    0.1074
% end

% frame   86
% time 86.0000
% report aster:force
%    class  identity      posX      posY    forceX    forceY    torque
         1         1    1.9986    0.0018   -6.2829   -3.0385    0.1235
% end

% frame   87
% time 87.0000
% report aster:force
%    class  identity      posX      posY    forceX    forceY    torque
         1         1    1.9939   -0.0177   -9.3488   -2.7235   -0.0178
% end

% frame   88
% time 88.0000
% report aster:force
%    class  identity      posX      posY    forceX    forceY    torque
         1         1    2.0206    0.0124   -9.7646   -1.4092   -0.1391
% end

% frame   89
% time 89.0000
% report aster:force
%    class  identity      posX      posY    forceX    forceY    torque
         1         1    2.0043   -0.0020   -9.5384   -2.0934    0.1925
% end

% frame   90
% time 90.0000
% report aster:force
%    class  identity      posX      posY    forceX    forceY    torque
         1         1    1.9913    0.0047  -12.9873    0.1635   -0.2745
% end

% frame   91
% time 91.0000
% report aster:force
%    class  identity      posX      posY    forceX    forceY    torque
         1         1    2.0057   -0.0052   -1.7144   -4.3311    0.1043
% end

% frame   92
% time 92.0000
% report aster:force
%    class  identity      posX      posY    forceX    forceY    torque
         1         1    1.9907   -0.0003   -7.9457   -6.9759    0.0101
% end

% frame   93
% time 93.0000
% report aster:force
%    class  identity      posX      posY    forceX    forceY    torque
         1         1    2.0104    0.0104   -2.2371   -0.9395   -0.1666
% end

% frame   94
% time 94.0000
% report aster:force
%    class  identity      posX      posY    forceX    forceY    torque
         1         1    1.9879    0.0063  -11.0306   -2.9090    0.3335
% end

% frame   95
% time 95.0000
% report aster:force
%    class  identity      posX      posY    forceX    forceY    torque
         1         1    2.0208    0.0043   -0.6177   -1.9491   -0.1250
% end

% frame   96
% time 96.0000
% report aster:force
%    class  identity      posX      posY    forceX    forceY    torque
         1         1    2.0147   -0.0037    2.4002   -5.0181   -0.1444
% end

% frame   97
% time 97.0000
% report aster:force
%    class  identity      posX      posY    forceX    forceY    torque
         1         1    2.0114   -0.0058   -4.4142   -3.0148    0.0445
% end

% frame   98
% time 98.0000
% report aster:force
%    class  identity      posX      posY    forceX    forceY    torque
         1         1    1.9825    0.0127  -11.4702   -4.1578    0.2798
% end

% frame   99
% time 99.0000
% report aster:force
%    class  identity      posX      posY    forceX    forceY    torque
         1         1    1.9760   -0.0097   -8.6925   -3.4539   -0.0755
% end

% frame   100
% time 100.0000
% report aster:force
%    class  identity      posX      posY    forceX    forceY    torque
         1         1    2.0242   -0.0011   -5.3313   -4.5056   -0.2985
% end

% frame   101
% time 101.0000
% report aster:force
%    class  identity      posX      posY    forceX    forceY    torque
         1         1    2.0236   -0.0097   -3.1666   -2.7530    0.1167
% end

% frame   102
% time 102.0000
% report aster:force
%    class  identity      posX      posY    forceX    forceY    torque
         1         1    1.9961   -0.0080   -6.8903   -6.8410   -0.0417
% end

% frame   103
% time 103.0000
% report aster:force
%    class  identity      posX      posY    forceX    forceY    torque
         1         1    2.0018   -0.0036   -2.4359    0.5972    0.4415
% end

% frame   104
% time 104.0000
% report aster:force
%    class  identity      posX      posY    forceX    forceY    torque
         1         1    2.0218   -0.0003    1.7941   -1.4803    0.4548
% end

% frame   105
% time 105.0000
% report aster:force
%    class  identity      posX      posY    forceX    forceY    torque
         1         1    1.9947   -0.0134  -10.1772   -0.9936   -0.3228
% end

% frame   106
% time 106.0000
% report aster:force
%    class  identity      posX      posY    forceX    forceY    torque
         1         1    2.0049   -0.0134   -2.2362   -2.8940   -0.0038
% end

% frame   107
% time 107.0000
% report aster:force
%    class  identity      posX      posY    forceX    forceY    torque
         1         1    1.9742    0.0057  -11.3040   -4.5135   -0.0405
% end

% frame   108
% time 108.0000
% report aster:force
%    class  identity      posX      posY    forceX    forceY    torque
         1         1    1.9961    0.0054  -10.9130    0.4171   -0.1665
% end

% frame   109
% time 109.0000
% report aster:force
%    class  identity      posX      posY    forceX    forceY    torque
         1         1    2.0218    0.0202   -7.8141   -2.3122   -0.2750
% end

% frame   110
% time 110.0000
% report aster:force
%    class  identity      posX      posY    forceX    forceY    torque
         1         1    2.0007   -0.0086   -4.4033    0.7483    0.0216
% end

% frame   111
% time 111.0000
% report aster:force
%    class  identity      posX      posY    forceX    forceY    torque
         1         1    2.0016   -0.0106   -2.6876   -3.4292    0.0159
% end

% frame   112
% time 112.0000
% report aster:force
%    class  identity      posX      posY    forceX    forceY    torque
         1         1    1.9984   -0.0069   -6.2314   -7.4129    0.4757
% end

% frame   113
% time 113.0000
% report aster:force
%    class  identity      posX      posY    forceX    forceY    torque
         1         1    1.9903   -0.0078   -2.5850   -6.7595   -0.0173
% end

% frame   114
% time 114.0000
% report aster:force
%    class  identity      posX      posY    forceX    forceY    torque
         1         1    2.0087   -0.0123   -4.7948   -4.7090   -0.0184
% end

% frame   115
% time 115.0000
% report aster:force
%    class  identity      posX      posY    forceX    forceY    torque
         1         1    2.0041   -0.0117   -3.8654    2.1869   -0.3905
% end

% frame   116
% time 116.0000
% report aster:force
%    class  identity      posX      posY    forceX    forceY    torque
         1         1    1.9964   -0.0013   -5.1946   -0.5733   -0.1872
% end

% frame   117
% time 117.0000
% report aster:force
%    class  identity      posX      posY    forceX    forceY    torque
         1         1    2.0076   -0.0055   -2.4768    2.2519    0.0416
% end

% frame   118
% time 118.0000
% report aster:force
%    class  identity      posX      posY    forceX    forceY    torque
         1         1    1.9776   -0.0033  -11.7000    1.6260    0.2665
% end

% frame   119
% time 119.0000
% report aster:force
%    class  identity      posX      posY    forceX    forceY    torque
         1         1    1.9967    0.0047  -10.6086    0.3021    0.0710
% end

% frame   120
% time 120.0000
% report aster:force
%    class  identity      posX      posY    forceX    forceY    torque
         1         1    1.9965   -0.0042   -5.6582   -0.8152   -0.2051
% end

% frame   121
% time 121.0000
% report aster:force
%    class  identity      posX      posY    forceX    forceY    torque
         1         1    2.0022    0.0041   -6.4887   -1.6446    0.0863
% end

% frame   122
% time 122.0000
% report aster:force
%    class  identity      posX      posY    forceX    forceY    torque
         1         1    1.9937   -0.0084   -7.2099    2.0992    0.0191
% end

% frame   123
% time 123.0000
% report aster:force
%    class  identity      posX      posY    forceX    forceY    torque
         1         1    1.9848    0.0017   -7.1061    4.6691   -0.0693
% end

% frame   124
% time 124.0000
% report aster:force
%    class  identity      posX      posY    forceX    forceY    torque
         1         1    1.9973    0.0090   -2.6997   -0.5570   -0.3259
% end

% frame   125
% time 125.0000
% report aster:force
%    class  identity      posX      posY    forceX    forceY    torque
         1         1    1.9958   -0.0182    1.3572    0.5742    0.2113
% end

% frame   126
% time 126.0000
% report aster:force
%    class  identity      posX      posY    forceX    forceY    torque
         1         1    2.0088    0.0153   -4.9523    5.4075    0.1086
% end

% frame   127
% time 127.0000
% report aster:force
%    class  identity      posX      posY    forceX    forceY    torque
         1         1    2.0164   -0.0012   -6.2906    5.3257    0.1089
% end

% frame   128
% time 128.0000
% report aster:force
%    class  identity      posX      posY    forceX    forceY    torque
         1         1    2.0190    0.0029  -11.9715    1.4207    0.2687
% end

% frame   129
% time 129.0000
% report aster:force
%    class  identity      posX      posY    forceX    forceY    torque
         1         1    2.0054    0.0154  -11.5764    1.0176   -0.0764
% end

% frame   130
% time 130.0000
% report aster:force
%    class  identity      posX      posY    forceX    forceY    torque
         1         1    2.0140   -0.0028   -6.6367    0.9486    0.1479
% end

% frame   131
% time 131.0000
% report aster:force
%    class  identity      posX      posY    forceX    forceY    torque
         1         1    2.0036   -0.0077   -8.9406    0.6776   -0.0813
% end

% frame   132
% time 132.0000
% report aster:force
%    class  identity      posX      posY    forceX    forceY    torque
         1         1    2.0153    0.0069   -0.9631    3.7176   -0.1098
% end

% frame   133
% time 133.0000
% report aster:force
%    class  identity      posX      posY    forceX    forceY    torque
         1         1    1.9907   -0.0010    1.0416    2.5512    0.3764
% end

% frame   134
% time 134.0000
% report aster:force
%    class  identity      posX      posY    forceX    forceY    torque
         1         1    1.9917    0.0167    1.5821    0.3291   -0.0481
% end

% frame   135
% time 135.0000
% report aster:force
%    class  identity      posX      posY    forceX    forceY    torque
         1         1    1.9958    0.0067  -13.1965   -2.4434    0.2122
% end

% frame   136
% time 136.0000
% report aster:force
%    class  identity      posX      posY    forceX    forceY    torque
         1         1    2.0013   -0.0011   -6.9072   -2.6334   -0.0196
% end

% frame   137
% time 137.0000
% report aster:force
%    class  identity      posX      posY    forceX    forceY    torque
         1         1    2.0047    0.0046   -5.9759   -1.8573    0.1040
% end

% frame   138
% time 138.0000
% report aster:force
%    class  identity      posX      posY    forceX    forceY    torque
         1         1    1.9905    0.0193   -9.0852   -1.6708    0.0922
% end

% frame   139
% time 139.0000
% report aster:force
%    class  identity      posX      posY    forceX    forceY    torque
         1         1    2.0030   -0.0110   -4.5700   -4.1094    0.1841
% end

% frame   140
% time 140.0000
% report aster:force
%    class  identity      posX      posY    forceX    forceY    torque
         1         1    1.9801    0.0164   -9.0216    3.0111    0.1680
% end

% frame   141
% time 141.0000
% report aster:force
%    class  identity      posX      posY    forceX    forceY    torque
         1         1    1.9975   -0.0088   -7.4828   -1.5979   -0.3807
% end

% frame   142
% time 142.0000
% report aster:force
%    class  identity      posX      posY    forceX    forceY    torque
         1         1    1.9991    0.0019   -4.1746    0.8532    0.0122
% end

% frame   143
% time 143.0000
% report aster:force
%    class  identity      posX      posY    forceX    forceY    torque
         1         1    1.9953   -0.0103   -6.7263   -1.2282    0.3055
% end

% frame   144
% time 144.0000
% report aster:force
%    class  identity      posX      posY    forceX    forceY    torque
         1         1    2.0012    0.0112  -10.1430    2.2576   -0.2428
% end

% frame   145
% time 145.0000
% report aster:force
%    class  identity      posX      posY    forceX    forceY    torque
         1         1    2.0081    0.0008   -9.0394    0.9087    0.1379
% end

% frame   146
% time 146.0000
% report aster:force
%    class  identity      posX      posY    forceX    forceY    torque
         1         1    1.9985    0.0076   -3.2553   -5.5086    0.1535
% end

% frame   147
% time 147.0000
% report aster:force
%    class  identity      posX      posY    forceX    forceY    torque
         1         1    1.9930   -0.0040   -7.2504    2.1460    0.4220
% end

% frame   148
% time 148.0000
% report aster:force
%    class  identity      posX      posY    forceX    forceY    torque
         1         1    2.0079   -0.0105   -4.5591   -6.0614   -0.3287
% end

% frame   149
% time 149.0000
% report aster:force
%    class  identity      posX      posY    forceX    forceY    torque
         1         1    2.0079    0.0083   -1.6628    2.5115    0.2359
% end

% frame   150
% time 150.0000
% report aster:force
%    class  identity      posX      posY    forceX    forceY    torque
         1         1    1.9902   -0.0033   -7.4224   -2.9528    0.0759
% end

% frame   151
% time 151.0000
% report aster:force
%    class  identity      posX      posY    forceX    forceY    torque
         1         1    1.9888    0.0059   -5.5262   -4.7630    0.1088
% end

% frame   152
% time 152.0000
% report aster:force
%    class  identity      posX      posY    forceX    forceY    torque
         1         1    2.0217    0.0120   -2.1436   -1.1326    0.2587
% end

% frame   153
% time 153.0000
% report aster:force
%    class  identity      posX      posY    forceX    forceY    torque
         1         1    1.9903    0.0250   -3.8107    6.6744    0.4431
% end

% frame   154
% time 154.0000
% report aster:force
%    class  identity      posX      posY    forceX    forceY    torque
         1         1    2.0128    0.0189   -8.8087    5.0861    0.0760
% end

% frame   155
% time 155.0000
% report aster:force
%    class  identity      posX      posY    forceX    forceY    torque
         1         1    2.0013   -0.0011   -4.8247    1.9597   -0.3234
% end

% frame   156
% time 156.0000
% report aster:force
%    class  identity      posX      posY    forceX    forceY    torque
         1         1    1.9869    0.0135  -13.8733    0.8565    0.0822
% end

% frame   157
% time 157.0000
% report aster:force
%    class  identity      posX      posY    forceX    forceY    torque
         1         1    2.0064    0.0125  -12.0019   -1.7781   -0.2848
% end

% frame   158
% time 158.0000
% report aster:force
%    class  identity      posX      posY    forceX    forceY    torque
         1         1    2.0102    0.0275   -3.1380    1.1258   -0.1205
% end

% frame   159
% time 159.0000
% report aster:force
%    class  identity      posX      posY    forceX    forceY    torque
         1         1    2.0105   -0.0089    2.9590    2.7372    0.3029
% end

% frame   160
% time 160.0000
% report aster:force
%    class  identity      posX      posY    forceX    forceY    torque
         1         1    2.0181   -0.0057   -3.6537    3.4508   -0.0516
% end

% frame   161
% time 161.0000
% report aster:force
%    class  identity      posX      posY    forceX    forceY    torque
         1         1    1.9878   -0.0067   -4.6580    3.1430    0.2812
% end

% frame   162
% time 162.0000
% report aster:force
%    class  identity      posX      posY    forceX    forceY    torque
         1         1    1.9756   -0.0144  -13.8028   -0.4176    0.2299
% end

% frame   163
% time 163.0000
% report aster:force
%    class  identity      posX      posY    forceX    forceY    torque
         1         1    1.9893    0.0092  -11.7844    1.2442    0.3326
% end

% frame   164
% time 164.0000
% report aster:force
%    class  identity      posX      posY    forceX    forceY    torque
         1         1    2.0036    0.0060   -5.8437    4.7434   -0.0613
% end

% frame   165
% time 165.0000
% report aster:force
%    class  identity      posX      posY    forceX    forceY    torque
         1         1    1.9884    0.0003   -8.5384    0.7939   -0.1462
% end

% frame   166
% time 166.0000
% report aster:force
%    class  identity      posX      posY    forceX    forceY    torque
         1         1    1.9979    0.0076   -9.0105    5.4638    0.1194
% end

% frame   167
% time 167.0000
% report aster:force
%    class  identity      posX      posY    forceX    forceY    torque
         1         1    2.0004   -0.0113   -9.5662    3.0979    0.0013
% end

% frame   168
% time 168.0000
% report aster:force
%    class  identity      posX      posY    forceX    forceY    torque
         1         1    1.9969   -0.0011  -11.3893   -1.5731    0.4329
% end

% frame   169
% time 169.0000
% report aster:force
%    class  identity      posX      posY    forceX    forceY    torque
         1         1    2.0014    0.0050   -9.2613    3.9394   -0.2424
% end

% frame   170
% time 170.0000
% report aster:force
%    class  identity      posX      posY    forceX    forceY    torque
         1         1    2.0039    0.0101   -4.3047    2.7880    0.0012
% end

% frame   171
% time 171.0000
% report aster:force
%    class  identity      posX      posY    forceX    forceY    torque
         1         1    1.9988    0.0054   -7.1858    2.2338   -0.0556
% end

% frame   172
% time 172.0000
% report aster:force
%    class  identity      posX      posY    forceX    forceY    torque
         1         1    2.0124   -0.0008   -0.8362   -2.8526   -0.1288
% end

% frame   173
% time 173.0000
% report aster:force
%    class  identity      posX      posY    forceX    forceY    torque
         1         1    1.9916    0.0041  -13.0027    1.3969    0.1794
% end

% frame   174
% time 174.0000
% report aster:force
%    class  identity      posX      posY    forceX    forceY    torque
         1         1    1.9922    0.0098   -8.6506    2.4496   -0.1619
% end

% frame   175
% time 175.0000
% report aster:force
%    class  identity      posX      posY    forceX    forceY    torque
         1         1    2.0130   -0.0168   -4.6919    0.7342    0.0408
% end

% frame   176
% time 176.0000
% report aster:force
%    class  identity      posX      posY    forceX    forceY    torque
         1         1    2.0071    0.0144   -6.0585   -1.3096    0.1268
% end

% frame   177
% time 177.0000
% report aster:force
%    class  identity      posX      posY    forceX    forceY    torque
         1         1    1.9962   -0.0003   -6.8720    1.3950   -0.0387
% end

% frame   178
% time 178.0000
% report aster:force
%    class  identity      posX      posY    forceX    forceY    torque
         1         1    2.0118    0.0068    1.5132    1.9354   -0.1601
% end

% frame   179
% time 179.0000
% report aster:force
%    class  identity      posX      posY    forceX    forceY    torque
         1         1    2.0121   -0.0116   -2.2210   -4.1983    0.0238
% end

% frame   180
% time 180.0000
% report aster:force
%    class  identity      posX      posY    forceX    forceY    torque
         1         1    2.0055   -0.0141   -3.8480    0.7763   -0.0614
% end

% frame   181
% time 181.0000
% report aster:force
%    class  identity      posX      posY    forceX    forceY    torque
         1         1    2.0088    0.0102   -3.8201   -0.3748   -0.3170
% end

% frame   182
% time 182.0000
% report aster:force
%    class  identity      posX      posY    forceX    forceY    torque
         1         1    2.0314   -0.0005   -1.3455   -4.3647   -0.2657
% end

% frame   183
% time 183.0000
% report aster:force
%    class  identity      posX      posY    forceX    forceY    torque
         1         1    2.0076   -0.0079   -6.8181    0.0688    0.2377
% end

% frame   184
% time 184.0000
% report aster:force
%    class  identity      posX      posY    forceX    forceY    torque
         1         1    1.9986   -0.0069   -5.9372   -0.2143    0.0237
% end

% frame   185
% time 185.0000
% report aster:force
%    class  identity      posX      posY    forceX    forceY    torque
         1         1    2.0021    0.0095   -8.0324    1.5296   -0.2378
% end

% frame   186
% time 186.0000
% report aster:force
%    class  identity      posX      posY    forceX    forceY    torque
         1         1    2.0061    0.0039   -0.9608    0.0197    0.1518
% end

% frame   187
% time 187.0000
% report aster:force
%    class  identity      posX      posY    forceX    forceY    torque
         1         1    2.0022   -0.0065   -8.8544   -1.2866   -0.1667
% end

% frame   188
% time 188.0000
% report aster:force
%    class  identity      posX      posY    forceX    forceY    torque
         1         1    2.0000    0.0025  -11.0685   -1.7219   -0.0026
% end

% frame   189
% time 189.0000
% report aster:force
%    class  identity      posX      posY    forceX    forceY    torque
         1         1    1.9732   -0.0207   -8.3149    5.1771    0.0432
% end

% frame   190
% time 190.0000
% report aster:force
%    class  identity      posX      posY    forceX    forceY    torque
         1         1    1.9952    0.0079  -11.4917    1.4014   -0.0544
% end

% frame   191
% time 191.0000
% report aster:force
%    class  identity      posX      posY    forceX    forceY    torque
         1         1    2.0185   -0.0112   -2.5176   -1.5644   -0.0778
% end

% frame   192
% time 192.0000
% report aster:force
%    class  identity      posX      posY    forceX    forceY    torque
         1         1    1.9959   -0.0009   -7.4123    0.0971   -0.0031
% end

% frame   193
% time 193.0000
% report aster:force
%    class  identity      posX      posY    forceX    forceY    torque
         1         1    1.9949    0.0022   -2.1347    1.8914   -0.3288
% end

% frame   194
% time 194.0000
% report aster:force
%    class  identity      posX      posY    forceX    forceY    torque
         1         1    1.9900    0.0048   -2.9134    0.3103   -0.0913
% end

% frame   195
% time 195.0000
% report aster:force
%    class  identity      posX      posY    forceX    forceY    torque
         1         1    2.0033   -0.0108   -3.0343   -2.1800   -0.1674
% end

% frame   196
% time 196.0000
% report aster:force
%    class  identity      posX      posY    forceX    forceY    torque
         1         1    2.0087    0.0035   -1.6224   -0.7317    0.2630
% end

% frame   197
% time 197.0000
% report aster:force
%    class  identity      posX      posY    forceX    forceY    torque
         1         1    2.0001   -0.0108   -7.1548   -6.2234    0.2485
% end

% frame   198
% time 198.0000
% report aster:force
%    class  identity      posX      posY    forceX    forceY    torque
         1         1    2.0049    0.0045   -2.9800   -1.4565    0.0828
% end

% frame   199
% time 199.0000
% report aster:force
%    class  identity      posX      posY    forceX    forceY    torque
         1         1    1.9973   -0.0240   -6.1497   -1.7013    0.2566
% end

% frame   200
% time 200.0000
% report aster:force
%    class  identity      posX      posY    forceX    forceY    torque
         1         1    2.0028   -0.0060   -1.5652    4.2157   -0.0305
% end

% frame   201
% time 201.0000
% report aster:force
%    class  identity      posX      posY    forceX    forceY    torque
         1         1    1.9928   -0.0003   -6.4425   -4.0814   -0.2208
% end

% frame   202
% time 202.0000
% report aster:force
%    class  identity      posX      posY    forceX    forceY    torque
         1         1    2.0036    0.0087   -6.5885    6.1291    0.2342
% end

% frame   203
% time 203.0000
% report aster:force
%    class  identity      posX      posY    forceX    forceY    torque
         1         1    1.9758    0.0027  -17.7208   -2.4543    0.2583
% end

% frame   204
% time 204.0000
% report aster:force
%    class  identity      posX      posY    forceX    forceY    torque
         1         1    2.0071    0.0060   -4.8111   -0.8119   -0.0805
% end

% frame   205
% time 205.0000
% report aster:force
%    class  identity      posX      posY    forceX    forceY    torque
         1         1    1.9910   -0.0073   -6.8740   -3.5629   -0.2874
% end

% frame   206
% time 206.0000
% report aster:force
%    class  identity      posX      posY    forceX    forceY    torque
         1         1    1.9828   -0.0063   -8.5726    1.0252   -0.2501
% end

% frame   207
% time 207.0000
% report aster:force
%    class  identity      posX      posY    forceX    forceY    torque
         1         1    1.9774    0.0056   -5.6658    1.4757    0.3433
% end

% frame   208
% time 208.0000
% report aster:force
%    class  identity      posX      posY    forceX    forceY    torque
         1         1    2.0025    0.0071  -11.0032    0.5475   -0.2546
% end

% frame   209
% time 209.0000
% report aster:force
%    class  identity      posX      posY    forceX    forceY    torque
         1         1    2.0000   -0.0033   -8.4192   -0.2369   -0.0481
% end

% frame   210
% time 210.0000
% report aster:force
%    class  identity      posX      posY    forceX    forceY    torque
         1         1    2.0143    0.0024   -3.6031    2.7408    0.0738
% end

% frame   211
% time 211.0000
% report aster:force
%    class  identity      posX      posY    forceX    forceY    torque
         1         1    1.9808    0.0043  -11.4770   -3.1953   -0.3554
% end

% frame   212
% time 212.0000
% report aster:force
%    class  identity      posX      posY    forceX    forceY    torque
         1         1    2.0109   -0.0024   -9.1166    2.8041   -0.1043
% end

% frame   213
% time 213.0000
% report aster:force
%    class  identity      posX      posY    forceX    forceY    torque
         1         1    2.0043   -0.0060   -0.1327   -1.3170   -0.2595
% end

% frame   214
% time 214.0000
% report aster:force
%    class  identity      posX      posY    forceX    forceY    torque
         1         1    2.0013    0.0034   -0.2796   -3.7954   -0.3215
% end

% frame   215
% time 215.0000
% report aster:force
%    class  identity      posX      posY    forceX    forceY    torque
         1         1    2.0044   -0.0052   -1.9018   -8.8671   -0.1159
% end

% frame   216
% time 216.0000
% report aster:force
%    class  identity      posX      posY    forceX    forceY    torque
         1         1    1.9990    0.0097   -5.2784    2.7304   -0.0038
% end

% frame   217
% time 217.0000
% report aster:force
%    class  identity      posX      posY    forceX    forceY    torque
         1         1    2.0001    0.0010   -9.7478   -2.5818    0.3407
% end

% frame   218
% time 218.0000
% report aster:force
%    class  identity      posX      posY    forceX    forceY    torque
         1         1    2.0038    0.0252   -6.7725    4.7665   -0.0243
% end

% frame   219
% time 219.0000
% report aster:force
%    class  identity      posX      posY    forceX    forceY    torque
         1         1    1.9901    0.0158  -15.9257   -2.2607   -0.0467
% end

% frame   220
% time 220.0000
% report aster:force
%    class  identity      posX      posY    forceX    forceY    torque
         1         1    1.9834   -0.0087  -10.8090   -2.5122   -0.0209
% end

% frame   221
% time 221.0000
% report aster:force
%    class  identity      posX      posY    forceX    forceY    torque
         1         1    1.9796    0.0039  -14.4313   -1.1048    0.0022
% end

% frame   222
% time 222.0000
% report aster:force
%    class  identity      posX      posY    forceX    forceY    torque
         1         1    1.9984   -0.0022   -0.4119   -0.0381   -0.1656
% end

% frame   223
% time 223.0000
% report aster:force
%    class  identity      posX      posY    forceX    forceY    torque
         1         1    1.9971   -0.0001   -7.2142   -0.1895    0.0625
% end

% frame   224
% time 224.0000
% report aster:force
%    class  identity      posX      posY    forceX    forceY    torque
         1         1    1.9942    0.0144   -3.9793   -7.8498   -0.5033
% end

% frame   225
% time 225.0000
% report aster:force
%    class  identity      posX      posY    forceX    forceY    torque
         1         1    1.9962    0.0209  -10.6348    4.2197    0.3768
% end

% frame   226
% time 226.0000
% report aster:force
%    class  identity      posX      posY    forceX    forceY    torque
         1         1    1.9889   -0.0020   -1.6179   -2.0879   -0.0652
% end

% frame   227
% time 227.0000
% report aster:force
%    class  identity      posX      posY    forceX    forceY    torque
         1         1    2.0014    0.0049   -4.3356    1.8711    0.0416
% end

% frame   228
% time 228.0000
% report aster:force
%    class  identity      posX      posY    forceX    forceY    torque
         1         1    2.0007    0.0071   -4.1566   -3.3758    0.0242
% end

% frame   229
% time 229.0000
% report aster:force
%    class  identity      posX      posY    forceX    forceY    torque
         1         1    1.9982   -0.0068   -5.4410   -0.3575    0.2104
% end

% frame   230
% time 230.0000
% report aster:force
%    class  identity      posX      posY    forceX    forceY    torque
         1         1    2.0150    0.0165   -3.9677    2.4441   -0.2439
% end

% frame   231
% time 231.0000
% report aster:force
%    class  identity      posX      posY    forceX    forceY    torque
         1         1    1.9970   -0.0101   -1.4801    3.3210   -0.1733
% end

% frame   232
% time 232.0000
% report aster:force
%    class  identity      posX      posY    forceX    forceY    torque
         1         1    1.9985   -0.0064   -7.3184   -2.2100    0.0180
% end

% frame   233
% time 233.0000
% report aster:force
%    class  identity      posX      posY    forceX    forceY    torque
         1         1    1.9975    0.0043   -7.9279   -1.2882   -0.0883
% end

% frame   234
% time 234.0000
% report aster:force
%    class  identity      posX      posY    forceX    forceY    torque
         1         1    1.9995    0.0060   -6.7496   -0.6294   -0.3991
% end

% frame   235
% time 235.0000
% report aster:force
%    class  identity      posX      posY    forceX    forceY    torque
         1         1    2.0110   -0.0040   -5.4689   -0.8879    0.2459
% end

% frame   236
% time 236.0000
% report aster:force
%    class  identity      posX      posY    forceX    forceY    torque
         1         1    1.9967    0.0047  -10.5666   -0.9425    0.2454
% end

% frame   237
% time 237.0000
% report aster:force
%    class  identity      posX      posY    forceX    forceY    torque
         1         1    1.9798   -0.0149  -12.3072    0.0249    0.1532
% end

% frame   238
% time 238.0000
% report aster:force
%    class  identity      posX      posY    forceX    forceY    torque
         1         1    1.9908    0.0080  -13.2273    1.3096    0.1430
% end

% frame   239
% time 239.0000
% report aster:force
%    class  identity      posX      posY    forceX    forceY    torque
         1         1    2.0025    0.0006   -5.9431    6.4051   -0.0880
% end

% frame   240
% time 240.0000
% report aster:force
%    class  identity      posX      posY    forceX    forceY    torque
         1         1    1.9937   -0.0123  -13.1698    4.9889    0.2151
% end

% frame   241
% time 241.0000
% report aster:force
%    class  identity      posX      posY    forceX    forceY    torque
         1         1    2.0145    0.0037   -3.0254    0.4132    0.0772
% end

% frame   242
% time 242.0000
% report aster:force
%    class  identity      posX      posY    forceX    forceY    torque
         1         1    2.0031    0.0073   -1.0117    2.7436   -0.2887
% end

% frame   243
% time 243.0000
% report aster:force
%    class  identity      posX      posY    forceX    forceY    torque
         1         1    1.9806    0.0117  -10.0867    3.2719   -0.1342
% end

% frame   244
% time 244.0000
% report aster:force
%    class  identity      posX      posY    forceX    forceY    torque
         1         1    1.9917    0.0089   -4.5583    0.5873   -0.0269
% end

% frame   245
% time 245.0000
% report aster:force
%    class  identity      posX      posY    forceX    forceY    torque
         1         1    1.9963    0.0119   -8.4453    3.8999   -0.1776
% end

% frame   246
% time 246.0000
% report aster:force
%    class  identity      posX      posY    forceX    forceY    torque
         1         1    1.9838    0.0147   -8.1446    1.7621   -0.0923
% end

% frame   247
% time 247.0000
% report aster:force
%    class  identity      posX      posY    forceX    forceY    torque
         1         1    1.9970    0.0014  -11.3756   -3.0981   -0.2203
% end

% frame   248
% time 248.0000
% report aster:force
%    class  identity      posX      posY    forceX    forceY    torque
         1         1    2.0102   -0.0038   -6.0413    1.1456   -0.1486
% end

% frame   249
% time 249.0000
% report aster:force
%    class  identity      posX      posY    forceX    forceY    torque
         1         1    2.0037    0.0006   -7.0037    1.4979   -0.1622
% end

% frame   250
% time 250.0000
% report aster:force
%    class  identity      posX      posY    forceX    forceY    torque
         1         1    2.0023    0.0052   -5.8797   -2.5517    0.5046
% end

% frame   251
% time 251.0000
% report aster:force
%    class  identity      posX      posY    forceX    forceY    torque
         1         1    2.0084   -0.0159   -2.7628   -4.4761    0.0889
% end

% frame   252
% time 252.0000
% report aster:force
%    class  identity      posX      posY    forceX    forceY    torque
         1         1    2.0032    0.0030    0.0338    5.3820    0.2012
% end

% frame   253
% time 253.0000
% report aster:force
%    class  identity      posX      posY    forceX    forceY    torque
         1         1    2.0114    0.0162   -4.7063    5.0377    0.1043
% end

% frame   254
% time 254.0000
% report aster:force
%    class  identity      posX      posY    forceX    forceY    torque
         1         1    2.0055    0.0022   -3.4883   -0.8404    0.2031
% end

% frame   255
% time 255.0000
% report aster:force
%    class  identity      posX      posY    forceX    forceY    torque
         1         1    1.9971    0.0034   -2.4479   -0.3631    0.0002
% end

% frame   256
% time 256.0000
% report aster:force
%    class  identity      posX      posY    forceX    forceY    torque
         1         1    2.0034    0.0061   -5.9933    0.6979    0.0309
% end

% frame   257
% time 257.0000
% report aster:force
%    class  identity      posX      posY    forceX    forceY    torque
         1         1    1.9961    0.0062   -1.1431    7.5528   -0.2674
% end

% frame   258
% time 258.0000
% report aster:force
%    class  identity      posX      posY    forceX    forceY    torque
         1         1    1.9970    0.0050   -6.6596   -0.7433   -0.0151
% end

% frame   259
% time 259.0000
% report aster:force
%    class  identity      posX      posY    forceX    forceY    torque
         1         1    1.9968    0.0075   -8.6488    2.7590    0.2759
% end

% frame   260
% time 260.0000
% report aster:force
%    class  identity      posX      posY    forceX    forceY    torque
         1         1    1.9951   -0.0002   -2.6453   -1.8932   -0.0924
% end

% frame   261
% time 261.0000
% report aster:force
%    class  identity      posX      posY    forceX    forceY    torque
         1         1    1.9968    0.0047   -8.2567   -4.5133   -0.1790
% end

% frame   262
% time 262.0000
% report aster:force
%    class  identity      posX      posY    forceX    forceY    torque
         1         1    1.9952   -0.0139   -7.2955    0.7662    0.1154
% end

% frame   263
% time 263.0000
% report aster:force
%    class  identity      posX      posY    forceX    forceY    torque
         1         1    1.9966   -0.0067   -5.9219    0.8781    0.0700
% end

% frame   264
% time 264.0000
% report aster:force
%    class  identity      posX      posY    forceX    forceY    torque
         1         1    1.9947    0.0050  -11.7500   -0.8030   -0.2570
% end

% frame   265
% time 265.0000
% report aster:force
%    class  identity      posX      posY    forceX    forceY    torque
         1         1    1.9929   -0.0009   -3.4199    4.4401    0.1988
% end

% frame   266
% time 266.0000
% report aster:force
%    class  identity      posX      posY    forceX    forceY    torque
         1         1    1.9888    0.0158   -5.2032   -3.4825   -0.1586
% end

% frame   267
% time 267.0000
% report aster:force
%    class  identity      posX      posY    forceX    forceY    torque
         1         1    1.9930    0.0094   -5.7315    1.8426   -0.4518
% end

% frame   268
% time 268.0000
% report aster:force
%    class  identity      posX      posY    forceX    forceY    torque
         1         1    1.9916    0.0093   -7.4524   -1.0322   -0.0525
% end

% frame   269
% time 269.0000
% report aster:force
%    class  identity      posX      posY    forceX    forceY    torque
         1         1    1.9824    0.0132  -10.3574    2.0113    0.1361
% end

% frame   270
% time 270.0000
% report aster:force
%    class  identity      posX      posY    forceX    forceY    torque
         1         1    1.9973   -0.0097   -2.7298    4.8350    0.2589
% end

% frame   271
% time 271.0000
% report aster:force
%    class  identity      posX      posY    forceX    forceY    torque
         1         1    2.0016   -0.0089   -2.9488   -5.8129    0.2412
% end

% frame   272
% time 272.0000
% report aster:force
%    class  identity      posX      posY    forceX    forceY    torque
         1         1    2.0132   -0.0000    3.0105    0.6789    0.0931
% end

% frame   273
% time 273.0000
% report aster:force
%    class  identity      posX      posY    forceX    forceY    torque
         1         1    1.9918   -0.0065   -0.5396   -1.2336    0.0138
% end

% frame   274
% time 274.0000
% report aster:force
%    class  identity      posX      posY    forceX    forceY    torque
         1         1    1.9990    0.0080   -5.0387   -6.9975   -0.1843
% end

% frame   275
% time 275.0000
% report aster:force
%    class  identity      posX      posY    forceX    forceY    torque
         1         1    2.0000   -0.0049   -3.5998   -0.6336    0.1157
% end

% frame   276
% time 276.0000
% report aster:force
%    class  identity      posX      posY    forceX    forceY    torque
         1         1    1.9962   -0.0018   -8.3940   -1.0770    0.4027
% end

% frame   277
% time 277.0000
% report aster:force
%    class  identity      posX      posY    forceX    forceY    torque
         1         1    1.9961   -0.0087   -4.4271   -3.1129   -0.1277
% end

% frame   278
% time 278.0000
% report aster:force
%    class  identity      posX      posY    forceX    forceY    torque
         1         1    1.9803   -0.0021   -9.6619    4.0078   -0.0957
% end

% frame   279
% time 279.0000
% report aster:force
%    class  identity      posX      posY    forceX    forceY    torque
         1         1    2.0016   -0.0065   -4.2093   -3.2292   -0.3056
% end

% frame   280
% time 280.0000
% report aster:force
%    class  identity      posX      posY    forceX    forceY    torque
         1         1    2.0057    0.0003   -5.3015   -2.9847   -0.1517
% end

% frame   281
% time 281.0000
% report aster:force
%    class  identity      posX      posY    forceX    forceY    torque
         1         1    1.9891    0.0021   -8.4836    2.8807    0.1098
% end

% frame   282
% time 282.0000
% report aster:force
%    class  identity      posX      posY    forceX    forceY    torque
         1         1    2.0007    0.0019   -5.2773   -0.3525   -0.4416
% end

% frame   283
% time 283.0000
% report aster:force
%    class  identity      posX      posY    forceX    forceY    torque
         1         1    2.0016   -0.0096   -5.5248   -3.7314    0.4478
% end

% frame   284
% time 284.0000
% report aster:force
%    class  identity      posX      posY    forceX    forceY    torque
         1         1    1.9944    0.0007   -4.1327    2.3051   -0.0777
% end

% frame   285
% time 285.0000
% report aster:force
%    class  identity      posX      posY    forceX    forceY    torque
         1         1    1.9966    0.0041   -6.5914    2.8750    0.1486
% end

% frame   286
% time 286.0000
% report aster:force
%    class  identity      posX      posY    forceX    forceY    torque
         1         1    2.0109   -0.0055   -4.1840    2.3752   -0.2140
% end

% frame   287
% time 287.0000
% report aster:force
%    class  identity      posX      posY    forceX    forceY    torque
         1         1    1.9887   -0.0108   -8.0746   -4.9959   -0.0228
% end

% frame   288
% time 288.0000
% report aster:force
%    class  identity      posX      posY    forceX    forceY    torque
         1         1    2.0031   -0.0042    2.5020   -3.0566    0.0030
% end

% frame   289
% time 289.0000
% report aster:force
%    class  identity      posX      posY    forceX    forceY    torque
         1         1    1.9981    0.0132   -6.4897    1.4627    0.5309
% end

% frame   290
% time 290.0000
% report aster:force
%    class  identity      posX      posY    forceX    forceY    torque
         1         1    2.0114    0.0070   -4.8200   -0.6545    0.1360
% end

% frame   291
% time 291.0000
% report aster:force
%    class  identity      posX      posY    forceX    forceY    torque
         1         1    2.0083    0.0041   -5.3813    5.2052    0.0234
% end

% frame   292
% time 292.0000
% report aster:force
%    class  identity      posX      posY    forceX    forceY    torque
         1         1    1.9778   -0.0049   -8.4125   -4.5340   -0.0846
% end

% frame   293
% time 293.0000
% report aster:force
%    class  identity      posX      posY    forceX    forceY    torque
         1         1    1.9949   -0.0016   -9.8847   -2.4891   -0.2549
% end

% frame   294
% time 294.0000
% report aster:force
%    class  identity      posX      posY    forceX    forceY    torque
         1         1    1.9960   -0.0139   -3.8900   -4.2756   -0.0710
% end

% frame   295
% time 295.0000
% report aster:force
%    class  identity      posX      posY    forceX    forceY    torque
         1         1    2.0090    0.0015   -5.4127    4.3697   -0.3100
% end

% frame   296
% time 296.0000
% report aster:force
%    class  identity      posX      posY    forceX    forceY    torque
         1         1    2.0043   -0.0128    1.3824    1.2008    0.3527
% end

% frame   297
% time 297.0000
% report aster:force
%    class  identity      posX      posY    forceX    forceY    torque
         1         1    1.9919    0.0022   -3.2336    2.7727    0.3749
% end

% frame   298
% time 298.0000
% report aster:force
%    class  identity      posX      posY    forceX    forceY    torque
         1         1    2.0015    0.0067   -7.8325    2.1954   -0.1112
% end

% frame   299
% time 299.0000
% report aster:force
%    class  identity      posX      posY    forceX    forceY    torque
         1         1    1.9854    0.0022  -12.8010    0.4063   -0.0797
% end

% frame   300
% time 300.0000
% report aster:force
%    class  identity      posX      posY    forceX    forceY    torque
         1         1    1.9991    0.0110  -13.4302    1.8470   -0.2995
% end

% frame   301
% time 301.0000
% report aster:force
%    class  identity      posX      posY    forceX    forceY    torque
         1         1    1.9950    0.0020   -8.6233   -0.4913    0.0567
% end

% frame   302
% time 302.0000
% report aster:force
%    class  identity      posX      posY    forceX    forceY    torque
         1         1    2.0056   -0.0015   -0.6166   -1.2105    0.2478
% end

% frame   303
% time 303.0000
% report aster:force
%    class  identity      posX      posY    forceX    forceY    torque
         1         1    2.0145   -0.0059   -1.5113    4.6123   -0.1315
% end

% frame   304
% time 304.0000
% report aster:force
%    class  identity      posX      posY    forceX    forceY    torque
         1         1    1.9889    0.0070   -3.5899   -0.8224    0.0940
% end

% frame   305
% time 305.0000
% report aster:force
%    class  identity      posX      posY    forceX    forceY    torque
         1         1    1.9983   -0.0009   -2.7249    0.6479   -0.1121
% end

% frame   306
% time 306.0000
% report aster:force
%    class  identity      posX      posY    forceX    forceY    torque
         1         1    2.0042    0.0214  -11.8431   -2.8785    0.1555
% end

% frame   307
% time 307.0000
% report aster:force
%    class  identity      posX      posY    forceX    forceY    torque
         1         1    1.9859    0.0103  -12.3476   -1.3180   -0.1032
% end

% frame   308
% time 308.0000
% report aster:force
%    class  identity      posX      posY    forceX    forceY    torque
         1         1    2.0024    0.0094   -6.2661    2.2845   -0.0362
% end

% frame   309
% time 309.0000
% report aster:force
%    class  identity      posX      posY    forceX    forceY    torque
         1         1    1.9885   -0.0033   -8.5227   -1.2345    0.3030
% end

% frame   310
% time 310.0000
% report aster:force
%    class  identity      posX      posY    forceX    forceY    torque
         1         1    2.0005   -0.0051    2.4187    1.3993   -0.1563
% end

% frame   311
% time 311.0000
% report aster:force
%    class  identity      posX      posY    forceX    forceY    torque
         1         1    1.9978    0.0035  -10.5325    9.6031   -0.3604
% end

% frame   312
% time 312.0000
% report aster:force
%    class  identity      posX      posY    forceX    forceY    torque
         1         1    2.0036    0.0051   -3.8694   -1.1497   -0.0747
% end

% frame   313
% time 313.0000
% report aster:force
%    class  identity      posX      posY    forceX    forceY    torque
         1         1    2.0162   -0.0080    1.2575    0.8871    0.1961
% end

% frame   314
% time 314.0000
% report aster:force
%    class  identity      posX      posY    forceX    forceY    torque
         1         1    2.0177    0.0017   -7.4613    3.1423   -0.0195
% end

% frame   315
% time 315.0000
% report aster:force
%    class  identity      posX      posY    forceX    forceY    torque
         1         1    2.0080    0.0076   -3.3530    1.5477   -0.0264
% end

% frame   316
% time 316.0000
% report aster:force
%    class  identity      posX      posY    forceX    forceY    torque
         1         1    1.9947    0.0071   -2.4695    1.6755   -0.1557
% end

% frame   317
% time 317.0000
% report aster:force
%    class  identity      posX      posY    forceX    forceY    torque
         1         1    2.0105    0.0120   -1.2231    1.5979    0.4184
% end

% frame   318
% time 318.0000
% report aster:force
%    class  identity      posX      posY    forceX    forceY    torque
         1         1    2.0082   -0.0048   -4.0341   -3.3541   -0.6971
% end

% frame   319
% time 319.0000
% report aster:force
%    class  identity      posX      posY    forceX    forceY    torque
         1         1    2.0099   -0.0071   -4.8494    0.0570   -0.0785
% end

% frame   320
% time 320.0000
% report aster:force
%    class  identity      posX      posY    forceX    forceY    torque
         1         1    1.9946    0.0059   -7.3520    4.1490   -0.2289
% end

% frame   321
% time 321.0000
% report aster:force
%    class  identity      posX      posY    forceX    forceY    torque
         1         1    1.9955   -0.0015   -6.6372   -0.8950    0.0784
% end

% frame   322
% time 322.0000
% report aster:force
%    class  identity      posX      posY    forceX    forceY    torque
         1         1    2.0046    0.0172   -5.6625   -1.7814    0.2161
% end

% frame   323
% time 323.0000
% report aster:force
%    class  identity      posX      posY    forceX    forceY    torque
         1         1    1.9976    0.0040   -7.9955   -1.2225   -0.1409
% end

% frame   324
% time 324.0000
% report aster:force
%    class  identity      posX      posY    forceX    forceY    torque
         1         1    1.9859   -0.0154   -9.8217   -6.6066   -0.3607
% end

% frame   325
% time 325.0000
% report aster:force
%    class  identity      posX      posY    forceX    forceY    torque
         1         1    2.0009    0.0027   -3.5664    6.5060    0.2471
% end

% frame   326
% time 326.0000
% report aster:force
%    class  identity      posX      posY    forceX    forceY    torque
         1         1    1.9833   -0.0184  -10.7223   -3.6046   -0.3267
% end

% frame   327
% time 327.0000
% report aster:force
%    class  identity      posX      posY    forceX    forceY    torque
         1         1    2.0001   -0.0021   -7.4169   -3.5876    0.1516
% end

% frame   328
% time 328.0000
% report aster:force
%    class  identity      posX      posY    forceX    forceY    torque
         1         1    1.9914   -0.0011   -1.5845   -0.6514   -0.0720
% end

% frame   329
% time 329.0000
% report aster:force
%    class  identity      posX      posY    forceX    forceY    torque
         1         1    1.9919   -0.0092   -8.2748   -0.6917   -0.4135
% end

% frame   330
% time 330.0000
% report aster:force
%    class  identity      posX      posY    forceX    forceY    torque
         1         1    1.9724    0.0055  -11.8464    1.9447    0.0216
% end

% frame   331
% time 331.0000
% report aster:force
%    class  identity      posX      posY    forceX    forceY    torque
         1         1    1.9899   -0.0044    1.5004    3.5976   -0.0432
% end

% frame   332
% time 332.0000
% report aster:force
%    class  identity      posX      posY    forceX    forceY    torque
         1         1    2.0014   -0.0038   -2.4436   -0.3517   -0.3609
% end

% frame   333
% time 333.0000
% report aster:force
%    class  identity      posX      posY    forceX    forceY    torque
         1         1    2.0087    0.0090   -2.9357    5.4256    0.3635
% end

% frame   334
% time 334.0000
% report aster:force
%    class  identity      posX      posY    forceX    forceY    torque
         1         1    1.9909    0.0010  -11.7489   -0.3173   -0.0013
% end

% frame   335
% time 335.0000
% report aster:force
%    class  identity      posX      posY    forceX    forceY    torque
         1         1    1.9991    0.0051   -9.7753    1.7803   -0.1548
% end

% frame   336
% time 336.0000
% report aster:force
%    class  identity      posX      posY    forceX    forceY    torque
         1         1    2.0191    0.0008   -9.1564    2.5493   -0.1801
% end

% frame   337
% time 337.0000
% report aster:force
%    class  identity      posX      posY    forceX    forceY    torque
         1         1    1.9711   -0.0021   -6.9499    0.1924    0.0465
% end

% frame   338
% time 338.0000
% report aster:force
%    class  identity      posX      posY    forceX    forceY    torque
         1         1    1.9801    0.0149  -10.4019    2.1290    0.0683
% end

% frame   339
% time 339.0000
% report aster:force
%    class  identity      posX      posY    forceX    forceY    torque
         1         1    2.0023    0.0053    0.6982   -1.7815   -0.0573
% end

% frame   340
% time 340.0000
% report aster:force
%    class  identity      posX      posY    forceX    forceY    torque
         1         1    1.9852   -0.0024   -9.9157   -2.7052   -0.2233
% end

% frame   341
% time 341.0000
% report aster:force
%    class  identity      posX      posY    forceX    forceY    torque
         1         1    2.0151   -0.0064   -4.7455   -2.6251   -0.3785
% end

% frame   342
% time 342.0000
% report aster:force
%    class  identity      posX      posY    forceX    forceY    torque
         1         1    2.0017    0.0079   -2.8399   -2.9305   -0.2833
% end

% frame   343
% time 343.0000
% report aster:force
%    class  identity      posX      posY    forceX    forceY    torque
         1         1    2.0027    0.0169   -5.0668    0.2388   -0.0267
% end

% frame   344
% time 344.0000
% report aster:force
%    class  identity      posX      posY    forceX    forceY    torque
         1         1    1.9859    0.0227  -14.4957    0.5232    0.0802
% end

% frame   345
% time 345.0000
% report aster:force
%    class  identity      posX      posY    forceX    forceY    torque
         1         1    1.9984    0.0073   -7.7992    6.1607   -0.2022
% end

% frame   346
% time 346.0000
% report aster:force
%    class  identity      posX      posY    forceX    forceY    torque
         1         1    1.9837    0.0068  -10.4415   -0.6784   -0.0295
% end

% frame   347
% time 347.0000
% report aster:force
%    class  identity      posX      posY    forceX    forceY    torque
         1         1    2.0025    0.0209   -3.0419   -0.6804   -0.1723
% end

% frame   348
% time 348.0000
% report aster:force
%    class  identity      posX      posY    forceX    forceY    torque
         1         1    2.0055    0.0080   -7.8552    0.8006    0.1078
% end

% frame   349
% time 349.0000
% report aster:force
%    class  identity      posX      posY    forceX    forceY    torque
         1         1    1.9807    0.0068   -4.1700   -3.6595   -0.1423
% end

% frame   350
% time 350.0000
% report aster:force
%    class  identity      posX      posY    forceX    forceY    torque
         1         1    2.0061    0.0104   -5.2943   -0.3693    0.2547
% end

% frame   351
% time 351.0000
% report aster:force
%    class  identity      posX      posY    forceX    forceY    torque
         1         1    2.0212    0.0035    2.5390   -2.9856    0.0453
% end

% frame   352
% time 352.0000
% report aster:force
%    class  identity      posX      posY    forceX    forceY    torque
         1         1    1.9962   -0.0120  -10.1668   -3.6698    0.0968
% end

% frame   353
% time 353.0000
% report aster:force
%    class  identity      posX      posY    forceX    forceY    torque
         1         1    2.0130    0.0019   -5.9964   -5.1074   -0.2061
% end

% frame   354
% time 354.0000
% report aster:force
%    class  identity      posX      posY    forceX    forceY    torque
         1         1    1.9853    0.0017   -8.7131    3.0488    0.1914
% end

% frame   355
% time 355.0000
% report aster:force
%    class  identity      posX      posY    forceX    forceY    torque
         1         1    1.9998    0.0084   -5.3153    2.6201    0.2402
% end

% frame   356
% time 356.0000
% report aster:force
%    class  identity      posX      posY    forceX    forceY    torque
         1         1    2.0049    0.0124   -6.2135    5.5978   -0.2753
% end

% frame   357
% time 357.0000
% report aster:force
%    class  identity      posX      posY    forceX    forceY    torque
         1         1    1.9972    0.0032  -10.9617   -0.6353    0.0192
% end

% frame   358
% time 358.0000
% report aster:force
%    class  identity      posX      posY    forceX    forceY    torque
         1         1    2.0060   -0.0023   -2.4863   -6.9575    0.0479
% end

% frame   359
% time 359.0000
% report aster:force
%    class  identity      posX      posY    forceX    forceY    torque
         1         1    1.9999   -0.0014   -4.3142    3.2627   -0.1679
% end

% frame   360
% time 360.0000
% report aster:force
%    class  identity      posX      posY    forceX    forceY    torque
         1         1    1.9995    0.0052   -9.5480    3.1699   -0.2753
% end

% frame   361
% time 361.0000
% report aster:force
%    class  identity      posX      posY    forceX    forceY    torque
         1         1    2.0106    0.0053    1.0869   -0.3494    0.0542
% end

% frame   362
% time 362.0000
% report aster:force
%    class  identity      posX      posY    forceX    forceY    torque
         1         1    1.9789    0.0053   -7.5297    1.3662   -0.0873
% end

% frame   363
% time 363.0000
% report aster:force
%    class  identity      posX      posY    forceX    forceY    torque
         1         1    1.9996    0.0059   -5.1334   -0.1203   -0.3335
% end

% frame   364
% time 364.0000
% report aster:force
%    class  identity      posX      posY    forceX    forceY    torque
         1         1    1.9947   -0.0096   -9.6719   -3.5025    0.0968
% end

% frame   365
% time 365.0000
% report aster:force
%    class  identity      posX      posY    forceX    forceY    torque
         1         1    2.0014    0.0060   -3.5671   -4.3661    0.0933
% end

% frame   366
% time 366.0000
% report aster:force
%    class  identity      posX      posY    forceX    forceY    torque
         1         1    2.0093   -0.0054    1.4223   -1.9507    0.1953
% end

% frame   367
% time 367.0000
% report aster:force
%    class  identity      posX      posY    forceX    forceY    torque
         1         1    2.0033    0.0100   -9.3286    2.5493    0.0261
% end

% frame   368
% time 368.0000
% report aster:force
%    class  identity      posX      posY    forceX    forceY    torque
         1         1    2.0027    0.0022   -5.5247   -0.4189   -0.0603
% end

% frame   369
% time 369.0000
% report aster:force
%    class  identity      posX      posY    forceX    forceY    torque
         1         1    1.9955    0.0057  -10.3789    1.0503    0.1179
% end

% frame   370
% time 370.0000
% report aster:force
%    class  identity      posX      posY    forceX    forceY    torque
         1         1    1.9922   -0.0060  -13.1256   -3.3540   -0.0963
% end

% frame   371
% time 371.0000
% report aster:force
%    class  identity      posX      posY    forceX    forceY    torque
         1         1    1.9985    0.0114   -9.0226   -2.6545   -0.2370
% end

% frame   372
% time 372.0000
% report aster:force
%    class  identity      posX      posY    forceX    forceY    torque
         1         1    2.0111   -0.0018   -5.2533   -0.2995    0.0091
% end

% frame   373
% time 373.0000
% report aster:force
%    class  identity      posX      posY    forceX    forceY    torque
         1         1    2.0130    0.0059   -2.9414    5.4130    0.3284
% end

% frame   374
% time 374.0000
% report aster:force
%    class  identity      posX      posY    forceX    forceY    torque
         1         1    2.0053   -0.0027  -11.1434   -1.0702    0.1501
% end

% frame   375
% time 375.0000
% report aster:force
%    class  identity      posX      posY    forceX    forceY    torque
         1         1    2.0111    0.0026   -0.8660    1.1592    0.1483
% end

% frame   376
% time 376.0000
% report aster:force
%    class  identity      posX      posY    forceX    forceY    torque
         1         1    2.0160    0.0122   -6.7124    2.1478   -0.3643
% end

% frame   377
% time 377.0000
% report aster:force
%    class  identity      posX      posY    forceX    forceY    torque
         1         1    1.9932    0.0056   -8.0856    0.4815    0.0185
% end

% frame   378
% time 378.0000
% report aster:force
%    class  identity      posX      posY    forceX    forceY    torque
         1         1    1.9891    0.0014   -7.4215   -3.6939   -0.1133
% end

% frame   379
% time 379.0000
% report aster:force
%    class  identity      posX      posY    forceX    forceY    torque
         1         1    1.9996    0.0066   -5.8408    1.0740   -0.0797
% end

% frame   380
% time 380.0000
% report aster:force
%    class  identity      posX      posY    forceX    forceY    torque
         1         1    2.0026    0.0143   -4.5481   -1.4411   -0.4181
% end

% frame   381
% time 381.0000
% report aster:force
%    class  identity      posX      posY    forceX    forceY    torque
         1         1    1.9936   -0.0090   -9.4753    0.3697   -0.2485
% end

% frame   382
% time 382.0000
% report aster:force
%    class  identity      posX      posY    forceX    forceY    torque
         1         1    2.0252    0.0041    0.3115    6.4263    0.2603
% end

% frame   383
% time 383.0000
% report aster:force
%    class  identity      posX      posY    forceX    forceY    torque
         1         1    2.0152    0.0105   -4.5774    4.0299    0.1099
% end

% frame   384
% time 384.0000
% report aster:force
%    class  identity      posX      posY    forceX    forceY    torque
         1         1    1.9944    0.0021   -5.6405   -0.5769   -0.2097
% end

% frame   385
% time 385.0000
% report aster:force
%    class  identity      posX      posY    forceX    forceY    torque
         1         1    1.9940    0.0055  -12.8820    1.5863    0.1462
% end

% frame   386
% time 386.0000
% report aster:force
%    class  identity      posX      posY    forceX    forceY    torque
         1         1    1.9924   -0.0136   -3.6418    5.8237   -0.0679
% end

% frame   387
% time 387.0000
% report aster:force
%    class  identity      posX      posY    forceX    forceY    torque
         1         1    1.9996   -0.0091   -2.3807    0.2487   -0.0486
% end

% frame   388
% time 388.0000
% report aster:force
%    class  identity      posX      posY    forceX    forceY    torque
         1         1    2.0057    0.0032   -1.7393    0.5275   -0.2785
% end

% frame   389
% time 389.0000
% report aster:force
%    class  identity      posX      posY    forceX    forceY    torque
         1         1    2.0016   -0.0205   -4.4846    0.1071    0.0077
% end

% frame   390
% time 390.0000
% report aster:force
%    class  identity      posX      posY    forceX    forceY    torque
         1         1    1.9925   -0.0046   -7.2359   -2.0563    0.2752
% end

% frame   391
% time 391.0000
% report aster:force
%    class  identity      posX      posY    forceX    forceY    torque
         1         1    1.9923    0.0017   -8.7621   -1.7394    0.1051
% end

% frame   392
% time 392.0000
% report aster:force
%    class  identity      posX      posY    forceX    forceY    torque
         1         1    2.0144    0.0017   -2.4661   -2.0425    0.0760
% end

% frame   393
% time 393.0000
% report aster:force
%    class  identity      posX      posY    forceX    forceY    torque
         1         1    1.9909   -0.0020   -1.2417   10.2931   -0.2638
% end

% frame   394
% time 394.0000
% report aster:force
%    class  identity      posX      posY    forceX    forceY    torque
         1         1    2.0096   -0.0133   -1.2039   -4.6760   -0.1496
% end

% frame   395
% time 395.0000
% report aster:force
%    class  identity      posX      posY    forceX    forceY    torque
         1         1    1.9860    0.0037   -7.1946   -3.4028    0.1231
% end

% frame   396
% time 396.0000
% report aster:force
%    class  identity      posX      posY    forceX    forceY    torque
         1         1    2.0049    0.0042    0.6637   -0.3424   -0.6394
% end

% frame   397
% time 397.0000
% report aster:force
%    class  identity      posX      posY    forceX    forceY    torque
         1         1    1.9893    0.0266   -8.7400    4.1116    0.0057
% end

% frame   398
% time 398.0000
% report aster:force
%    class  identity      posX      posY    forceX    forceY    torque
         1         1    2.0145    0.0011   -4.8918    2.1443   -0.0540
% end

% frame   399
% time 399.0000
% report aster:force
%    class  identity      posX      posY    forceX    forceY    torque
         1         1    1.9910   -0.0091   -8.3753    2.4368    0.5166
% end

% frame   400
% time 400.0000
% report aster:force
%    class  identity      posX      posY    forceX    forceY    torque
         1         1    2.0144   -0.0180   -6.0449   -5.4473    0.1908
% end

% frame   401
% time 401.0000
% report aster:force
%    class  identity      posX      posY    forceX    forceY    torque
         1         1    2.0031   -0.0138   -8.7777    0.5916    0.2818
% end

% frame   402
% time 402.0000
% report aster:force
%    class  identity      posX      posY    forceX    forceY    torque
         1         1    1.9890   -0.0014   -6.1887    5.6892   -0.5067
% end

% frame   403
% time 403.0000
% report aster:force
%    class  identity      posX      posY    forceX    forceY    torque
         1         1    1.9831    0.0128   -5.7192   -1.4696    0.3828
% end

% frame   404
% time 404.0000
% report aster:force
%    class  identity      posX      posY    forceX    forceY    torque
         1         1    1.9887   -0.0112   -9.9371    1.3774   -0.1284
% end

% frame   405
% time 405.0000
% report aster:force
%    class  identity      posX      posY    forceX    forceY    torque
         1         1    2.0072    0.0069   -2.6341    3.6361    0.4161
% end

% frame   406
% time 406.0000
% report aster:force
%    class  identity      posX      posY    forceX    forceY    torque
         1         1    2.0133   -0.0251   -5.7393   -6.1744   -0.1040
% end

% frame   407
% time 407.0000
% report aster:force
%    class  identity      posX      posY    forceX    forceY    torque
         1         1    2.0003    0.0063   -4.5416    0.7297   -0.1276
% end

% frame   408
% time 408.0000
% report aster:force
%    class  identity      posX      posY    forceX    forceY    torque
         1         1    2.0154    0.0030   -7.4623   -4.8925    0.0147
% end

% frame   409
% time 409.0000
% report aster:force
%    class  identity      posX      posY    forceX    forceY    torque
         1         1    2.0239    0.0027   -2.7953    3.8668    0.1353
% end

% frame   410
% time 410.0000
% report aster:force
%    class  identity      posX      posY    forceX    forceY    torque
         1         1    2.0142   -0.0002   -8.6256    3.8380    0.0294
% end

% frame   411
% time 411.0000
% report aster:force
%    class  identity      posX      posY    forceX    forceY    torque
         1         1    1.9955   -0.0010   -2.2068    4.1580    0.0276
% end

% frame   412
% time 412.0000
% report aster:force
%    class  identity      posX      posY    forceX    forceY    torque
         1         1    2.0120   -0.0098    0.9973    0.1792    0.0530
% end

% frame   413
% time 413.0000
% report aster:force
%    class  identity      posX      posY    forceX    forceY    torque
         1         1    1.9886   -0.0018   -5.8374    1.1674   -0.2332
% end

% frame   414
% time 414.0000
% report aster:force
%    class  identity      posX      posY    forceX    forceY    torque
         1         1    1.9921    0.0079   -7.5044    2.1796   -0.2900
% end

% frame   415
% time 415.0000
% report aster:force
%    class  identity      posX      posY    forceX    forceY    torque
         1         1    2.0135    0.0053   -4.5030   -2.8665   -0.3728
% end

% frame   416
% time 416.0000
% report aster:force
%    class  identity      posX      posY    forceX    forceY    torque
         1         1    1.9964   -0.0022   -9.0834    3.8294   -0.0542
% end

% frame   417
% time 417.0000
% report aster:force
%    class  identity      posX      posY    forceX    forceY    torque
         1         1    2.0096   -0.0049   -4.8392    0.1119   -0.1479
% end

% frame   418
% time 418.0000
% report aster:force
%    class  identity      posX      posY    forceX    forceY    torque
         1         1    1.9987    0.0065   -7.3155    2.5339   -0.2793
% end

% frame   419
% time 419.0000
% report aster:force
%    class  identity      posX      posY    forceX    forceY    torque
         1         1    2.0169    0.0045   -5.4453    1.3198    0.0143
% end

% frame   420
% time 420.0000
% report aster:force
%    class  identity      posX      posY    forceX    forceY    torque
         1         1    2.0015    0.0027   -8.1215    1.3573    0.1718
% end

% frame   421
% time 421.0000
% report aster:force
%    class  identity      posX      posY    forceX    forceY    torque
         1         1    2.0014    0.0134   -6.4066   -2.4558    0.0279
% end

% frame   422
% time 422.0000
% report aster:force
%    class  identity      posX      posY    forceX    forceY    torque
         1         1    2.0006   -0.0007   -5.4628   -4.1846   -0.2579
% end

% frame   423
% time 423.0000
% report aster:force
%    class  identity      posX      posY    forceX    forceY    torque
         1         1    1.9970   -0.0042  -13.6840    0.7119   -0.3124
% end

% frame   424
% time 424.0000
% report aster:force
%    class  identity      posX      posY    forceX    forceY    torque
         1         1    2.0075    0.0042  -10.8809    0.2467    0.1292
% end

% frame   425
% time 425.0000
% report aster:force
%    class  identity      posX      posY    forceX    forceY    torque
         1         1    1.9942   -0.0089   -9.6695   -1.6575   -0.0787
% end

% frame   426
% time 426.0000
% report aster:force
%    class  identity      posX      posY    forceX    forceY    torque
         1         1    2.0048   -0.0085    1.3659   -2.1154    0.3140
% end

% frame   427
% time 427.0000
% report aster:force
%    class  identity      posX      posY    forceX    forceY    torque
         1         1    1.9970   -0.0030   -3.9189    1.5997    0.3326
% end

% frame   428
% time 428.0000
% report aster:force
%    class  identity      posX      posY    forceX    forceY    torque
         1         1    2.0007   -0.0209   -6.5406    1.0162    0.5270
% end

% frame   429
% time 429.0000
% report aster:force
%    class  identity      posX      posY    forceX    forceY    torque
         1         1    1.9937    0.0005  -12.6410    7.5314   -0.0468
% end

% frame   430
% time 430.0000
% report aster:force
%    class  identity      posX      posY    forceX    forceY    torque
         1         1    2.0050   -0.0117   -2.7469    7.7000    0.1171
% end

% frame   431
% time 431.0000
% report aster:force
%    class  identity      posX      posY    forceX    forceY    torque
         1         1    1.9936   -0.0002  -11.1066    2.3466   -0.0794
% end

% frame   432
% time 432.0000
% report aster:force
%    class  identity      posX      posY    forceX    forceY    torque
         1         1    2.0102   -0.0029   -4.2836   -4.6838   -0.6737
% end

% frame   433
% time 433.0000
% report aster:force
%    class  identity      posX      posY    forceX    forceY    torque
         1         1    2.0081   -0.0068    1.6857   -0.2037   -0.1835
% end

% frame   434
% time 434.0000
% report aster:force
%    class  identity      posX      posY    forceX    forceY    torque
         1         1    1.9956   -0.0167   -1.3769   -7.2330   -0.1400
% end

% frame   435
% time 435.0000
% report aster:force
%    class  identity      posX      posY    forceX    forceY    torque
         1         1    1.9733    0.0021  -10.5332    2.9589   -0.2395
% end

% frame   436
% time 436.0000
% report aster:force
%    class  identity      posX      posY    forceX    forceY    torque
         1         1    2.0113   -0.0048   -2.3100    2.3649    0.0570
% end

% frame   437
% time 437.0000
% report aster:force
%    class  identity      posX      posY    forceX    forceY    torque
         1         1    2.0030    0.0157   -9.9396    0.7397   -0.1183
% end

% frame   438
% time 438.0000
% report aster:force
%    class  identity      posX      posY    forceX    forceY    torque
         1         1    1.9857    0.0069   -2.8621   -0.6280    0.6088
% end

% frame   439
% time 439.0000
% report aster:force
%    class  identity      posX      posY    forceX    forceY    torque
         1         1    2.0012    0.0034   -5.0575   -0.0987   -0.1574
% end

% frame   440
% time 440.0000
% report aster:force
%    class  identity      posX      posY    forceX    forceY    torque
         1         1    1.9901    0.0114   -5.2756    3.6780   -0.0392
% end

% frame   441
% time 441.0000
% report aster:force
%    class  identity      posX      posY    forceX    forceY    torque
         1         1    1.9882    0.0220   -8.6938   -0.4727    0.2054
% end

% frame   442
% time 442.0000
% report aster:force
%    class  identity      posX      posY    forceX    forceY    torque
         1         1    2.0069   -0.0086  -12.8076   -8.6337   -0.1837
% end

% frame   443
% time 443.0000
% report aster:force
%    class  identity      posX      posY    forceX    forceY    torque
         1         1    2.0015   -0.0091   -9.8506   -2.0184    0.2332
% end

% frame   444
% time 444.0000
% report aster:force
%    class  identity      posX      posY    forceX    forceY    torque
         1         1    1.9899   -0.0030   -9.3310    4.5387   -0.4280
% end

% frame   445
% time 445.0000
% report aster:force
%    class  identity      posX      posY    forceX    forceY    torque
         1         1    1.9854   -0.0097  -11.2179    0.9167   -0.2221
% end

% frame   446
% time 446.0000
% report aster:force
%    class  identity      posX      posY    forceX    forceY    torque
         1         1    1.9714   -0.0094   -7.4624    0.2882    0.0623
% end

% frame   447
% time 447.0000
% report aster:force
%    class  identity      posX      posY    forceX    forceY    torque
         1         1    1.9889    0.0048   -8.9080    1.6494   -0.1370
% end

% frame   448
% time 448.0000
% report aster:force
%    class  identity      posX      posY    forceX    forceY    torque
         1         1    2.0045   -0.0070   -4.6984   -1.1362    0.1607
% end

% frame   449
% time 449.0000
% report aster:force
%    class  identity      posX      posY    forceX    forceY    torque
         1         1    2.0077    0.0006   -3.0328    4.3621    0.1652
% end

% frame   450
% time 450.0000
% report aster:force
%    class  identity      posX      posY    forceX    forceY    torque
         1         1    2.0109    0.0110    5.7326   -4.9726    0.1405
% end

% frame   451
% time 451.0000
% report aster:force
%    class  identity      posX      posY    forceX    forceY    torque
         1         1    2.0143    0.0064    2.0209    0.1717    0.2721
% end

% frame   452
% time 452.0000
% report aster:force
%    class  identity      posX      posY    forceX    forceY    torque
         1         1    2.0049   -0.0035   -5.8874    1.1308    0.0119
% end

% frame   453
% time 453.0000
% report aster:force
%    class  identity      posX      posY    forceX    forceY    torque
         1         1    2.0021   -0.0032  -10.6377    2.3819   -0.0378
% end

% frame   454
% time 454.0000
% report aster:force
%    class  identity      posX      posY    forceX    forceY    torque
         1         1    2.0067   -0.0140  -11.0032    6.7253   -0.2971
% end

% frame   455
% time 455.0000
% report aster:force
%    class  identity      posX      posY    forceX    forceY    torque
         1         1    2.0145   -0.0019   -5.2203    6.2452   -0.0204
% end

% frame   456
% time 456.0000
% report aster:force
%    class  identity      posX      posY    forceX    forceY    torque
         1         1    2.0065    0.0012   -8.1696   -0.7875   -0.1785
% end

% frame   457
% time 457.0000
% report aster:force
%    class  identity      posX      posY    forceX    forceY    torque
         1         1    2.0147    0.0076   -5.1054    4.8536   -0.0121
% end

% frame   458
% time 458.0000
% report aster:force
%    class  identity      posX      posY    forceX    forceY    torque
         1         1    2.0136    0.0031    3.1213    0.1415   -0.1556
% end

% frame   459
% time 459.0000
% report aster:force
%    class  identity      posX      posY    forceX    forceY    torque
         1         1    1.9997   -0.0021   -7.6117   -2.0580    0.1977
% end

% frame   460
% time 460.0000
% report aster:force
%    class  identity      posX      posY    forceX    forceY    torque
         1         1    2.0124    0.0019   -2.9874    0.1504    0.0834
% end

% frame   461
% time 461.0000
% report aster:force
%    class  identity      posX      posY    forceX    forceY    torque
         1         1    2.0086    0.0121   -6.8074    1.5798   -0.2324
% end

% frame   462
% time 462.0000
% report aster:force
%    class  identity      posX      posY    forceX    forceY    torque
         1         1    1.9888   -0.0086   -5.0254   -3.8822   -0.0219
% end

% frame   463
% time 463.0000
% report aster:force
%    class  identity      posX      posY    forceX    forceY    torque
         1         1    1.9872   -0.0141  -10.2302   -2.5171    0.3129
% end

% frame   464
% time 464.0000
% report aster:force
%    class  identity      posX      posY    forceX    forceY    torque
         1         1    1.9961   -0.0046   -3.4122    1.9448   -0.0853
% end

% frame   465
% time 465.0000
% report aster:force
%    class  identity      posX      posY    forceX    forceY    torque
         1         1    2.0168   -0.0023   -7.4426   -3.3683    0.4639
% end

% frame   466
% time 466.0000
% report aster:force
%    class  identity      posX      posY    forceX    forceY    torque
         1         1    2.0136   -0.0012  -11.1791    2.9585   -0.0725
% end

% frame   467
% time 467.0000
% report aster:force
%    class  identity      posX      posY    forceX    forceY    torque
         1         1    2.0025   -0.0019   -3.1567   -1.0492   -0.2997
% end

% frame   468
% time 468.0000
% report aster:force
%    class  identity      posX      posY    forceX    forceY    torque
         1         1    1.9917    0.0096   -7.8689   -6.2648    0.3590
% end

% frame   469
% time 469.0000
% report aster:force
%    class  identity      posX      posY    forceX    forceY    torque
         1         1    1.9943    0.0106   -7.6919   -3.8517   -0.0459
% end

% frame   470
% time 470.0000
% report aster:force
%    class  identity      posX      posY    forceX    forceY    torque
         1         1    1.9989   -0.0033   -8.8006   -3.1751   -0.1708
% end

% frame   471
% time 471.0000
% report aster:force
%    class  identity      posX      posY    forceX    forceY    torque
         1         1    1.9940    0.0117   -9.9881    2.8731   -0.3021
% end

% frame   472
% time 472.0000
% report aster:force
%    class  identity      posX      posY    forceX    forceY    torque
         1         1    2.0144   -0.0052  -10.4205   -2.7516   -0.2627
% end

% frame   473
% time 473.0000
% report aster:force
%    class  identity      posX      posY    forceX    forceY    torque
         1         1    2.0101    0.0068   -3.1744    6.3439   -0.0205
% end

% frame   474
% time 474.0000
% report aster:force
%    class  identity      posX      posY    forceX    forceY    torque
         1         1    1.9994   -0.0143   -4.4729    3.8518    0.1963
% end

% frame   475
% time 475.0000
% report aster:force
%    class  identity      posX      posY    forceX    forceY    torque
         1         1    1.9997    0.0006    2.0119    3.0194    0.2168
% end

% frame   476
% time 476.0000
% report aster:force
%    class  identity      posX      posY    forceX    forceY    torque
         1         1    1.9919    0.0035   -6.2590    0.9370   -0.6442
% end

% frame   477
% time 477.0000
% report aster:force
%    class  identity      posX      posY    forceX    forceY    torque
         1         1    1.9841    0.0199   -7.8542   -3.2512   -0.0382
% end

% frame   478
% time 478.0000
% report aster:force
%    class  identity      posX      posY    forceX    forceY    torque
         1         1    2.0032    0.0168   -2.6490    5.5631   -0.2908
% end

% frame   479
% time 479.0000
% report aster:force
%    class  identity      posX      posY    forceX    forceY    torque
         1         1    2.0047   -0.0063   -6.5931   -3.5560   -0.1811
% end

% frame   480
% time 480.0000
% report aster:force
%    class  identity      posX      posY    forceX    forceY    torque
         1         1    1.9910   -0.0005    3.2505    0.9212   -0.0732
% end

% frame   481
% time 481.0000
% report aster:force
%    class  identity      posX      posY    forceX    forceY    torque
         1         1    2.0211    0.0051    4.4026   -1.3797    0.1536
% end

% frame   482
% time 482.0000
% report aster:force
%    class  identity      posX      posY    forceX    forceY    torque
         1         1    2.0054    0.0046   -5.0766   -2.5132   -0.0473
% end

% frame   483
% time 483.0000
% report aster:force
%    class  identity      posX      posY    forceX    forceY    torque
         1         1    2.0064    0.0108   -8.9127   -3.9290   -0.1714
% end

% frame   484
% time 484.0000
% report aster:force
%    class  identity      posX      posY    forceX    forceY    torque
         1         1    2.0131   -0.0177   -3.9774   -4.4642   -0.4554
% end

% frame   485
% time 485.0000
% report aster:force
%    class  identity      posX      posY    forceX    forceY    torque
         1         1    2.0056   -0.0076   -6.5396   -1.9128    0.1097
% end

% frame   486
% time 486.0000
% report aster:force
%    class  identity      posX      posY    forceX    forceY    torque
         1         1    2.0099   -0.0005   -1.4267    3.7145    0.0545
% end

% frame   487
% time 487.0000
% report aster:force
%    class  identity      posX      posY    forceX    forceY    torque
         1         1    2.0121   -0.0060    0.4256    0.4864   -0.2678
% end

% frame   488
% time 488.0000
% report aster:force
%    class  identity      posX      posY    forceX    forceY    torque
         1         1    2.0042    0.0113   -3.0642    2.1887   -0.1006
% end

% frame   489
% time 489.0000
% report aster:force
%    class  identity      posX      posY    forceX    forceY    torque
         1         1    2.0042    0.0140   -8.0453    1.2497   -0.3235
% end

% frame   490
% time 490.0000
% report aster:force
%    class  identity      posX      posY    forceX    forceY    torque
         1         1    2.0030   -0.0057   -3.9905    0.3342    0.3959
% end

% frame   491
% time 491.0000
% report aster:force
%    class  identity      posX      posY    forceX    forceY    torque
         1         1    2.0218   -0.0124   -3.3417    0.3226    0.1279
% end

% frame   492
% time 492.0000
% report aster:force
%    class  identity      posX      posY    forceX    forceY    torque
         1         1    1.9978   -0.0090   -5.2253    1.5772    0.5542
% end

% frame   493
% time 493.0000
% report aster:force
%    class  identity      posX      posY    forceX    forceY    torque
         1         1    1.9873    0.0078   -7.0330    5.1199    0.1264
% end

% frame   494
% time 494.0000
% report aster:force
%    class  identity      posX      posY    forceX    forceY    torque
         1         1    1.9944    0.0112   -9.9802    4.8759    0.0973
% end

% frame   495
% time 495.0000
% report aster:force
%    class  identity      posX      posY    forceX    forceY    torque
         1         1    2.0094    0.0156   -3.5849    1.0703   -0.1384
% end

% frame   496
% time 496.0000
% report aster:force
%    class  identity      posX      posY    forceX    forceY    torque
         1         1    1.9963   -0.0130   -3.4546   -4.1117   -0.5287
% end

% frame   497
% time 497.0000
% report aster:force
%    class  identity      posX      posY    forceX    forceY    torque
         1         1    2.0043   -0.0067   -6.0247    2.2765    0.5874
% end

% frame   498
% time 498.0000
% report aster:force
%    class  identity      posX      posY    forceX    forceY    torque
         1         1    2.0061    0.0052   -1.6710    5.6799    0.2166
% end

% frame   499
% time 499.0000
% report aster:force
%    class  identity      posX      posY    forceX    forceY    torque
         1         1    2.0124   -0.0011   -8.5295   -1.7131   -0.1174
% end

% frame   500
% time 500.0000
% report aster:force
%    class  identity      posX      posY    forceX    forceY    torque
         1         1    2.0198    0.0003   -3.1330   -4.9883    0.1397
% end
