
% frame   0
% time 0.0000
% report aster:force
%    class  identity      posX      posY    forceX    forceY    torque
         1         1   -6.0000    0.0000   -0.0010   -0.0001   -0.0006
% end

% frame   1
% time 1.0000
% report aster:force
%    class  identity      posX      posY    forceX    forceY    torque
         1         1   -7.0045   -0.0004   -1.5077   -1.7353    0.3396
% end

% frame   2
% time 2.0000
% report aster:force
%    class  identity      posX      posY    forceX    forceY    torque
         1         1   -6.9904   -0.0123    7.9414   -0.4926    0.0381
% end

% frame   3
% time 3.0000
% report aster:force
%    class  identity      posX      posY    forceX    forceY    torque
         1         1   -6.9798   -0.0005    6.5095   -0.6550   -0.1114
% end

% frame   4
% time 4.0000
% report aster:force
%    class  identity      posX      posY    forceX    forceY    torque
         1         1   -6.9798    0.0025    1.8522    2.6487    0.2183
% end

% frame   5
% time 5.0000
% report aster:force
%    class  identity      posX      posY    forceX    forceY    torque
         1         1   -6.9634    0.0100   17.2599    9.5358    0.3315
% end

% frame   6
% time 6.0000
% report aster:force
%    class  identity      posX      posY    forceX    forceY    torque
         1         1   -6.9885    0.0060   10.7572    2.5414   -0.1655
% end

% frame   7
% time 7.0000
% report aster:force
%    class  identity      posX      posY    forceX    forceY    torque
         1         1   -6.9594    0.0022   21.3678   -1.1225   -0.0484
% end

% frame   8
% time 8.0000
% report aster:force
%    class  identity      posX      posY    forceX    forceY    torque
         1         1   -6.9717   -0.0012   23.0348    1.4356   -0.0208
% end

% frame   9
% time 9.0000
% report aster:force
%    class  identity      posX      posY    forceX    forceY    torque
         1         1   -6.9937   -0.0037   17.6783   -2.3311   -0.2574
% end

% frame   10
% time 10.0000
% report aster:force
%    class  identity      posX      posY    forceX    forceY    torque
         1         1   -6.9729   -0.0116   30.9212   -2.5908    0.1263
% end

% frame   11
% time 11.0000
% report aster:force
%    class  identity      posX      posY    forceX    forceY    torque
         1         1   -6.9779   -0.0018   31.3823   -1.0101    0.3085
% end

% frame   12
% time 12.0000
% report aster:force
%    class  identity      posX      posY    forceX    forceY    torque
         1         1   -6.9888   -0.0064   27.3692    0.0254   -0.3730
% end

% frame   13
% time 13.0000
% report aster:force
%    class  identity      posX      posY    forceX    forceY    torque
         1         1   -6.9745    0.0033   37.1626    1.9809   -0.0625
% end

% frame   14
% time 14.0000
% report aster:force
%    class  identity      posX      posY    forceX    forceY    torque
         1         1   -6.9862    0.0030   33.8128   -3.1712   -0.0630
% end

% frame   15
% time 15.0000
% report aster:force
%    class  identity      posX      posY    forceX    forceY    torque
         1         1   -6.9752   -0.0091   35.1084    3.2852    0.1387
% end

% frame   16
% time 16.0000
% report aster:force
%    class  identity      posX      posY    forceX    forceY    torque
         1         1   -6.9815    0.0059   35.0162    2.3448    0.0490
% end

% frame   17
% time 17.0000
% report aster:force
%    class  identity      posX      posY    forceX    forceY    torque
         1         1   -6.9841    0.0036   44.3273   -8.1724    0.2370
% end

% frame   18
% time 18.0000
% report aster:force
%    class  identity      posX      posY    forceX    forceY    torque
         1         1   -6.9794    0.0037   49.4369   -7.3705   -0.0853
% end

% frame   19
% time 19.0000
% report aster:force
%    class  identity      posX      posY    forceX    forceY    torque
         1         1   -6.9726   -0.0057   52.5681   -1.1553    0.0169
% end

% frame   20
% time 20.0000
% report aster:force
%    class  identity      posX      posY    forceX    forceY    torque
         1         1   -6.9694   -0.0049   40.8581  -10.1505    0.2517
% end

% frame   21
% time 21.0000
% report aster:force
%    class  identity      posX      posY    forceX    forceY    torque
         1         1   -6.9871    0.0063   39.7945    3.2650    0.4028
% end

% frame   22
% time 22.0000
% report aster:force
%    class  identity      posX      posY    forceX    forceY    torque
         1         1   -6.9885   -0.0034   43.0238   -0.4081   -0.0856
% end

% frame   23
% time 23.0000
% report aster:force
%    class  identity      posX      posY    forceX    forceY    torque
         1         1   -6.9910    0.0009   38.5885    0.7898    0.0775
% end

% frame   24
% time 24.0000
% report aster:force
%    class  identity      posX      posY    forceX    forceY    torque
         1         1   -6.9751   -0.0058   49.1215    0.0539    0.3136
% end

% frame   25
% time 25.0000
% report aster:force
%    class  identity      posX      posY    forceX    forceY    torque
         1         1   -6.9806   -0.0098   52.6747    5.4788   -0.0790
% end

% frame   26
% time 26.0000
% report aster:force
%    class  identity      posX      posY    forceX    forceY    torque
         1         1   -6.9885    0.0039   57.5944   -5.8785    0.3022
% end

% frame   27
% time 27.0000
% report aster:force
%    class  identity      posX      posY    forceX    forceY    torque
         1         1   -6.9758   -0.0092   51.5882   -3.6573   -0.2627
% end

% frame   28
% time 28.0000
% report aster:force
%    class  identity      posX      posY    forceX    forceY    torque
         1         1   -6.9883   -0.0042   46.3317    4.0177    0.3977
% end

% frame   29
% time 29.0000
% report aster:force
%    class  identity      posX      posY    forceX    forceY    torque
         1         1   -6.9747    0.0044   48.7618    3.4959   -0.2896
% end

% frame   30
% time 30.0000
% report aster:force
%    class  identity      posX      posY    forceX    forceY    torque
         1         1   -7.0087    0.0043   39.9705    2.4961   -0.0943
% end

% frame   31
% time 31.0000
% report aster:force
%    class  identity      posX      posY    forceX    forceY    torque
         1         1   -6.9820    0.0110   44.5586    5.0594   -0.2552
% end

% frame   32
% time 32.0000
% report aster:force
%    class  identity      posX      posY    forceX    forceY    torque
         1         1   -6.9732   -0.0075   44.3068    3.1667    0.1771
% end

% frame   33
% time 33.0000
% report aster:force
%    class  identity      posX      posY    forceX    forceY    torque
         1         1   -6.9914   -0.0001   36.4880   10.8122    0.0818
% end

% frame   34
% time 34.0000
% report aster:force
%    class  identity      posX      posY    forceX    forceY    torque
         1         1   -6.9753   -0.0007   39.4396    7.6779   -0.2563
% end

% frame   35
% time 35.0000
% report aster:force
%    class  identity      posX      posY    forceX    forceY    torque
         1         1   -6.9822   -0.0034   32.2714   -2.9393   -0.3573
% end

% frame   36
% time 36.0000
% report aster:force
%    class  identity      posX      posY    forceX    forceY    torque
         1         1   -6.9839   -0.0025   24.9915    0.7219   -0.1585
% end

% frame   37
% time 37.0000
% report aster:force
%    class  identity      posX      posY    forceX    forceY    torque
         1         1   -6.9738   -0.0025   31.5535   -3.6910    0.3154
% end

% frame   38
% time 38.0000
% report aster:force
%    class  identity      posX      posY    forceX    forceY    torque
         1         1   -6.9779   -0.0053   29.1155   -5.9095   -0.1660
% end

% frame   39
% time 39.0000
% report aster:force
%    class  identity      posX      posY    forceX    forceY    torque
         1         1   -6.9816    0.0053   32.1668    1.0473   -0.0174
% end

% frame   40
% time 40.0000
% report aster:force
%    class  identity      posX      posY    forceX    forceY    torque
         1         1   -7.0015    0.0037   25.8199   -2.8326    0.3140
% end

% frame   41
% time 41.0000
% report aster:force
%    class  identity      posX      posY    forceX    forceY    torque
         1         1   -6.9909   -0.0146   28.3889   -4.9175   -0.0602
% end

% frame   42
% time 42.0000
% report aster:force
%    class  identity      posX      posY    forceX    forceY    torque
         1         1   -6.9843   -0.0007   24.4337    0.2679    0.1873
% end

% frame   43
% time 43.0000
% report aster:force
%    class  identity      posX      posY    forceX    forceY    torque
         1         1   -6.9953   -0.0001   14.9707    2.3486   -0.1898
% end

% frame   44
% time 44.0000
% report aster:force
%    class  identity      posX      posY    forceX    forceY    torque
         1         1   -7.0013    0.0004   19.8588    0.8280   -0.2603
% end

% frame   45
% time 45.0000
% report aster:force
%    class  identity      posX      posY    forceX    forceY    torque
         1         1   -6.9918    0.0055   24.6018   -4.1581    0.2187
% end

% frame   46
% time 46.0000
% report aster:force
%    class  identity      posX      posY    forceX    forceY    torque
         1         1   -6.9888    0.0027   23.3362   -4.0650   -0.0426
% end

% frame   47
% time 47.0000
% report aster:force
%    class  identity      posX      posY    forceX    forceY    torque
         1         1   -6.9867    0.0070   37.1319   -5.5738   -0.1170
% end

% frame   48
% time 48.0000
% report aster:force
%    class  identity      posX      posY    forceX    forceY    torque
         1         1   -7.0023   -0.0097   33.3602   -5.8084    0.1447
% end

% frame   49
% time 49.0000
% report aster:force
%    class  identity      posX      posY    forceX    forceY    torque
         1         1   -6.9909    0.0055   38.4937   -8.0511   -0.5608
% end

% frame   50
% time 50.0000
% report aster:force
%    class  identity      posX      posY    forceX    forceY    torque
         1         1   -6.9883    0.0007   38.8193   -7.6453   -0.0005
% end

% frame   51
% time 51.0000
% report aster:force
%    class  identity      posX      posY    forceX    forceY    torque
         1         1   -6.9851   -0.0004   44.6676   -3.7417   -0.0968
% end

% frame   52
% time 52.0000
% report aster:force
%    class  identity      posX      posY    forceX    forceY    torque
         1         1   -6.9976    0.0113   20.7231    1.0464    0.1773
% end

% frame   53
% time 53.0000
% report aster:force
%    class  identity      posX      posY    forceX    forceY    torque
         1         1   -6.9957   -0.0050   22.0142   -4.0442    0.2235
% end

% frame   54
% time 54.0000
% report aster:force
%    class  identity      posX      posY    forceX    forceY    torque
         1         1   -7.0070   -0.0058   19.5749   -3.4908    0.1445
% end

% frame   55
% time 55.0000
% report aster:force
%    class  identity      posX      posY    forceX    forceY    torque
         1         1   -6.9925   -0.0044   19.9418   -1.2809    0.4186
% end

% frame   56
% time 56.0000
% report aster:force
%    class  identity      posX      posY    forceX    forceY    torque
         1         1   -6.9981    0.0158   24.1314    2.4670   -0.0216
% end

% frame   57
% time 57.0000
% report aster:force
%    class  identity      posX      posY    forceX    forceY    torque
         1         1   -6.9886   -0.0011   37.4778   -0.4364   -0.1767
% end

% frame   58
% time 58.0000
% report aster:force
%    class  identity      posX      posY    forceX    forceY    torque
         1         1   -6.9922   -0.0040   34.4823   -0.3702   -0.2561
% end

% frame   59
% time 59.0000
% report aster:force
%    class  identity      posX      posY    forceX    forceY    torque
         1         1   -6.9922    0.0095   26.3263   -2.6928    0.1499
% end

% frame   60
% time 60.0000
% report aster:force
%    class  identity      posX      posY    forceX    forceY    torque
         1         1   -6.9904    0.0031   28.4644   -1.3414   -0.0649
% end

% frame   61
% time 61.0000
% report aster:force
%    class  identity      posX      posY    forceX    forceY    torque
         1         1   -6.9911    0.0052   35.2262   -4.5539    0.1144
% end

% frame   62
% time 62.0000
% report aster:force
%    class  identity      posX      posY    forceX    forceY    torque
         1         1   -6.9993   -0.0085   35.9267   -5.1126   -0.0538
% end

% frame   63
% time 63.0000
% report aster:force
%    class  identity      posX      posY    forceX    forceY    torque
         1         1   -6.9869    0.0062   28.2431   -5.7585   -0.2282
% end

% frame   64
% time 64.0000
% report aster:force
%    class  identity      posX      posY    forceX    forceY    torque
         1         1   -6.9785   -0.0057   35.1958   -4.6441    0.3801
% end

% frame   65
% time 65.0000
% report aster:force
%    class  identity      posX      posY    forceX    forceY    torque
         1         1   -6.9858   -0.0111   32.9466    4.0527    0.1137
% end

% frame   66
% time 66.0000
% report aster:force
%    class  identity      posX      posY    forceX    forceY    torque
         1         1   -6.9464   -0.0065   47.9566    2.6262    0.3095
% end

% frame   67
% time 67.0000
% report aster:force
%    class  identity      posX      posY    forceX    forceY    torque
         1         1   -6.9558    0.0214   52.7447    1.5870    0.3326
% end

% frame   68
% time 68.0000
% report aster:force
%    class  identity      posX      posY    forceX    forceY    torque
         1         1   -6.9951    0.0100   39.0681   -2.9276   -0.0411
% end

% frame   69
% time 69.0000
% report aster:force
%    class  identity      posX      posY    forceX    forceY    torque
         1         1   -6.9966   -0.0047   42.3887   -1.9824    0.0729
% end

% frame   70
% time 70.0000
% report aster:force
%    class  identity      posX      posY    forceX    forceY    torque
         1         1   -6.9770   -0.0059   30.3284    4.4988   -0.0867
% end

% frame   71
% time 71.0000
% report aster:force
%    class  identity      posX      posY    forceX    forceY    torque
         1         1   -6.9780    0.0031   40.1678   -0.8683   -0.1237
% end

% frame   72
% time 72.0000
% report aster:force
%    class  identity      posX      posY    forceX    forceY    torque
         1         1   -6.9961    0.0085   28.3797   -0.3315   -0.0947
% end

% frame   73
% time 73.0000
% report aster:force
%    class  identity      posX      posY    forceX    forceY    torque
         1         1   -7.0087    0.0057   20.6563   -1.0888    0.5602
% end

% frame   74
% time 74.0000
% report aster:force
%    class  identity      posX      posY    forceX    forceY    torque
         1         1   -6.9890    0.0052   28.7555   -2.0059   -0.1250
% end

% frame   75
% time 75.0000
% report aster:force
%    class  identity      posX      posY    forceX    forceY    torque
         1         1   -6.9870   -0.0092   23.0198    0.5540   -0.0867
% end

% frame   76
% time 76.0000
% report aster:force
%    class  identity      posX      posY    forceX    forceY    torque
         1         1   -6.9851   -0.0042   31.0676   -8.0562    0.0877
% end

% frame   77
% time 77.0000
% report aster:force
%    class  identity      posX      posY    forceX    forceY    torque
         1         1   -7.0006    0.0117   32.7087    0.4540    0.1884
% end

% frame   78
% time 78.0000
% report aster:force
%    class  identity      posX      posY    forceX    forceY    torque
         1         1   -6.9657    0.0109   49.6024    0.4044    0.2087
% end

% frame   79
% time 79.0000
% report aster:force
%    class  identity      posX      posY    forceX    forceY    torque
         1         1   -6.9652    0.0025   41.4184   10.4741    0.3589
% end

% frame   80
% time 80.0000
% report aster:force
%    class  identity      posX      posY    forceX    forceY    torque
         1         1   -6.9976    0.0052   37.1221    2.6606    0.0455
% end

% frame   81
% time 81.0000
% report aster:force
%    class  identity      posX      posY    forceX    forceY    torque
         1         1   -7.0122   -0.0072   38.6483   -2.0219   -0.0387
% end

% frame   82
% time 82.0000
% report aster:force
%    class  identity      posX      posY    forceX    forceY    torque
         1         1   -6.9545   -0.0103   50.0068   -3.4584   -0.2009
% end

% frame   83
% time 83.0000
% report aster:force
%    class  identity      posX      posY    forceX    forceY    torque
         1         1   -7.0054    0.0028   31.0807    3.6169   -0.3864
% end

% frame   84
% time 84.0000
% report aster:force
%    class  identity      posX      posY    forceX    forceY    torque
         1         1   -6.9966   -0.0080   40.7656    0.1879    0.1396
% end

% frame   85
% time 85.0000
% report aster:force
%    class  identity      posX      posY    forceX    forceY    torque
         1         1   -6.9854   -0.0153   46.6759   -4.8661    0.0523
% end

% frame   86
% time 86.0000
% report aster:force
%    class  identity      posX      posY    forceX    forceY    torque
         1         1   -6.9880   -0.0033   43.9827   -2.4423   -0.0830
% end

% frame   87
% time 87.0000
% report aster:force
%    class  identity      posX      posY    forceX    forceY    torque
         1         1   -7.0021    0.0167   38.5789   -2.0747   -0.1698
% end

% frame   88
% time 88.0000
% report aster:force
%    class  identity      posX      posY    forceX    forceY    torque
         1         1   -6.9599   -0.0035   52.0271   -0.2114    0.1595
% end

% frame   89
% time 89.0000
% report aster:force
%    class  identity      posX      posY    forceX    forceY    torque
         1         1   -6.9790    0.0092   37.2314    3.9075    0.1382
% end

% frame   90
% time 90.0000
% report aster:force
%    class  identity      posX      posY    forceX    forceY    torque
         1         1   -6.9745   -0.0046   40.0207   -3.1949   -0.3638
% end

% frame   91
% time 91.0000
% report aster:force
%    class  identity      posX      posY    forceX    forceY    torque
         1         1   -6.9709   -0.0111   36.7513   -6.4252    0.2554
% end

% frame   92
% time 92.0000
% report aster:force
%    class  identity      posX      posY    forceX    forceY    torque
         1         1   -6.9960    0.0087   34.0661   -0.3691    0.3347
% end

% frame   93
% time 93.0000
% report aster:force
%    class  identity      posX      posY    forceX    forceY    torque
         1         1   -6.9866    0.0043   35.6323    0.1554    0.1219
% end

% frame   94
% time 94.0000
% report aster:force
%    class  identity      posX      posY    forceX    forceY    torque
         1         1   -6.9879   -0.0013   35.6308    2.5748    0.0334
% end

% frame   95
% time 95.0000
% report aster:force
%    class  identity      posX      posY    forceX    forceY    torque
         1         1   -7.0027   -0.0067   33.5396    0.6251   -0.1478
% end

% frame   96
% time 96.0000
% report aster:force
%    class  identity      posX      posY    forceX    forceY    torque
         1         1   -7.0010   -0.0056   39.5166   -0.0070   -0.0949
% end

% frame   97
% time 97.0000
% report aster:force
%    class  identity      posX      posY    forceX    forceY    torque
         1         1   -6.9888   -0.0070   41.6011    3.8895   -0.1495
% end

% frame   98
% time 98.0000
% report aster:force
%    class  identity      posX      posY    forceX    forceY    torque
         1         1   -6.9759   -0.0013   43.9797    6.5341    0.1675
% end

% frame   99
% time 99.0000
% report aster:force
%    class  identity      posX      posY    forceX    forceY    torque
         1         1   -6.9690   -0.0026   49.4672    7.6744   -0.0682
% end

% frame   100
% time 100.0000
% report aster:force
%    class  identity      posX      posY    forceX    forceY    torque
         1         1   -6.9592    0.0123   49.4514    4.0022    0.0959
% end

% frame   101
% time 101.0000
% report aster:force
%    class  identity      posX      posY    forceX    forceY    torque
         1         1   -6.9519    0.0115   49.6188    2.1630    0.0210
% end

% frame   102
% time 102.0000
% report aster:force
%    class  identity      posX      posY    forceX    forceY    torque
         1         1   -6.9777    0.0014   43.1697   -2.6665   -0.1381
% end

% frame   103
% time 103.0000
% report aster:force
%    class  identity      posX      posY    forceX    forceY    torque
         1         1   -6.9873   -0.0013   41.6638    4.7485   -0.0645
% end

% frame   104
% time 104.0000
% report aster:force
%    class  identity      posX      posY    forceX    forceY    torque
         1         1   -6.9826    0.0002   46.5670    4.2789    0.1418
% end

% frame   105
% time 105.0000
% report aster:force
%    class  identity      posX      posY    forceX    forceY    torque
         1         1   -7.0059   -0.0037   30.7416    1.6851    0.0869
% end

% frame   106
% time 106.0000
% report aster:force
%    class  identity      posX      posY    forceX    forceY    torque
         1         1   -6.9962   -0.0011   31.1177    7.6919    0.0950
% end

% frame   107
% time 107.0000
% report aster:force
%    class  identity      posX      posY    forceX    forceY    torque
         1         1   -6.9821   -0.0039   26.8823    4.4535   -0.1840
% end

% frame   108
% time 108.0000
% report aster:force
%    class  identity      posX      posY    forceX    forceY    torque
         1         1   -6.9806   -0.0146   26.7847   -4.9047   -0.0834
% end

% frame   109
% time 109.0000
% report aster:force
%    class  identity      posX      posY    forceX    forceY    torque
         1         1   -6.9884    0.0022   33.9247   -1.9917   -0.1025
% end

% frame   110
% time 110.0000
% report aster:force
%    class  identity      posX      posY    forceX    forceY    torque
         1         1   -6.9700    0.0029   42.0686   -4.2042   -0.2115
% end

% frame   111
% time 111.0000
% report aster:force
%    class  identity      posX      posY    forceX    forceY    torque
         1         1   -6.9866    0.0086   28.8624   -6.1279   -0.0724
% end

% frame   112
% time 112.0000
% report aster:force
%    class  identity      posX      posY    forceX    forceY    torque
         1         1   -6.9887   -0.0025   23.2987   -3.1565   -0.0607
% end

% frame   113
% time 113.0000
% report aster:force
%    class  identity      posX      posY    forceX    forceY    torque
         1         1   -6.9920   -0.0042   24.2037   -6.6189    0.2584
% end

% frame   114
% time 114.0000
% report aster:force
%    class  identity      posX      posY    forceX    forceY    torque
         1         1   -6.9922    0.0051   25.6198   -2.1533   -0.1856
% end

% frame   115
% time 115.0000
% report aster:force
%    class  identity      posX      posY    forceX    forceY    torque
         1         1   -7.0039   -0.0036   28.7589    0.7103    0.0072
% end

% frame   116
% time 116.0000
% report aster:force
%    class  identity      posX      posY    forceX    forceY    torque
         1         1   -6.9728    0.0030   36.2998    1.5477    0.2261
% end

% frame   117
% time 117.0000
% report aster:force
%    class  identity      posX      posY    forceX    forceY    torque
         1         1   -6.9994   -0.0068   25.3958    2.4234   -0.3274
% end

% frame   118
% time 118.0000
% report aster:force
%    class  identity      posX      posY    forceX    forceY    torque
         1         1   -6.9951   -0.0036   27.6247    9.0737   -0.0090
% end

% frame   119
% time 119.0000
% report aster:force
%    class  identity      posX      posY    forceX    forceY    torque
         1         1   -6.9784   -0.0070   37.9580    4.6752   -0.2209
% end

% frame   120
% time 120.0000
% report aster:force
%    class  identity      posX      posY    forceX    forceY    torque
         1         1   -6.9866    0.0009   34.9116    7.9079    0.2366
% end

% frame   121
% time 121.0000
% report aster:force
%    class  identity      posX      posY    forceX    forceY    torque
         1         1   -6.9937    0.0025   34.4808    7.7522    0.4075
% end

% frame   122
% time 122.0000
% report aster:force
%    class  identity      posX      posY    forceX    forceY    torque
         1         1   -6.9824   -0.0052   38.0064   -2.7978   -0.1247
% end

% frame   123
% time 123.0000
% report aster:force
%    class  identity      posX      posY    forceX    forceY    torque
         1         1   -6.9767    0.0015   42.3566   -3.3680   -0.1114
% end

% frame   124
% time 124.0000
% report aster:force
%    class  identity      posX      posY    forceX    forceY    torque
         1         1   -6.9924    0.0003   39.7493    6.4454   -0.0386
% end

% frame   125
% time 125.0000
% report aster:force
%    class  identity      posX      posY    forceX    forceY    torque
         1         1   -6.9873   -0.0102   26.1249    0.6791   -0.0583
% end

% frame   126
% time 126.0000
% report aster:force
%    class  identity      posX      posY    forceX    forceY    torque
         1         1   -6.9880    0.0102   38.8108    2.0205    0.1968
% end

% frame   127
% time 127.0000
% report aster:force
%    class  identity      posX      posY    forceX    forceY    torque
         1         1   -6.9890    0.0082   35.7113   -7.8475    0.0163
% end

% frame   128
% time 128.0000
% report aster:force
%    class  identity      posX      posY    forceX    forceY    torque
         1         1   -6.9924    0.0038   33.3944   -4.2175   -0.1266
% end

% frame   129
% time 129.0000
% report aster:force
%    class  identity      posX      posY    forceX    forceY    torque
         1         1   -7.0048   -0.0021   32.7086   -1.7282    0.2688
% end

% frame   130
% time 130.0000
% report aster:force
%    class  identity      posX      posY    forceX    forceY    torque
         1         1   -6.9985    0.0025   28.6005    0.1187   -0.1056
% end

% frame   131
% time 131.0000
% report aster:force
%    class  identity      posX      posY    forceX    forceY    torque
         1         1   -7.0081   -0.0019   17.2053    3.0704   -0.2231
% end

% frame   132
% time 132.0000
% report aster:force
%    class  identity      posX      posY    forceX    forceY    torque
         1         1   -7.0027   -0.0029   18.9039   -0.6786   -0.0564
% end

% frame   133
% time 133.0000
% report aster:force
%    class  identity      posX      posY    forceX    forceY    torque
         1         1   -6.9815    0.0038   28.4385    0.9175    0.3652
% end

% frame   134
% time 134.0000
% report aster:force
%    class  identity      posX      posY    forceX    forceY    torque
         1         1   -6.9897   -0.0056   30.1714   -1.6157    0.2254
% end

% frame   135
% time 135.0000
% report aster:force
%    class  identity      posX      posY    forceX    forceY    torque
         1         1   -6.9769   -0.0024   27.8992   -0.0884   -0.4369
% end

% frame   136
% time 136.0000
% report aster:force
%    class  identity      posX      posY    forceX    forceY    torque
         1         1   -6.9753   -0.0102   35.2325   -9.0220   -0.3280
% end

% frame   137
% time 137.0000
% report aster:force
%    class  identity      posX      posY    forceX    forceY    torque
         1         1   -6.9793   -0.0055   26.5444    6.6596    0.0168
% end

% frame   138
% time 138.0000
% report aster:force
%    class  identity      posX      posY    forceX    forceY    torque
         1         1   -6.9763   -0.0025   34.9423   -1.8430   -0.0779
% end

% frame   139
% time 139.0000
% report aster:force
%    class  identity      posX      posY    forceX    forceY    torque
         1         1   -6.9914   -0.0029   35.7208   -2.9704   -0.0283
% end

% frame   140
% time 140.0000
% report aster:force
%    class  identity      posX      posY    forceX    forceY    torque
         1         1   -6.9911    0.0105   38.4496   -1.9449   -0.3576
% end

% frame   141
% time 141.0000
% report aster:force
%    class  identity      posX      posY    forceX    forceY    torque
         1         1   -6.9831    0.0073   46.4573   -2.6534   -0.3362
% end

% frame   142
% time 142.0000
% report aster:force
%    class  identity      posX      posY    forceX    forceY    torque
         1         1   -6.9754   -0.0007   44.2439    5.9192    0.3382
% end

% frame   143
% time 143.0000
% report aster:force
%    class  identity      posX      posY    forceX    forceY    torque
         1         1   -6.9607   -0.0091   40.3056    3.9782    0.1648
% end

% frame   144
% time 144.0000
% report aster:force
%    class  identity      posX      posY    forceX    forceY    torque
         1         1   -6.9872    0.0005   26.2107    1.5545    0.1362
% end

% frame   145
% time 145.0000
% report aster:force
%    class  identity      posX      posY    forceX    forceY    torque
         1         1   -6.9745   -0.0018   24.7708    1.1166   -0.0829
% end

% frame   146
% time 146.0000
% report aster:force
%    class  identity      posX      posY    forceX    forceY    torque
         1         1   -6.9790   -0.0008   25.4581    3.4437   -0.2105
% end

% frame   147
% time 147.0000
% report aster:force
%    class  identity      posX      posY    forceX    forceY    torque
         1         1   -6.9957    0.0020   18.4839    1.3703   -0.1982
% end

% frame   148
% time 148.0000
% report aster:force
%    class  identity      posX      posY    forceX    forceY    torque
         1         1   -6.9795   -0.0080   38.2454   -2.3654    0.0611
% end

% frame   149
% time 149.0000
% report aster:force
%    class  identity      posX      posY    forceX    forceY    torque
         1         1   -7.0054   -0.0056   17.3533   -0.4484    0.1031
% end

% frame   150
% time 150.0000
% report aster:force
%    class  identity      posX      posY    forceX    forceY    torque
         1         1   -6.9831   -0.0038   21.3724    6.0313   -0.2176
% end

% frame   151
% time 151.0000
% report aster:force
%    class  identity      posX      posY    forceX    forceY    torque
         1         1   -6.9834   -0.0045   28.0844    1.4105    0.1207
% end

% frame   152
% time 152.0000
% report aster:force
%    class  identity      posX      posY    forceX    forceY    torque
         1         1   -6.9876    0.0102   31.3023    0.8376    0.0879
% end

% frame   153
% time 153.0000
% report aster:force
%    class  identity      posX      posY    forceX    forceY    torque
         1         1   -6.9780   -0.0081   41.4593    0.1854    0.1234
% end

% frame   154
% time 154.0000
% report aster:force
%    class  identity      posX      posY    forceX    forceY    torque
         1         1   -6.9778   -0.0011   48.0024   -1.3604   -0.1759
% end

% frame   155
% time 155.0000
% report aster:force
%    class  identity      posX      posY    forceX    forceY    torque
         1         1   -6.9781    0.0027   45.0854   -0.4998   -0.4614
% end

% frame   156
% time 156.0000
% report aster:force
%    class  identity      posX      posY    forceX    forceY    torque
         1         1   -6.9728    0.0044   44.6565  -10.9649   -0.0450
% end

% frame   157
% time 157.0000
% report aster:force
%    class  identity      posX      posY    forceX    forceY    torque
         1         1   -6.9885   -0.0017   46.8284   -7.1229    0.1551
% end

% frame   158
% time 158.0000
% report aster:force
%    class  identity      posX      posY    forceX    forceY    torque
         1         1   -6.9840    0.0004   40.6093    2.9835   -0.6177
% end

% frame   159
% time 159.0000
% report aster:force
%    class  identity      posX      posY    forceX    forceY    torque
         1         1   -6.9803   -0.0076   37.1006   -4.1812   -0.0549
% end

% frame   160
% time 160.0000
% report aster:force
%    class  identity      posX      posY    forceX    forceY    torque
         1         1   -7.0007    0.0007   31.8632   -7.0757    0.0196
% end

% frame   161
% time 161.0000
% report aster:force
%    class  identity      posX      posY    forceX    forceY    torque
         1         1   -6.9913   -0.0027   25.2821    2.5091   -0.0447
% end

% frame   162
% time 162.0000
% report aster:force
%    class  identity      posX      posY    forceX    forceY    torque
         1         1   -6.9924   -0.0031   31.7139   -3.3337   -0.1950
% end

% frame   163
% time 163.0000
% report aster:force
%    class  identity      posX      posY    forceX    forceY    torque
         1         1   -6.9955   -0.0009   35.7256   -5.2890    0.0005
% end

% frame   164
% time 164.0000
% report aster:force
%    class  identity      posX      posY    forceX    forceY    torque
         1         1   -6.9967    0.0061   29.8968   -9.6402   -0.1929
% end

% frame   165
% time 165.0000
% report aster:force
%    class  identity      posX      posY    forceX    forceY    torque
         1         1   -6.9814    0.0013   23.9653  -13.3977    0.0835
% end

% frame   166
% time 166.0000
% report aster:force
%    class  identity      posX      posY    forceX    forceY    torque
         1         1   -6.9689   -0.0079   31.7683   -3.5305   -0.1626
% end

% frame   167
% time 167.0000
% report aster:force
%    class  identity      posX      posY    forceX    forceY    torque
         1         1   -6.9901    0.0037   26.5214    0.8300   -0.3421
% end

% frame   168
% time 168.0000
% report aster:force
%    class  identity      posX      posY    forceX    forceY    torque
         1         1   -6.9866    0.0023   27.1348    0.7733   -0.0834
% end

% frame   169
% time 169.0000
% report aster:force
%    class  identity      posX      posY    forceX    forceY    torque
         1         1   -6.9762    0.0033   26.6600  -10.5259    0.5564
% end

% frame   170
% time 170.0000
% report aster:force
%    class  identity      posX      posY    forceX    forceY    torque
         1         1   -6.9852    0.0082   36.9506  -10.7914   -0.0524
% end

% frame   171
% time 171.0000
% report aster:force
%    class  identity      posX      posY    forceX    forceY    torque
         1         1   -6.9771   -0.0029   39.5642   -4.3717    0.0674
% end

% frame   172
% time 172.0000
% report aster:force
%    class  identity      posX      posY    forceX    forceY    torque
         1         1   -6.9735    0.0016   34.7522    0.3003   -0.1819
% end

% frame   173
% time 173.0000
% report aster:force
%    class  identity      posX      posY    forceX    forceY    torque
         1         1   -6.9900   -0.0043   19.3998   -1.1356    0.1827
% end

% frame   174
% time 174.0000
% report aster:force
%    class  identity      posX      posY    forceX    forceY    torque
         1         1   -6.9982   -0.0023   24.4333    0.3893    0.3736
% end

% frame   175
% time 175.0000
% report aster:force
%    class  identity      posX      posY    forceX    forceY    torque
         1         1   -7.0056    0.0045   24.5968   -1.5821   -0.3755
% end

% frame   176
% time 176.0000
% report aster:force
%    class  identity      posX      posY    forceX    forceY    torque
         1         1   -6.9866   -0.0152   22.7734    2.3324   -0.2436
% end

% frame   177
% time 177.0000
% report aster:force
%    class  identity      posX      posY    forceX    forceY    torque
         1         1   -6.9997    0.0003   24.2456    0.1165    0.0062
% end

% frame   178
% time 178.0000
% report aster:force
%    class  identity      posX      posY    forceX    forceY    torque
         1         1   -6.9616    0.0018   33.5333    3.3370   -0.4044
% end

% frame   179
% time 179.0000
% report aster:force
%    class  identity      posX      posY    forceX    forceY    torque
         1         1   -6.9836    0.0056   30.0398    5.4048   -0.1385
% end

% frame   180
% time 180.0000
% report aster:force
%    class  identity      posX      posY    forceX    forceY    torque
         1         1   -6.9941    0.0098   32.8395    3.6885    0.4885
% end

% frame   181
% time 181.0000
% report aster:force
%    class  identity      posX      posY    forceX    forceY    torque
         1         1   -6.9903   -0.0074   37.3311   -6.7173    0.0430
% end

% frame   182
% time 182.0000
% report aster:force
%    class  identity      posX      posY    forceX    forceY    torque
         1         1   -6.9837    0.0054   28.9687   -7.3582    0.1744
% end

% frame   183
% time 183.0000
% report aster:force
%    class  identity      posX      posY    forceX    forceY    torque
         1         1   -6.9805   -0.0093   30.9860   -4.2268   -0.3900
% end

% frame   184
% time 184.0000
% report aster:force
%    class  identity      posX      posY    forceX    forceY    torque
         1         1   -6.9902    0.0043   31.5427    0.6145    0.6387
% end

% frame   185
% time 185.0000
% report aster:force
%    class  identity      posX      posY    forceX    forceY    torque
         1         1   -6.9985   -0.0134   20.2532   -3.1809    0.2328
% end

% frame   186
% time 186.0000
% report aster:force
%    class  identity      posX      posY    forceX    forceY    torque
         1         1   -6.9916    0.0116   23.3903    4.1271    0.1745
% end

% frame   187
% time 187.0000
% report aster:force
%    class  identity      posX      posY    forceX    forceY    torque
         1         1   -6.9838    0.0076   24.5947    4.9465    0.0612
% end

% frame   188
% time 188.0000
% report aster:force
%    class  identity      posX      posY    forceX    forceY    torque
         1         1   -6.9788   -0.0050   35.0435    1.4406   -0.2743
% end

% frame   189
% time 189.0000
% report aster:force
%    class  identity      posX      posY    forceX    forceY    torque
         1         1   -6.9863   -0.0049   34.2992    3.8483   -0.0192
% end

% frame   190
% time 190.0000
% report aster:force
%    class  identity      posX      posY    forceX    forceY    torque
         1         1   -6.9856    0.0112   35.9886   -0.9868   -0.0480
% end

% frame   191
% time 191.0000
% report aster:force
%    class  identity      posX      posY    forceX    forceY    torque
         1         1   -6.9891   -0.0032   33.5065   -6.6775   -0.4722
% end

% frame   192
% time 192.0000
% report aster:force
%    class  identity      posX      posY    forceX    forceY    torque
         1         1   -6.9972    0.0023   25.8507   -3.8462   -0.2844
% end

% frame   193
% time 193.0000
% report aster:force
%    class  identity      posX      posY    forceX    forceY    torque
         1         1   -6.9718    0.0038   33.4411   -5.5170    0.2317
% end

% frame   194
% time 194.0000
% report aster:force
%    class  identity      posX      posY    forceX    forceY    torque
         1         1   -6.9665   -0.0065   31.1479   12.2291   -0.0361
% end

% frame   195
% time 195.0000
% report aster:force
%    class  identity      posX      posY    forceX    forceY    torque
         1         1   -6.9922    0.0016   25.9042    0.1046   -0.2325
% end

% frame   196
% time 196.0000
% report aster:force
%    class  identity      posX      posY    forceX    forceY    torque
         1         1   -6.9917   -0.0029   31.5091    0.5534   -0.0589
% end

% frame   197
% time 197.0000
% report aster:force
%    class  identity      posX      posY    forceX    forceY    torque
         1         1   -6.9867   -0.0054   33.7665    6.5486   -0.3966
% end

% frame   198
% time 198.0000
% report aster:force
%    class  identity      posX      posY    forceX    forceY    torque
         1         1   -6.9894    0.0041   20.5492   -0.7247   -0.2290
% end

% frame   199
% time 199.0000
% report aster:force
%    class  identity      posX      posY    forceX    forceY    torque
         1         1   -6.9811   -0.0022   24.0035  -10.6062    0.1236
% end

% frame   200
% time 200.0000
% report aster:force
%    class  identity      posX      posY    forceX    forceY    torque
         1         1   -6.9817    0.0060   27.2652   -5.1372   -0.2469
% end

% frame   201
% time 201.0000
% report aster:force
%    class  identity      posX      posY    forceX    forceY    torque
         1         1   -7.0050   -0.0123   18.8798   -7.0345   -0.2815
% end

% frame   202
% time 202.0000
% report aster:force
%    class  identity      posX      posY    forceX    forceY    torque
         1         1   -6.9952   -0.0061   21.5560   -0.2196    0.3228
% end

% frame   203
% time 203.0000
% report aster:force
%    class  identity      posX      posY    forceX    forceY    torque
         1         1   -6.9762   -0.0029   19.8761   -4.3637    0.0060
% end

% frame   204
% time 204.0000
% report aster:force
%    class  identity      posX      posY    forceX    forceY    torque
         1         1   -6.9949   -0.0069   18.2739   -1.6021   -0.0279
% end

% frame   205
% time 205.0000
% report aster:force
%    class  identity      posX      posY    forceX    forceY    torque
         1         1   -7.0016    0.0042   22.9983    2.7341    0.0279
% end

% frame   206
% time 206.0000
% report aster:force
%    class  identity      posX      posY    forceX    forceY    torque
         1         1   -6.9850   -0.0031   30.0002   -0.1062   -0.3298
% end

% frame   207
% time 207.0000
% report aster:force
%    class  identity      posX      posY    forceX    forceY    torque
         1         1   -6.9820    0.0088   30.5470    4.4185    0.3678
% end

% frame   208
% time 208.0000
% report aster:force
%    class  identity      posX      posY    forceX    forceY    torque
         1         1   -6.9979    0.0073   28.8028    3.3361   -0.2264
% end

% frame   209
% time 209.0000
% report aster:force
%    class  identity      posX      posY    forceX    forceY    torque
         1         1   -6.9887   -0.0006   28.4118   -6.5746   -0.1754
% end

% frame   210
% time 210.0000
% report aster:force
%    class  identity      posX      posY    forceX    forceY    torque
         1         1   -6.9906   -0.0066   30.1709   -7.7561    0.0598
% end

% frame   211
% time 211.0000
% report aster:force
%    class  identity      posX      posY    forceX    forceY    torque
         1         1   -6.9717   -0.0071   31.2775    2.5514   -0.2585
% end

% frame   212
% time 212.0000
% report aster:force
%    class  identity      posX      posY    forceX    forceY    torque
         1         1   -6.9745    0.0140   39.9378    4.4457    0.4166
% end

% frame   213
% time 213.0000
% report aster:force
%    class  identity      posX      posY    forceX    forceY    torque
         1         1   -6.9826    0.0083   34.9055   -4.8302   -0.0951
% end

% frame   214
% time 214.0000
% report aster:force
%    class  identity      posX      posY    forceX    forceY    torque
         1         1   -6.9757   -0.0031   41.1530  -10.2347    0.2729
% end

% frame   215
% time 215.0000
% report aster:force
%    class  identity      posX      posY    forceX    forceY    torque
         1         1   -6.9946    0.0095   30.6898    0.9511    0.4240
% end

% frame   216
% time 216.0000
% report aster:force
%    class  identity      posX      posY    forceX    forceY    torque
         1         1   -6.9862    0.0018   33.6029    5.0926   -0.3226
% end

% frame   217
% time 217.0000
% report aster:force
%    class  identity      posX      posY    forceX    forceY    torque
         1         1   -6.9906    0.0071   39.7700    7.1197    0.1530
% end

% frame   218
% time 218.0000
% report aster:force
%    class  identity      posX      posY    forceX    forceY    torque
         1         1   -6.9663   -0.0001   35.8218   -3.9384   -0.0977
% end

% frame   219
% time 219.0000
% report aster:force
%    class  identity      posX      posY    forceX    forceY    torque
         1         1   -6.9743    0.0061   37.8975   -4.1388   -0.1263
% end

% frame   220
% time 220.0000
% report aster:force
%    class  identity      posX      posY    forceX    forceY    torque
         1         1   -6.9921   -0.0041   39.6923   -9.1028    0.1163
% end

% frame   221
% time 221.0000
% report aster:force
%    class  identity      posX      posY    forceX    forceY    torque
         1         1   -6.9935    0.0135   36.9033    1.0236   -0.4022
% end

% frame   222
% time 222.0000
% report aster:force
%    class  identity      posX      posY    forceX    forceY    torque
         1         1   -6.9795    0.0032   31.4304    0.5132    0.2365
% end

% frame   223
% time 223.0000
% report aster:force
%    class  identity      posX      posY    forceX    forceY    torque
         1         1   -6.9708   -0.0016   42.5438   -1.7123    0.0344
% end

% frame   224
% time 224.0000
% report aster:force
%    class  identity      posX      posY    forceX    forceY    torque
         1         1   -6.9893   -0.0029   40.2298    4.6638    0.1030
% end

% frame   225
% time 225.0000
% report aster:force
%    class  identity      posX      posY    forceX    forceY    torque
         1         1   -6.9888   -0.0015   35.4564   13.1680    0.3233
% end

% frame   226
% time 226.0000
% report aster:force
%    class  identity      posX      posY    forceX    forceY    torque
         1         1   -6.9931   -0.0066   38.3614   -2.1433   -0.1291
% end

% frame   227
% time 227.0000
% report aster:force
%    class  identity      posX      posY    forceX    forceY    torque
         1         1   -6.9919   -0.0089   27.2859   -2.9525    0.1611
% end

% frame   228
% time 228.0000
% report aster:force
%    class  identity      posX      posY    forceX    forceY    torque
         1         1   -7.0065   -0.0019   26.9269    8.8111    0.5715
% end

% frame   229
% time 229.0000
% report aster:force
%    class  identity      posX      posY    forceX    forceY    torque
         1         1   -6.9989    0.0003   27.1890    4.7982    0.3420
% end

% frame   230
% time 230.0000
% report aster:force
%    class  identity      posX      posY    forceX    forceY    torque
         1         1   -6.9841   -0.0025   38.9357   -0.7073   -0.2014
% end

% frame   231
% time 231.0000
% report aster:force
%    class  identity      posX      posY    forceX    forceY    torque
         1         1   -6.9884   -0.0056   32.2150    6.1188    0.2126
% end

% frame   232
% time 232.0000
% report aster:force
%    class  identity      posX      posY    forceX    forceY    torque
         1         1   -6.9937   -0.0047   33.5981   -2.0511   -0.1958
% end

% frame   233
% time 233.0000
% report aster:force
%    class  identity      posX      posY    forceX    forceY    torque
         1         1   -6.9912   -0.0065   36.1254   -1.0225    0.4448
% end

% frame   234
% time 234.0000
% report aster:force
%    class  identity      posX      posY    forceX    forceY    torque
         1         1   -6.9971    0.0038   27.6714   -6.9782   -0.0654
% end

% frame   235
% time 235.0000
% report aster:force
%    class  identity      posX      posY    forceX    forceY    torque
         1         1   -6.9869   -0.0009   28.7379    1.7636   -0.2748
% end

% frame   236
% time 236.0000
% report aster:force
%    class  identity      posX      posY    forceX    forceY    torque
         1         1   -6.9837    0.0051   31.5371    2.1569    0.2595
% end

% frame   237
% time 237.0000
% report aster:force
%    class  identity      posX      posY    forceX    forceY    torque
         1         1   -6.9854    0.0055   30.1989    3.6972    0.0493
% end

% frame   238
% time 238.0000
% report aster:force
%    class  identity      posX      posY    forceX    forceY    torque
         1         1   -6.9947   -0.0123   23.3512    3.9775   -0.3286
% end

% frame   239
% time 239.0000
% report aster:force
%    class  identity      posX      posY    forceX    forceY    torque
         1         1   -6.9841   -0.0024   29.1933    5.0408   -0.2545
% end

% frame   240
% time 240.0000
% report aster:force
%    class  identity      posX      posY    forceX    forceY    torque
         1         1   -7.0075   -0.0007   27.3256   -2.8928   -0.1401
% end

% frame   241
% time 241.0000
% report aster:force
%    class  identity      posX      posY    forceX    forceY    torque
         1         1   -6.9771   -0.0046   33.6935   -4.4984   -0.1504
% end

% frame   242
% time 242.0000
% report aster:force
%    class  identity      posX      posY    forceX    forceY    torque
         1         1   -6.9875    0.0004   35.6304   -7.4162    0.0038
% end

% frame   243
% time 243.0000
% report aster:force
%    class  identity      posX      posY    forceX    forceY    torque
         1         1   -6.9937   -0.0117   26.8782   -3.6393    0.0557
% end

% frame   244
% time 244.0000
% report aster:force
%    class  identity      posX      posY    forceX    forceY    torque
         1         1   -6.9769   -0.0083   28.5839   -4.0895   -0.0375
% end

% frame   245
% time 245.0000
% report aster:force
%    class  identity      posX      posY    forceX    forceY    torque
         1         1   -7.0007    0.0058   26.1140   -2.4370    0.2689
% end

% frame   246
% time 246.0000
% report aster:force
%    class  identity      posX      posY    forceX    forceY    torque
         1         1   -6.9802    0.0059   19.6119   -8.4269    0.1891
% end

% frame   247
% time 247.0000
% report aster:force
%    class  identity      posX      posY    forceX    forceY    torque
         1         1   -6.9921    0.0080   21.9966   -7.3213   -0.0058
% end

% frame   248
% time 248.0000
% report aster:force
%    class  identity      posX      posY    forceX    forceY    torque
         1         1   -6.9980   -0.0025   28.0926    8.9009   -0.3458
% end

% frame   249
% time 249.0000
% report aster:force
%    class  identity      posX      posY    forceX    forceY    torque
         1         1   -7.0030   -0.0014   17.6672    2.2302   -0.0710
% end

% frame   250
% time 250.0000
% report aster:force
%    class  identity      posX      posY    forceX    forceY    torque
         1         1   -6.9983   -0.0011   27.6019    9.8921    0.2598
% end

% frame   251
% time 251.0000
% report aster:force
%    class  identity      posX      posY    forceX    forceY    torque
         1         1   -6.9748    0.0001   37.7250   -1.6557    0.1628
% end

% frame   252
% time 252.0000
% report aster:force
%    class  identity      posX      posY    forceX    forceY    torque
         1         1   -6.9585    0.0094   37.9543    3.3678    0.3808
% end

% frame   253
% time 253.0000
% report aster:force
%    class  identity      posX      posY    forceX    forceY    torque
         1         1   -6.9619   -0.0150   50.8640    0.3430    0.0505
% end

% frame   254
% time 254.0000
% report aster:force
%    class  identity      posX      posY    forceX    forceY    torque
         1         1   -6.9796    0.0029   36.8071   -2.5927   -0.2158
% end

% frame   255
% time 255.0000
% report aster:force
%    class  identity      posX      posY    forceX    forceY    torque
         1         1   -6.9763   -0.0100   39.7638    3.0108   -0.0684
% end

% frame   256
% time 256.0000
% report aster:force
%    class  identity      posX      posY    forceX    forceY    torque
         1         1   -6.9873   -0.0061   38.7604    1.4519   -0.2046
% end

% frame   257
% time 257.0000
% report aster:force
%    class  identity      posX      posY    forceX    forceY    torque
         1         1   -6.9784    0.0012   36.8881    2.8365   -0.1303
% end

% frame   258
% time 258.0000
% report aster:force
%    class  identity      posX      posY    forceX    forceY    torque
         1         1   -6.9711   -0.0054   37.1202   -3.7754    0.2474
% end

% frame   259
% time 259.0000
% report aster:force
%    class  identity      posX      posY    forceX    forceY    torque
         1         1   -6.9839    0.0123   35.2007   -1.3511   -0.1141
% end

% frame   260
% time 260.0000
% report aster:force
%    class  identity      posX      posY    forceX    forceY    torque
         1         1   -6.9828   -0.0115   42.1683   -0.9801    0.1057
% end

% frame   261
% time 261.0000
% report aster:force
%    class  identity      posX      posY    forceX    forceY    torque
         1         1   -6.9919   -0.0090   42.5240    2.7935    0.2446
% end

% frame   262
% time 262.0000
% report aster:force
%    class  identity      posX      posY    forceX    forceY    torque
         1         1   -6.9792    0.0033   43.7342    6.1493   -0.1727
% end

% frame   263
% time 263.0000
% report aster:force
%    class  identity      posX      posY    forceX    forceY    torque
         1         1   -6.9811   -0.0080   47.3673    3.5922   -0.2104
% end

% frame   264
% time 264.0000
% report aster:force
%    class  identity      posX      posY    forceX    forceY    torque
         1         1   -6.9637   -0.0050   46.5025    0.1043   -0.0308
% end

% frame   265
% time 265.0000
% report aster:force
%    class  identity      posX      posY    forceX    forceY    torque
         1         1   -6.9705   -0.0124   36.4121   -3.8590   -0.0583
% end

% frame   266
% time 266.0000
% report aster:force
%    class  identity      posX      posY    forceX    forceY    torque
         1         1   -6.9852   -0.0105   29.3077   -5.7141   -0.0615
% end

% frame   267
% time 267.0000
% report aster:force
%    class  identity      posX      posY    forceX    forceY    torque
         1         1   -6.9909    0.0010   25.0435   -2.4531   -0.0716
% end

% frame   268
% time 268.0000
% report aster:force
%    class  identity      posX      posY    forceX    forceY    torque
         1         1   -6.9976    0.0101   26.6610  -12.7285    0.4171
% end

% frame   269
% time 269.0000
% report aster:force
%    class  identity      posX      posY    forceX    forceY    torque
         1         1   -6.9745    0.0050   34.1813  -14.6868   -0.0251
% end

% frame   270
% time 270.0000
% report aster:force
%    class  identity      posX      posY    forceX    forceY    torque
         1         1   -6.9608    0.0048   38.8516   -8.0137   -0.0208
% end

% frame   271
% time 271.0000
% report aster:force
%    class  identity      posX      posY    forceX    forceY    torque
         1         1   -6.9863    0.0073   35.5660   -4.3693   -0.0865
% end

% frame   272
% time 272.0000
% report aster:force
%    class  identity      posX      posY    forceX    forceY    torque
         1         1   -6.9778    0.0032   36.8878   -4.5075   -0.1763
% end

% frame   273
% time 273.0000
% report aster:force
%    class  identity      posX      posY    forceX    forceY    torque
         1         1   -7.0110    0.0044   23.7067   -5.7212    0.1014
% end

% frame   274
% time 274.0000
% report aster:force
%    class  identity      posX      posY    forceX    forceY    torque
         1         1   -6.9918    0.0030   25.3996   -2.8993   -0.3515
% end

% frame   275
% time 275.0000
% report aster:force
%    class  identity      posX      posY    forceX    forceY    torque
         1         1   -6.9863   -0.0095   33.3825   -7.4402    0.0326
% end

% frame   276
% time 276.0000
% report aster:force
%    class  identity      posX      posY    forceX    forceY    torque
         1         1   -6.9890    0.0092   31.1538   -1.0424    0.2264
% end

% frame   277
% time 277.0000
% report aster:force
%    class  identity      posX      posY    forceX    forceY    torque
         1         1   -6.9658   -0.0008   41.0362    2.7973    0.2973
% end

% frame   278
% time 278.0000
% report aster:force
%    class  identity      posX      posY    forceX    forceY    torque
         1         1   -6.9838    0.0152   40.3857   -8.6769    0.2551
% end

% frame   279
% time 279.0000
% report aster:force
%    class  identity      posX      posY    forceX    forceY    torque
         1         1   -6.9804   -0.0036   38.2211   -9.6341   -0.2419
% end

% frame   280
% time 280.0000
% report aster:force
%    class  identity      posX      posY    forceX    forceY    torque
         1         1   -6.9838   -0.0033   30.0337   -2.3179    0.2344
% end

% frame   281
% time 281.0000
% report aster:force
%    class  identity      posX      posY    forceX    forceY    torque
         1         1   -6.9481    0.0031   44.3110    9.9454    0.1795
% end

% frame   282
% time 282.0000
% report aster:force
%    class  identity      posX      posY    forceX    forceY    torque
         1         1   -6.9862   -0.0046   36.4724    0.7978    0.3774
% end

% frame   283
% time 283.0000
% report aster:force
%    class  identity      posX      posY    forceX    forceY    torque
         1         1   -6.9902   -0.0028   32.2060    0.9962   -0.0197
% end

% frame   284
% time 284.0000
% report aster:force
%    class  identity      posX      posY    forceX    forceY    torque
         1         1   -7.0044    0.0064   32.8250    4.5244    0.2048
% end

% frame   285
% time 285.0000
% report aster:force
%    class  identity      posX      posY    forceX    forceY    torque
         1         1   -6.9921    0.0085   43.3098    3.4667    0.2359
% end

% frame   286
% time 286.0000
% report aster:force
%    class  identity      posX      posY    forceX    forceY    torque
         1         1   -6.9906   -0.0086   41.0516   -2.2763   -0.0490
% end

% frame   287
% time 287.0000
% report aster:force
%    class  identity      posX      posY    forceX    forceY    torque
         1         1   -7.0037   -0.0097   42.6067    1.7943    0.1052
% end

% frame   288
% time 288.0000
% report aster:force
%    class  identity      posX      posY    forceX    forceY    torque
         1         1   -6.9866   -0.0041   41.2154   -1.6169   -0.0445
% end

% frame   289
% time 289.0000
% report aster:force
%    class  identity      posX      posY    forceX    forceY    torque
         1         1   -6.9776   -0.0017   49.1553   -1.7312   -0.1668
% end

% frame   290
% time 290.0000
% report aster:force
%    class  identity      posX      posY    forceX    forceY    torque
         1         1   -6.9796   -0.0001   43.0010   -0.7037    0.2089
% end

% frame   291
% time 291.0000
% report aster:force
%    class  identity      posX      posY    forceX    forceY    torque
         1         1   -6.9764    0.0060   41.5535    3.4405    0.4037
% end

% frame   292
% time 292.0000
% report aster:force
%    class  identity      posX      posY    forceX    forceY    torque
         1         1   -6.9851   -0.0029   41.0924    2.9160    0.2828
% end

% frame   293
% time 293.0000
% report aster:force
%    class  identity      posX      posY    forceX    forceY    torque
         1         1   -6.9814   -0.0044   39.1483    1.7203    0.0487
% end

% frame   294
% time 294.0000
% report aster:force
%    class  identity      posX      posY    forceX    forceY    torque
         1         1   -6.9958   -0.0098   27.8066   -2.7769    0.0779
% end

% frame   295
% time 295.0000
% report aster:force
%    class  identity      posX      posY    forceX    forceY    torque
         1         1   -6.9868    0.0057   30.7792   -3.7714   -0.1225
% end

% frame   296
% time 296.0000
% report aster:force
%    class  identity      posX      posY    forceX    forceY    torque
         1         1   -6.9938    0.0030   36.3105  -10.6793    0.3247
% end

% frame   297
% time 297.0000
% report aster:force
%    class  identity      posX      posY    forceX    forceY    torque
         1         1   -6.9939    0.0093   29.7041    0.0638    0.0851
% end

% frame   298
% time 298.0000
% report aster:force
%    class  identity      posX      posY    forceX    forceY    torque
         1         1   -7.0033   -0.0004   35.3665  -11.0793    0.4969
% end

% frame   299
% time 299.0000
% report aster:force
%    class  identity      posX      posY    forceX    forceY    torque
         1         1   -6.9690   -0.0035   31.4831  -13.6172   -0.1397
% end

% frame   300
% time 300.0000
% report aster:force
%    class  identity      posX      posY    forceX    forceY    torque
         1         1   -6.9820   -0.0043   39.8006   -3.9516   -0.1034
% end

% frame   301
% time 301.0000
% report aster:force
%    class  identity      posX      posY    forceX    forceY    torque
         1         1   -6.9727    0.0115   35.7138    4.9216    0.1614
% end

% frame   302
% time 302.0000
% report aster:force
%    class  identity      posX      posY    forceX    forceY    torque
         1         1   -6.9794   -0.0052   32.6325    6.5301    0.0309
% end

% frame   303
% time 303.0000
% report aster:force
%    class  identity      posX      posY    forceX    forceY    torque
         1         1   -6.9539    0.0079   42.9015    5.0723   -0.1247
% end

% frame   304
% time 304.0000
% report aster:force
%    class  identity      posX      posY    forceX    forceY    torque
         1         1   -6.9803    0.0002   43.2600    2.2476   -0.3418
% end

% frame   305
% time 305.0000
% report aster:force
%    class  identity      posX      posY    forceX    forceY    torque
         1         1   -6.9947   -0.0119   37.5122    5.2893   -0.0036
% end

% frame   306
% time 306.0000
% report aster:force
%    class  identity      posX      posY    forceX    forceY    torque
         1         1   -6.9753   -0.0027   38.8569    6.5633    0.1915
% end

% frame   307
% time 307.0000
% report aster:force
%    class  identity      posX      posY    forceX    forceY    torque
         1         1   -6.9760    0.0125   34.7370   -1.1542   -0.0832
% end

% frame   308
% time 308.0000
% report aster:force
%    class  identity      posX      posY    forceX    forceY    torque
         1         1   -6.9696    0.0052   43.2784   -2.6564   -0.1929
% end

% frame   309
% time 309.0000
% report aster:force
%    class  identity      posX      posY    forceX    forceY    torque
         1         1   -6.9860   -0.0064   34.4340  -13.0586    0.2159
% end

% frame   310
% time 310.0000
% report aster:force
%    class  identity      posX      posY    forceX    forceY    torque
         1         1   -6.9850   -0.0048   37.4858   -5.8932   -0.2477
% end

% frame   311
% time 311.0000
% report aster:force
%    class  identity      posX      posY    forceX    forceY    torque
         1         1   -6.9795    0.0054   37.2728   -0.1385   -0.2537
% end

% frame   312
% time 312.0000
% report aster:force
%    class  identity      posX      posY    forceX    forceY    torque
         1         1   -7.0024    0.0019   21.4049    1.7378    0.2121
% end

% frame   313
% time 313.0000
% report aster:force
%    class  identity      posX      posY    forceX    forceY    torque
         1         1   -6.9657    0.0090   37.9235    3.5672    0.1396
% end

% frame   314
% time 314.0000
% report aster:force
%    class  identity      posX      posY    forceX    forceY    torque
         1         1   -7.0012   -0.0081   29.4083   -7.1392    0.1095
% end

% frame   315
% time 315.0000
% report aster:force
%    class  identity      posX      posY    forceX    forceY    torque
         1         1   -6.9831   -0.0026   39.4580   -2.9870   -0.6055
% end

% frame   316
% time 316.0000
% report aster:force
%    class  identity      posX      posY    forceX    forceY    torque
         1         1   -6.9752   -0.0024   32.2903   -3.8306   -0.0882
% end

% frame   317
% time 317.0000
% report aster:force
%    class  identity      posX      posY    forceX    forceY    torque
         1         1   -6.9800    0.0135   40.1681   -1.3191   -0.5186
% end

% frame   318
% time 318.0000
% report aster:force
%    class  identity      posX      posY    forceX    forceY    torque
         1         1   -6.9778    0.0031   41.6463   -4.9453    0.1201
% end

% frame   319
% time 319.0000
% report aster:force
%    class  identity      posX      posY    forceX    forceY    torque
         1         1   -6.9919    0.0070   26.6769   -0.3007    0.0036
% end

% frame   320
% time 320.0000
% report aster:force
%    class  identity      posX      posY    forceX    forceY    torque
         1         1   -6.9785   -0.0069   31.9540   -5.8114   -0.0411
% end

% frame   321
% time 321.0000
% report aster:force
%    class  identity      posX      posY    forceX    forceY    torque
         1         1   -6.9856    0.0033   39.5654   -0.2470    0.0895
% end

% frame   322
% time 322.0000
% report aster:force
%    class  identity      posX      posY    forceX    forceY    torque
         1         1   -6.9875    0.0055   28.6319   -0.8033    0.1273
% end

% frame   323
% time 323.0000
% report aster:force
%    class  identity      posX      posY    forceX    forceY    torque
         1         1   -6.9807   -0.0060   30.0341    5.2712   -0.0575
% end

% frame   324
% time 324.0000
% report aster:force
%    class  identity      posX      posY    forceX    forceY    torque
         1         1   -6.9932   -0.0033   34.9880   -2.3879   -0.1782
% end

% frame   325
% time 325.0000
% report aster:force
%    class  identity      posX      posY    forceX    forceY    torque
         1         1   -6.9838    0.0001   36.9471   -1.8564    0.2783
% end

% frame   326
% time 326.0000
% report aster:force
%    class  identity      posX      posY    forceX    forceY    torque
         1         1   -6.9888    0.0037   25.0548   -5.5336   -0.2740
% end

% frame   327
% time 327.0000
% report aster:force
%    class  identity      posX      posY    forceX    forceY    torque
         1         1   -6.9838   -0.0023   32.3799   -8.4055    0.0048
% end

% frame   328
% time 328.0000
% report aster:force
%    class  identity      posX      posY    forceX    forceY    torque
         1         1   -6.9923    0.0003   33.0024   -4.2032   -0.2451
% end

% frame   329
% time 329.0000
% report aster:force
%    class  identity      posX      posY    forceX    forceY    torque
         1         1   -6.9928    0.0035   34.6950   -6.1173   -0.0523
% end

% frame   330
% time 330.0000
% report aster:force
%    class  identity      posX      posY    forceX    forceY    torque
         1         1   -7.0013    0.0048   28.5056   -7.5234   -0.2093
% end

% frame   331
% time 331.0000
% report aster:force
%    class  identity      posX      posY    forceX    forceY    torque
         1         1   -7.0158   -0.0088   27.7630   -4.3384   -0.4877
% end

% frame   332
% time 332.0000
% report aster:force
%    class  identity      posX      posY    forceX    forceY    torque
         1         1   -7.0038    0.0035   36.1085   -6.1206    0.1484
% end

% frame   333
% time 333.0000
% report aster:force
%    class  identity      posX      posY    forceX    forceY    torque
         1         1   -6.9835   -0.0050   35.4849    0.2190   -0.2771
% end

% frame   334
% time 334.0000
% report aster:force
%    class  identity      posX      posY    forceX    forceY    torque
         1         1   -6.9905   -0.0004   43.9577    4.5044   -0.0153
% end

% frame   335
% time 335.0000
% report aster:force
%    class  identity      posX      posY    forceX    forceY    torque
         1         1   -6.9971    0.0060   41.8071   -3.6830   -0.4867
% end

% frame   336
% time 336.0000
% report aster:force
%    class  identity      posX      posY    forceX    forceY    torque
         1         1   -6.9979    0.0028   35.3863   -3.2272    0.3486
% end

% frame   337
% time 337.0000
% report aster:force
%    class  identity      posX      posY    forceX    forceY    torque
         1         1   -6.9748   -0.0012   39.2968   -4.4738   -0.1816
% end

% frame   338
% time 338.0000
% report aster:force
%    class  identity      posX      posY    forceX    forceY    torque
         1         1   -6.9981    0.0127   37.4562    1.8807   -0.0247
% end

% frame   339
% time 339.0000
% report aster:force
%    class  identity      posX      posY    forceX    forceY    torque
         1         1   -6.9815   -0.0079   43.8600   -4.3870    0.0557
% end

% frame   340
% time 340.0000
% report aster:force
%    class  identity      posX      posY    forceX    forceY    torque
         1         1   -6.9626    0.0026   40.6316    3.4036    0.0212
% end

% frame   341
% time 341.0000
% report aster:force
%    class  identity      posX      posY    forceX    forceY    torque
         1         1   -6.9924    0.0040   33.7770    8.3520   -0.0911
% end

% frame   342
% time 342.0000
% report aster:force
%    class  identity      posX      posY    forceX    forceY    torque
         1         1   -6.9946   -0.0048   32.1172   -0.9510    0.2933
% end

% frame   343
% time 343.0000
% report aster:force
%    class  identity      posX      posY    forceX    forceY    torque
         1         1   -6.9974   -0.0064   30.0959   -1.7431   -0.2477
% end

% frame   344
% time 344.0000
% report aster:force
%    class  identity      posX      posY    forceX    forceY    torque
         1         1   -6.9894    0.0018   39.5804   -7.9343   -0.0316
% end

% frame   345
% time 345.0000
% report aster:force
%    class  identity      posX      posY    forceX    forceY    torque
         1         1   -6.9859   -0.0007   32.6446    1.2222   -0.0896
% end

% frame   346
% time 346.0000
% report aster:force
%    class  identity      posX      posY    forceX    forceY    torque
         1         1   -6.9921   -0.0013   35.8568   -5.3251    0.0328
% end

% frame   347
% time 347.0000
% report aster:force
%    class  identity      posX      posY    forceX    forceY    torque
         1         1   -6.9930    0.0088   34.0352   -4.8624   -0.1712
% end

% frame   348
% time 348.0000
% report aster:force
%    class  identity      posX      posY    forceX    forceY    torque
         1         1   -6.9800    0.0080   42.7503   -4.2207   -0.2354
% end

% frame   349
% time 349.0000
% report aster:force
%    class  identity      posX      posY    forceX    forceY    torque
         1         1   -6.9808    0.0033   36.0347  -10.0450    0.0373
% end

% frame   350
% time 350.0000
% report aster:force
%    class  identity      posX      posY    forceX    forceY    torque
         1         1   -6.9854    0.0184   34.9743   -5.1087    0.1827
% end

% frame   351
% time 351.0000
% report aster:force
%    class  identity      posX      posY    forceX    forceY    torque
         1         1   -6.9859    0.0082   28.5758   -7.0570   -0.1328
% end

% frame   352
% time 352.0000
% report aster:force
%    class  identity      posX      posY    forceX    forceY    torque
         1         1   -6.9810   -0.0077   35.4524   -0.5032   -0.1291
% end

% frame   353
% time 353.0000
% report aster:force
%    class  identity      posX      posY    forceX    forceY    torque
         1         1   -6.9967    0.0103   41.3534    1.4360    0.0369
% end

% frame   354
% time 354.0000
% report aster:force
%    class  identity      posX      posY    forceX    forceY    torque
         1         1   -7.0030   -0.0037   31.4575    5.1680   -0.1774
% end

% frame   355
% time 355.0000
% report aster:force
%    class  identity      posX      posY    forceX    forceY    torque
         1         1   -6.9892   -0.0004   27.5538    6.7420    0.2204
% end

% frame   356
% time 356.0000
% report aster:force
%    class  identity      posX      posY    forceX    forceY    torque
         1         1   -6.9929   -0.0062   28.5634    0.6543   -0.0519
% end

% frame   357
% time 357.0000
% report aster:force
%    class  identity      posX      posY    forceX    forceY    torque
         1         1   -6.9977    0.0023   19.3738   -5.8952   -0.2329
% end

% frame   358
% time 358.0000
% report aster:force
%    class  identity      posX      posY    forceX    forceY    torque
         1         1   -6.9792   -0.0054   19.3465   -6.4344   -0.2631
% end

% frame   359
% time 359.0000
% report aster:force
%    class  identity      posX      posY    forceX    forceY    torque
         1         1   -6.9904   -0.0013   26.7380    3.9439    0.3264
% end

% frame   360
% time 360.0000
% report aster:force
%    class  identity      posX      posY    forceX    forceY    torque
         1         1   -6.9808   -0.0180   33.8237    4.3004   -0.2824
% end

% frame   361
% time 361.0000
% report aster:force
%    class  identity      posX      posY    forceX    forceY    torque
         1         1   -6.9840   -0.0095   30.6659   15.4771   -0.3496
% end

% frame   362
% time 362.0000
% report aster:force
%    class  identity      posX      posY    forceX    forceY    torque
         1         1   -6.9857   -0.0182   23.5866   -1.8547   -0.1595
% end

% frame   363
% time 363.0000
% report aster:force
%    class  identity      posX      posY    forceX    forceY    torque
         1         1   -6.9841    0.0065   25.2189   -7.7827   -0.0774
% end

% frame   364
% time 364.0000
% report aster:force
%    class  identity      posX      posY    forceX    forceY    torque
         1         1   -7.0079   -0.0024   22.6476   -3.3517    0.0149
% end

% frame   365
% time 365.0000
% report aster:force
%    class  identity      posX      posY    forceX    forceY    torque
         1         1   -6.9849   -0.0021   27.5960    0.3792   -0.0889
% end

% frame   366
% time 366.0000
% report aster:force
%    class  identity      posX      posY    forceX    forceY    torque
         1         1   -6.9833    0.0030   32.3242   -7.1448    0.1371
% end

% frame   367
% time 367.0000
% report aster:force
%    class  identity      posX      posY    forceX    forceY    torque
         1         1   -6.9816    0.0053   40.9889   -9.8633    0.0603
% end

% frame   368
% time 368.0000
% report aster:force
%    class  identity      posX      posY    forceX    forceY    torque
         1         1   -6.9755    0.0039   33.4254    4.6036   -0.0483
% end

% frame   369
% time 369.0000
% report aster:force
%    class  identity      posX      posY    forceX    forceY    torque
         1         1   -6.9635    0.0049   38.7628   -2.9327   -0.2780
% end

% frame   370
% time 370.0000
% report aster:force
%    class  identity      posX      posY    forceX    forceY    torque
         1         1   -6.9860    0.0062   35.1985    4.9989   -0.0796
% end

% frame   371
% time 371.0000
% report aster:force
%    class  identity      posX      posY    forceX    forceY    torque
         1         1   -7.0028   -0.0035   31.5339    1.1103    0.3944
% end

% frame   372
% time 372.0000
% report aster:force
%    class  identity      posX      posY    forceX    forceY    torque
         1         1   -6.9932   -0.0072   37.0175   -3.1537    0.2857
% end

% frame   373
% time 373.0000
% report aster:force
%    class  identity      posX      posY    forceX    forceY    torque
         1         1   -6.9722   -0.0093   38.0021   -2.6849   -0.1211
% end

% frame   374
% time 374.0000
% report aster:force
%    class  identity      posX      posY    forceX    forceY    torque
         1         1   -6.9866   -0.0104   32.0874    7.3775   -0.0554
% end

% frame   375
% time 375.0000
% report aster:force
%    class  identity      posX      posY    forceX    forceY    torque
         1         1   -6.9851    0.0011   32.2536    7.8455   -0.4545
% end

% frame   376
% time 376.0000
% report aster:force
%    class  identity      posX      posY    forceX    forceY    torque
         1         1   -6.9948    0.0055   29.1624    2.1093   -0.1615
% end

% frame   377
% time 377.0000
% report aster:force
%    class  identity      posX      posY    forceX    forceY    torque
         1         1   -6.9855    0.0032   26.3434    2.1229    0.0448
% end

% frame   378
% time 378.0000
% report aster:force
%    class  identity      posX      posY    forceX    forceY    torque
         1         1   -6.9895    0.0118   35.6471    6.1245    0.1050
% end

% frame   379
% time 379.0000
% report aster:force
%    class  identity      posX      posY    forceX    forceY    torque
         1         1   -6.9711    0.0036   45.4256    4.0873    0.3018
% end

% frame   380
% time 380.0000
% report aster:force
%    class  identity      posX      posY    forceX    forceY    torque
         1         1   -6.9770    0.0060   46.9386   -2.0058    0.4505
% end

% frame   381
% time 381.0000
% report aster:force
%    class  identity      posX      posY    forceX    forceY    torque
         1         1   -6.9821    0.0140   34.7612    5.1373    0.1863
% end

% frame   382
% time 382.0000
% report aster:force
%    class  identity      posX      posY    forceX    forceY    torque
         1         1   -6.9893   -0.0122   36.9930    0.1723    0.0676
% end

% frame   383
% time 383.0000
% report aster:force
%    class  identity      posX      posY    forceX    forceY    torque
         1         1   -6.9873    0.0182   35.9887    6.7832    0.1975
% end

% frame   384
% time 384.0000
% report aster:force
%    class  identity      posX      posY    forceX    forceY    torque
         1         1   -6.9851   -0.0007   33.9022   -1.8651   -0.0995
% end

% frame   385
% time 385.0000
% report aster:force
%    class  identity      posX      posY    forceX    forceY    torque
         1         1   -6.9681   -0.0041   30.5418   -2.0921    0.0642
% end

% frame   386
% time 386.0000
% report aster:force
%    class  identity      posX      posY    forceX    forceY    torque
         1         1   -6.9860    0.0053   19.5663    3.4921    0.1738
% end

% frame   387
% time 387.0000
% report aster:force
%    class  identity      posX      posY    forceX    forceY    torque
         1         1   -6.9932    0.0051   18.7104   -0.5860    0.0358
% end

% frame   388
% time 388.0000
% report aster:force
%    class  identity      posX      posY    forceX    forceY    torque
         1         1   -6.9867   -0.0007   21.0567   -9.5868    0.4061
% end

% frame   389
% time 389.0000
% report aster:force
%    class  identity      posX      posY    forceX    forceY    torque
         1         1   -6.9901   -0.0012   24.8773   -0.4923    0.0512
% end

% frame   390
% time 390.0000
% report aster:force
%    class  identity      posX      posY    forceX    forceY    torque
         1         1   -6.9818    0.0074   32.8868    5.8466   -0.0495
% end

% frame   391
% time 391.0000
% report aster:force
%    class  identity      posX      posY    forceX    forceY    torque
         1         1   -6.9871   -0.0092   36.4151   -7.3881   -0.2887
% end

% frame   392
% time 392.0000
% report aster:force
%    class  identity      posX      posY    forceX    forceY    torque
         1         1   -6.9782    0.0133   42.2361    1.9900    0.0165
% end

% frame   393
% time 393.0000
% report aster:force
%    class  identity      posX      posY    forceX    forceY    torque
         1         1   -6.9635    0.0057   46.6782    5.3908    0.0512
% end

% frame   394
% time 394.0000
% report aster:force
%    class  identity      posX      posY    forceX    forceY    torque
         1         1   -6.9924   -0.0036   42.0843    0.8589    0.2078
% end

% frame   395
% time 395.0000
% report aster:force
%    class  identity      posX      posY    forceX    forceY    torque
         1         1   -6.9623   -0.0055   40.8689   -7.4296   -0.3831
% end

% frame   396
% time 396.0000
% report aster:force
%    class  identity      posX      posY    forceX    forceY    torque
         1         1   -6.9988    0.0069   34.3518    1.2898   -0.0268
% end

% frame   397
% time 397.0000
% report aster:force
%    class  identity      posX      posY    forceX    forceY    torque
         1         1   -6.9788    0.0035   33.1492   -5.5810   -0.2625
% end

% frame   398
% time 398.0000
% report aster:force
%    class  identity      posX      posY    forceX    forceY    torque
         1         1   -6.9921    0.0189   29.6865    0.5244    0.2291
% end

% frame   399
% time 399.0000
% report aster:force
%    class  identity      posX      posY    forceX    forceY    torque
         1         1   -6.9972   -0.0002   32.1079    6.2799   -0.0591
% end

% frame   400
% time 400.0000
% report aster:force
%    class  identity      posX      posY    forceX    forceY    torque
         1         1   -6.9805   -0.0070   37.9505    6.4866    0.3887
% end

% frame   401
% time 401.0000
% report aster:force
%    class  identity      posX      posY    forceX    forceY    torque
         1         1   -6.9670   -0.0090   43.8038    9.0392    0.2811
% end

% frame   402
% time 402.0000
% report aster:force
%    class  identity      posX      posY    forceX    forceY    torque
         1         1   -6.9842   -0.0022   41.8658    3.3403    0.1055
% end

% frame   403
% time 403.0000
% report aster:force
%    class  identity      posX      posY    forceX    forceY    torque
         1         1   -6.9942    0.0050   40.6884    4.1109   -0.3774
% end

% frame   404
% time 404.0000
% report aster:force
%    class  identity      posX      posY    forceX    forceY    torque
         1         1   -6.9829   -0.0060   38.3503    1.3951   -0.1255
% end

% frame   405
% time 405.0000
% report aster:force
%    class  identity      posX      posY    forceX    forceY    torque
         1         1   -6.9791   -0.0022   25.2170    0.6599    0.0313
% end

% frame   406
% time 406.0000
% report aster:force
%    class  identity      posX      posY    forceX    forceY    torque
         1         1   -6.9737   -0.0036   38.2307   -7.5650   -0.0108
% end

% frame   407
% time 407.0000
% report aster:force
%    class  identity      posX      posY    forceX    forceY    torque
         1         1   -6.9726    0.0048   37.1676   -3.7565   -0.2766
% end

% frame   408
% time 408.0000
% report aster:force
%    class  identity      posX      posY    forceX    forceY    torque
         1         1   -6.9904    0.0003   24.3769    2.8948   -0.3749
% end

% frame   409
% time 409.0000
% report aster:force
%    class  identity      posX      posY    forceX    forceY    torque
         1         1   -6.9969    0.0063   10.8197    0.9792    0.2941
% end

% frame   410
% time 410.0000
% report aster:force
%    class  identity      posX      posY    forceX    forceY    torque
         1         1   -7.0045    0.0157   20.1485   -2.4408    0.3096
% end

% frame   411
% time 411.0000
% report aster:force
%    class  identity      posX      posY    forceX    forceY    torque
         1         1   -6.9907    0.0114   34.7972    2.3266   -0.1702
% end

% frame   412
% time 412.0000
% report aster:force
%    class  identity      posX      posY    forceX    forceY    torque
         1         1   -6.9878    0.0072   37.5612    0.8577    0.3031
% end

% frame   413
% time 413.0000
% report aster:force
%    class  identity      posX      posY    forceX    forceY    torque
         1         1   -6.9656    0.0016   37.4222    3.2980   -0.2478
% end

% frame   414
% time 414.0000
% report aster:force
%    class  identity      posX      posY    forceX    forceY    torque
         1         1   -6.9948    0.0007   32.3232    0.6902   -0.3394
% end

% frame   415
% time 415.0000
% report aster:force
%    class  identity      posX      posY    forceX    forceY    torque
         1         1   -6.9905    0.0019   29.7828    3.0603    0.0165
% end

% frame   416
% time 416.0000
% report aster:force
%    class  identity      posX      posY    forceX    forceY    torque
         1         1   -6.9867    0.0010   23.0297   -0.5372   -0.0684
% end

% frame   417
% time 417.0000
% report aster:force
%    class  identity      posX      posY    forceX    forceY    torque
         1         1   -7.0093    0.0074   26.7897   -3.7806    0.0507
% end

% frame   418
% time 418.0000
% report aster:force
%    class  identity      posX      posY    forceX    forceY    torque
         1         1   -6.9948    0.0100   32.9902   -4.7188   -0.2178
% end

% frame   419
% time 419.0000
% report aster:force
%    class  identity      posX      posY    forceX    forceY    torque
         1         1   -6.9791    0.0039   40.2274   -5.7747    0.5284
% end

% frame   420
% time 420.0000
% report aster:force
%    class  identity      posX      posY    forceX    forceY    torque
         1         1   -6.9785    0.0001   43.6929  -10.0979    0.1934
% end

% frame   421
% time 421.0000
% report aster:force
%    class  identity      posX      posY    forceX    forceY    torque
         1         1   -6.9820    0.0078   44.4691   -5.8760   -0.1892
% end

% frame   422
% time 422.0000
% report aster:force
%    class  identity      posX      posY    forceX    forceY    torque
         1         1   -6.9874   -0.0093   40.0939   -2.3653    0.2165
% end

% frame   423
% time 423.0000
% report aster:force
%    class  identity      posX      posY    forceX    forceY    torque
         1         1   -7.0010    0.0051   23.4069    2.6822    0.0575
% end

% frame   424
% time 424.0000
% report aster:force
%    class  identity      posX      posY    forceX    forceY    torque
         1         1   -7.0036   -0.0138   38.4663   -3.8140    0.1228
% end

% frame   425
% time 425.0000
% report aster:force
%    class  identity      posX      posY    forceX    forceY    torque
         1         1   -6.9927    0.0005   42.1676   10.9339    0.3066
% end

% frame   426
% time 426.0000
% report aster:force
%    class  identity      posX      posY    forceX    forceY    torque
         1         1   -6.9852    0.0102   44.5909    5.0768    0.0113
% end

% frame   427
% time 427.0000
% report aster:force
%    class  identity      posX      posY    forceX    forceY    torque
         1         1   -6.9838   -0.0061   44.3825    4.7354   -0.4276
% end

% frame   428
% time 428.0000
% report aster:force
%    class  identity      posX      posY    forceX    forceY    torque
         1         1   -7.0047   -0.0023   39.1474    7.2207   -0.2906
% end

% frame   429
% time 429.0000
% report aster:force
%    class  identity      posX      posY    forceX    forceY    torque
         1         1   -7.0043   -0.0053   42.6904   -0.7319   -0.0233
% end

% frame   430
% time 430.0000
% report aster:force
%    class  identity      posX      posY    forceX    forceY    torque
         1         1   -6.9969   -0.0061   39.6318  -14.1957   -0.1461
% end

% frame   431
% time 431.0000
% report aster:force
%    class  identity      posX      posY    forceX    forceY    torque
         1         1   -6.9823   -0.0000   37.1377   -9.1742   -0.6496
% end

% frame   432
% time 432.0000
% report aster:force
%    class  identity      posX      posY    forceX    forceY    torque
         1         1   -6.9747    0.0053   41.5515   -5.1392    0.1016
% end

% frame   433
% time 433.0000
% report aster:force
%    class  identity      posX      posY    forceX    forceY    torque
         1         1   -6.9961   -0.0097   39.5430    1.2845   -0.1804
% end

% frame   434
% time 434.0000
% report aster:force
%    class  identity      posX      posY    forceX    forceY    torque
         1         1   -6.9695    0.0096   42.5146   -7.7208    0.1774
% end

% frame   435
% time 435.0000
% report aster:force
%    class  identity      posX      posY    forceX    forceY    torque
         1         1   -6.9774    0.0100   33.6706   -6.8292   -0.0538
% end

% frame   436
% time 436.0000
% report aster:force
%    class  identity      posX      posY    forceX    forceY    torque
         1         1   -6.9859   -0.0003   35.0373   -0.8933   -0.0806
% end

% frame   437
% time 437.0000
% report aster:force
%    class  identity      posX      posY    forceX    forceY    torque
         1         1   -6.9769    0.0009   47.8203    3.9277    0.2766
% end

% frame   438
% time 438.0000
% report aster:force
%    class  identity      posX      posY    forceX    forceY    torque
         1         1   -6.9999   -0.0055   35.8998   -5.9140   -0.1269
% end

% frame   439
% time 439.0000
% report aster:force
%    class  identity      posX      posY    forceX    forceY    torque
         1         1   -7.0087   -0.0025   30.5371  -10.3506   -0.0963
% end

% frame   440
% time 440.0000
% report aster:force
%    class  identity      posX      posY    forceX    forceY    torque
         1         1   -6.9920    0.0064   36.3752    4.4658   -0.0205
% end

% frame   441
% time 441.0000
% report aster:force
%    class  identity      posX      posY    forceX    forceY    torque
         1         1   -6.9923   -0.0087   42.5652   -7.6617   -0.0123
% end

% frame   442
% time 442.0000
% report aster:force
%    class  identity      posX      posY    forceX    forceY    torque
         1         1   -6.9743    0.0004   40.8635   -5.4549   -0.1643
% end

% frame   443
% time 443.0000
% report aster:force
%    class  identity      posX      posY    forceX    forceY    torque
         1         1   -6.9735   -0.0045   53.3083   -0.8655   -0.0292
% end

% frame   444
% time 444.0000
% report aster:force
%    class  identity      posX      posY    forceX    forceY    torque
         1         1   -6.9787    0.0035   51.1613    1.9913   -0.0535
% end

% frame   445
% time 445.0000
% report aster:force
%    class  identity      posX      posY    forceX    forceY    torque
         1         1   -6.9741   -0.0011   56.9307   -6.8561    0.0989
% end

% frame   446
% time 446.0000
% report aster:force
%    class  identity      posX      posY    forceX    forceY    torque
         1         1   -6.9721   -0.0038   56.7985   -2.1055    0.4273
% end

% frame   447
% time 447.0000
% report aster:force
%    class  identity      posX      posY    forceX    forceY    torque
         1         1   -6.9690   -0.0042   45.9146    9.6115   -0.2563
% end

% frame   448
% time 448.0000
% report aster:force
%    class  identity      posX      posY    forceX    forceY    torque
         1         1   -6.9943    0.0046   34.6290    1.3748   -0.2441
% end

% frame   449
% time 449.0000
% report aster:force
%    class  identity      posX      posY    forceX    forceY    torque
         1         1   -6.9783   -0.0049   44.6137   -5.3610   -0.1690
% end

% frame   450
% time 450.0000
% report aster:force
%    class  identity      posX      posY    forceX    forceY    torque
         1         1   -6.9780    0.0005   48.1954   -0.1397    0.3216
% end

% frame   451
% time 451.0000
% report aster:force
%    class  identity      posX      posY    forceX    forceY    torque
         1         1   -6.9696   -0.0075   34.8763   -6.9532   -0.1670
% end

% frame   452
% time 452.0000
% report aster:force
%    class  identity      posX      posY    forceX    forceY    torque
         1         1   -7.0016   -0.0019   24.2065   -3.6284   -0.1223
% end

% frame   453
% time 453.0000
% report aster:force
%    class  identity      posX      posY    forceX    forceY    torque
         1         1   -6.9886   -0.0006   35.8781   -6.0203   -0.2072
% end

% frame   454
% time 454.0000
% report aster:force
%    class  identity      posX      posY    forceX    forceY    torque
         1         1   -6.9943   -0.0015   27.0845   -0.1661    0.0630
% end

% frame   455
% time 455.0000
% report aster:force
%    class  identity      posX      posY    forceX    forceY    torque
         1         1   -6.9892    0.0027   29.2877    7.6747   -0.0151
% end

% frame   456
% time 456.0000
% report aster:force
%    class  identity      posX      posY    forceX    forceY    torque
         1         1   -6.9889    0.0000   26.9629   -0.4719   -0.1721
% end

% frame   457
% time 457.0000
% report aster:force
%    class  identity      posX      posY    forceX    forceY    torque
         1         1   -6.9912   -0.0012   27.8902   -3.9402   -0.0767
% end

% frame   458
% time 458.0000
% report aster:force
%    class  identity      posX      posY    forceX    forceY    torque
         1         1   -6.9992    0.0062   27.5408    6.9990    0.0935
% end

% frame   459
% time 459.0000
% report aster:force
%    class  identity      posX      posY    forceX    forceY    torque
         1         1   -6.9747   -0.0079   23.4463    4.7930    0.1731
% end

% frame   460
% time 460.0000
% report aster:force
%    class  identity      posX      posY    forceX    forceY    torque
         1         1   -6.9802   -0.0029   32.7102   -0.8000   -0.1678
% end

% frame   461
% time 461.0000
% report aster:force
%    class  identity      posX      posY    forceX    forceY    torque
         1         1   -7.0129    0.0084   25.2437    5.2983    0.3123
% end

% frame   462
% time 462.0000
% report aster:force
%    class  identity      posX      posY    forceX    forceY    torque
         1         1   -6.9600   -0.0058   40.3423    3.0545   -0.0165
% end

% frame   463
% time 463.0000
% report aster:force
%    class  identity      posX      posY    forceX    forceY    torque
         1         1   -6.9646   -0.0086   43.8445    7.2269   -0.3054
% end

% frame   464
% time 464.0000
% report aster:force
%    class  identity      posX      posY    forceX    forceY    torque
         1         1   -6.9888    0.0023   31.6596   11.2065    0.0088
% end

% frame   465
% time 465.0000
% report aster:force
%    class  identity      posX      posY    forceX    forceY    torque
         1         1   -6.9855   -0.0022   23.6590    3.5842   -0.0437
% end

% frame   466
% time 466.0000
% report aster:force
%    class  identity      posX      posY    forceX    forceY    torque
         1         1   -6.9828   -0.0084   23.5354    1.0555    0.1837
% end

% frame   467
% time 467.0000
% report aster:force
%    class  identity      posX      posY    forceX    forceY    torque
         1         1   -6.9792   -0.0077   32.2155    6.7315   -0.0120
% end

% frame   468
% time 468.0000
% report aster:force
%    class  identity      posX      posY    forceX    forceY    torque
         1         1   -6.9624   -0.0086   36.9899    5.2389    0.3020
% end

% frame   469
% time 469.0000
% report aster:force
%    class  identity      posX      posY    forceX    forceY    torque
         1         1   -6.9684    0.0050   32.6672    3.8395    0.3785
% end

% frame   470
% time 470.0000
% report aster:force
%    class  identity      posX      posY    forceX    forceY    torque
         1         1   -6.9836   -0.0018   32.6344    6.2867   -0.5512
% end

% frame   471
% time 471.0000
% report aster:force
%    class  identity      posX      posY    forceX    forceY    torque
         1         1   -6.9976    0.0074   23.0871    2.8957    0.0483
% end

% frame   472
% time 472.0000
% report aster:force
%    class  identity      posX      posY    forceX    forceY    torque
         1         1   -6.9889    0.0039   26.9244    7.2201   -0.0664
% end

% frame   473
% time 473.0000
% report aster:force
%    class  identity      posX      posY    forceX    forceY    torque
         1         1   -6.9774    0.0009   23.7616    5.8072   -0.2559
% end

% frame   474
% time 474.0000
% report aster:force
%    class  identity      posX      posY    forceX    forceY    torque
         1         1   -6.9867   -0.0036   20.2294    9.8330    0.2179
% end

% frame   475
% time 475.0000
% report aster:force
%    class  identity      posX      posY    forceX    forceY    torque
         1         1   -6.9950    0.0038   22.6519    6.2898   -0.1418
% end

% frame   476
% time 476.0000
% report aster:force
%    class  identity      posX      posY    forceX    forceY    torque
         1         1   -6.9901    0.0021   29.4555   -2.0617   -0.0683
% end

% frame   477
% time 477.0000
% report aster:force
%    class  identity      posX      posY    forceX    forceY    torque
         1         1   -6.9776    0.0163   27.1120    0.0173   -0.0793
% end

% frame   478
% time 478.0000
% report aster:force
%    class  identity      posX      posY    forceX    forceY    torque
         1         1   -6.9800   -0.0021   23.3622   -0.4816    0.1872
% end

% frame   479
% time 479.0000
% report aster:force
%    class  identity      posX      posY    forceX    forceY    torque
         1         1   -6.9657   -0.0087   29.2184   -0.0303   -0.1997
% end

% frame   480
% time 480.0000
% report aster:force
%    class  identity      posX      posY    forceX    forceY    torque
         1         1   -6.9735   -0.0020   28.5273    0.1829   -0.5055
% end

% frame   481
% time 481.0000
% report aster:force
%    class  identity      posX      posY    forceX    forceY    torque
         1         1   -6.9824    0.0002   26.7195    4.0388    0.3016
% end

% frame   482
% time 482.0000
% report aster:force
%    class  identity      posX      posY    forceX    forceY    torque
         1         1   -6.9871   -0.0095   28.2799    5.8564   -0.2847
% end

% frame   483
% time 483.0000
% report aster:force
%    class  identity      posX      posY    forceX    forceY    torque
         1         1   -6.9904   -0.0139   33.6063    3.9250   -0.1867
% end

% frame   484
% time 484.0000
% report aster:force
%    class  identity      posX      posY    forceX    forceY    torque
         1         1   -7.0016    0.0040   31.9546   -2.0739   -0.6540
% end

% frame   485
% time 485.0000
% report aster:force
%    class  identity      posX      posY    forceX    forceY    torque
         1         1   -6.9744    0.0049   34.0062    1.0435    0.3209
% end

% frame   486
% time 486.0000
% report aster:force
%    class  identity      posX      posY    forceX    forceY    torque
         1         1   -6.9756    0.0055   38.3303   -0.9209   -0.3048
% end

% frame   487
% time 487.0000
% report aster:force
%    class  identity      posX      posY    forceX    forceY    torque
         1         1   -7.0004    0.0069   22.2575   -5.5723   -0.1159
% end

% frame   488
% time 488.0000
% report aster:force
%    class  identity      posX      posY    forceX    forceY    torque
         1         1   -6.9851   -0.0105   32.4632   -6.5668   -0.2006
% end

% frame   489
% time 489.0000
% report aster:force
%    class  identity      posX      posY    forceX    forceY    torque
         1         1   -6.9851    0.0040   30.4900   -1.3389    0.2022
% end

% frame   490
% time 490.0000
% report aster:force
%    class  identity      posX      posY    forceX    forceY    torque
         1         1   -6.9845   -0.0006   32.2325   -8.9570    0.2811
% end

% frame   491
% time 491.0000
% report aster:force
%    class  identity      posX      posY    forceX    forceY    torque
         1         1   -6.9753    0.0101   41.4582  -10.1676    0.4189
% end

% frame   492
% time 492.0000
% report aster:force
%    class  identity      posX      posY    forceX    forceY    torque
         1         1   -6.9768    0.0063   44.0494   -5.5897   -0.1799
% end

% frame   493
% time 493.0000
% report aster:force
%    class  identity      posX      posY    forceX    forceY    torque
         1         1   -6.9646    0.0032   48.7589   -3.4174   -0.2997
% end

% frame   494
% time 494.0000
% report aster:force
%    class  identity      posX      posY    forceX    forceY    torque
         1         1   -6.9857    0.0052   37.3976    1.8265    0.2957
% end

% frame   495
% time 495.0000
% report aster:force
%    class  identity      posX      posY    forceX    forceY    torque
         1         1   -6.9868    0.0013   32.1779    6.0309    0.3038
% end

% frame   496
% time 496.0000
% report aster:force
%    class  identity      posX      posY    forceX    forceY    torque
         1         1   -6.9638   -0.0004   36.2995    2.5531   -0.3351
% end

% frame   497
% time 497.0000
% report aster:force
%    class  identity      posX      posY    forceX    forceY    torque
         1         1   -6.9744    0.0101   36.9454   -4.5990   -0.1368
% end

% frame   498
% time 498.0000
% report aster:force
%    class  identity      posX      posY    forceX    forceY    torque
         1         1   -6.9822   -0.0077   37.7170  -12.2478    0.0666
% end

% frame   499
% time 499.0000
% report aster:force
%    class  identity      posX      posY    forceX    forceY    torque
         1         1   -6.9935   -0.0007   41.1531    3.0056   -0.0001
% end

% frame   500
% time 500.0000
% report aster:force
%    class  identity      posX      posY    forceX    forceY    torque
         1         1   -6.9901   -0.0211   39.6669   -2.7259   -0.0772
% end
