
% frame   0
% time 0.0000
% report aster:force
%    class  identity      posX      posY    forceX    forceY    torque
         1         1   -6.0000    0.0000   -0.0001    0.0001   -0.0023
% end

% frame   1
% time 1.0000
% report aster:force
%    class  identity      posX      posY    forceX    forceY    torque
         1         1   -1.0049    0.0082   -1.1050    2.7267   -0.1361
% end

% frame   2
% time 2.0000
% report aster:force
%    class  identity      posX      posY    forceX    forceY    torque
         1         1   -1.0027   -0.0073   -1.4058    1.1256   -0.1202
% end

% frame   3
% time 3.0000
% report aster:force
%    class  identity      posX      posY    forceX    forceY    torque
         1         1   -1.0138   -0.0068   -4.4006   -1.1599   -0.1144
% end

% frame   4
% time 4.0000
% report aster:force
%    class  identity      posX      posY    forceX    forceY    torque
         1         1   -1.0076    0.0008   -2.8947    0.5661   -0.1287
% end

% frame   5
% time 5.0000
% report aster:force
%    class  identity      posX      posY    forceX    forceY    torque
         1         1   -1.0007   -0.0079    0.5304   -0.0726   -0.1178
% end

% frame   6
% time 6.0000
% report aster:force
%    class  identity      posX      posY    forceX    forceY    torque
         1         1   -0.9995   -0.0124    5.0317    0.0372   -0.0139
% end

% frame   7
% time 7.0000
% report aster:force
%    class  identity      posX      posY    forceX    forceY    torque
         1         1   -1.0008    0.0086    4.4726    2.0379    0.6265
% end

% frame   8
% time 8.0000
% report aster:force
%    class  identity      posX      posY    forceX    forceY    torque
         1         1   -1.0034   -0.0036    2.5506   -4.0375   -0.0791
% end

% frame   9
% time 9.0000
% report aster:force
%    class  identity      posX      posY    forceX    forceY    torque
         1         1   -0.9880    0.0037    3.3862   -3.1403    0.4225
% end

% frame   10
% time 10.0000
% report aster:force
%    class  identity      posX      posY    forceX    forceY    torque
         1         1   -1.0055    0.0060   -3.5046   -0.5054    0.5282
% end

% frame   11
% time 11.0000
% report aster:force
%    class  identity      posX      posY    forceX    forceY    torque
         1         1   -1.0261    0.0075    2.5366   -1.4162    0.1720
% end

% frame   12
% time 12.0000
% report aster:force
%    class  identity      posX      posY    forceX    forceY    torque
         1         1   -1.0012   -0.0038    3.9014   -0.7800   -0.4321
% end

% frame   13
% time 13.0000
% report aster:force
%    class  identity      posX      posY    forceX    forceY    torque
         1         1   -1.0020    0.0144   -2.6842    5.2310   -0.1346
% end

% frame   14
% time 14.0000
% report aster:force
%    class  identity      posX      posY    forceX    forceY    torque
         1         1   -0.9755    0.0069    9.6575    1.4987   -0.2624
% end

% frame   15
% time 15.0000
% report aster:force
%    class  identity      posX      posY    forceX    forceY    torque
         1         1   -1.0016   -0.0184    1.1704   -3.4935    0.0983
% end

% frame   16
% time 16.0000
% report aster:force
%    class  identity      posX      posY    forceX    forceY    torque
         1         1   -0.9944    0.0013    2.7052   -0.9454    0.0082
% end

% frame   17
% time 17.0000
% report aster:force
%    class  identity      posX      posY    forceX    forceY    torque
         1         1   -0.9873   -0.0123    6.2560   -3.3666   -0.0798
% end

% frame   18
% time 18.0000
% report aster:force
%    class  identity      posX      posY    forceX    forceY    torque
         1         1   -0.9990    0.0107    0.4184    5.4467   -0.0131
% end

% frame   19
% time 19.0000
% report aster:force
%    class  identity      posX      posY    forceX    forceY    torque
         1         1   -0.9918    0.0091    3.1661    2.5056    0.4909
% end

% frame   20
% time 20.0000
% report aster:force
%    class  identity      posX      posY    forceX    forceY    torque
         1         1   -0.9870    0.0166   -1.4135   -3.1512   -0.2189
% end

% frame   21
% time 21.0000
% report aster:force
%    class  identity      posX      posY    forceX    forceY    torque
         1         1   -0.9904    0.0162    6.2206    4.3358   -0.2955
% end

% frame   22
% time 22.0000
% report aster:force
%    class  identity      posX      posY    forceX    forceY    torque
         1         1   -0.9751    0.0169    9.4985    3.1557   -0.4408
% end

% frame   23
% time 23.0000
% report aster:force
%    class  identity      posX      posY    forceX    forceY    torque
         1         1   -1.0057   -0.0063   -3.3071   -3.4743    0.4639
% end

% frame   24
% time 24.0000
% report aster:force
%    class  identity      posX      posY    forceX    forceY    torque
         1         1   -0.9983    0.0009   -5.4223   -0.4185   -0.0995
% end

% frame   25
% time 25.0000
% report aster:force
%    class  identity      posX      posY    forceX    forceY    torque
         1         1   -1.0094    0.0099    2.3056   -1.1743   -0.1159
% end

% frame   26
% time 26.0000
% report aster:force
%    class  identity      posX      posY    forceX    forceY    torque
         1         1   -0.9886   -0.0105    3.6598   -7.0721    0.1373
% end

% frame   27
% time 27.0000
% report aster:force
%    class  identity      posX      posY    forceX    forceY    torque
         1         1   -0.9865   -0.0075   -2.9137    1.6544    0.1236
% end

% frame   28
% time 28.0000
% report aster:force
%    class  identity      posX      posY    forceX    forceY    torque
         1         1   -0.9809    0.0211    4.8520    3.0692   -0.3124
% end

% frame   29
% time 29.0000
% report aster:force
%    class  identity      posX      posY    forceX    forceY    torque
         1         1   -0.9874   -0.0039    2.1256    0.6736   -0.1856
% end

% frame   30
% time 30.0000
% report aster:force
%    class  identity      posX      posY    forceX    forceY    torque
         1         1   -0.9962   -0.0019    5.6890   -2.3135   -0.2470
% end

% frame   31
% time 31.0000
% report aster:force
%    class  identity      posX      posY    forceX    forceY    torque
         1         1   -1.0080    0.0023    0.1343   -6.5972    0.1356
% end

% frame   32
% time 32.0000
% report aster:force
%    class  identity      posX      posY    forceX    forceY    torque
         1         1   -1.0022   -0.0140    4.3684   -5.9332   -0.1815
% end

% frame   33
% time 33.0000
% report aster:force
%    class  identity      posX      posY    forceX    forceY    torque
         1         1   -0.9833   -0.0037    1.5496    0.4897   -0.4603
% end

% frame   34
% time 34.0000
% report aster:force
%    class  identity      posX      posY    forceX    forceY    torque
         1         1   -1.0064   -0.0013    2.3827    1.3221    0.0510
% end

% frame   35
% time 35.0000
% report aster:force
%    class  identity      posX      posY    forceX    forceY    torque
         1         1   -1.0137   -0.0109   -0.8210   -5.0616   -0.0103
% end

% frame   36
% time 36.0000
% report aster:force
%    class  identity      posX      posY    forceX    forceY    torque
         1         1   -1.0050    0.0014   -1.4754   -1.9516    0.3724
% end

% frame   37
% time 37.0000
% report aster:force
%    class  identity      posX      posY    forceX    forceY    torque
         1         1   -1.0067   -0.0231    3.0577   -6.0868    0.1749
% end

% frame   38
% time 38.0000
% report aster:force
%    class  identity      posX      posY    forceX    forceY    torque
         1         1   -1.0022    0.0073    1.9521    5.0189   -0.1899
% end

% frame   39
% time 39.0000
% report aster:force
%    class  identity      posX      posY    forceX    forceY    torque
         1         1   -0.9865   -0.0168    9.0229    1.7584   -0.2477
% end

% frame   40
% time 40.0000
% report aster:force
%    class  identity      posX      posY    forceX    forceY    torque
         1         1   -0.9817   -0.0115    7.2262    2.9049   -0.0426
% end

% frame   41
% time 41.0000
% report aster:force
%    class  identity      posX      posY    forceX    forceY    torque
         1         1   -0.9969   -0.0100    6.6793   -4.4814   -0.3373
% end

% frame   42
% time 42.0000
% report aster:force
%    class  identity      posX      posY    forceX    forceY    torque
         1         1   -0.9955    0.0085   10.2076    0.7977   -0.1860
% end

% frame   43
% time 43.0000
% report aster:force
%    class  identity      posX      posY    forceX    forceY    torque
         1         1   -0.9954    0.0000    7.1018    4.1593    0.0394
% end

% frame   44
% time 44.0000
% report aster:force
%    class  identity      posX      posY    forceX    forceY    torque
         1         1   -1.0033    0.0272   -0.0589    8.6746    0.0988
% end

% frame   45
% time 45.0000
% report aster:force
%    class  identity      posX      posY    forceX    forceY    torque
         1         1   -0.9625   -0.0017   10.4913    0.1068    0.0547
% end

% frame   46
% time 46.0000
% report aster:force
%    class  identity      posX      posY    forceX    forceY    torque
         1         1   -0.9774    0.0126    3.4213    0.8564   -0.0142
% end

% frame   47
% time 47.0000
% report aster:force
%    class  identity      posX      posY    forceX    forceY    torque
         1         1   -1.0013   -0.0018    4.7108   -0.9491   -0.2869
% end

% frame   48
% time 48.0000
% report aster:force
%    class  identity      posX      posY    forceX    forceY    torque
         1         1   -0.9973   -0.0085    2.8669   -1.0976    0.1067
% end

% frame   49
% time 49.0000
% report aster:force
%    class  identity      posX      posY    forceX    forceY    torque
         1         1   -1.0130    0.0029   -4.5811    3.4045    0.2158
% end

% frame   50
% time 50.0000
% report aster:force
%    class  identity      posX      posY    forceX    forceY    torque
         1         1   -0.9924    0.0253   -0.6879    0.5304   -0.1727
% end

% frame   51
% time 51.0000
% report aster:force
%    class  identity      posX      posY    forceX    forceY    torque
         1         1   -0.9957   -0.0071   -2.0803   -3.7518    0.5619
% end

% frame   52
% time 52.0000
% report aster:force
%    class  identity      posX      posY    forceX    forceY    torque
         1         1   -1.0144   -0.0008    5.0625    0.5674   -0.2259
% end

% frame   53
% time 53.0000
% report aster:force
%    class  identity      posX      posY    forceX    forceY    torque
         1         1   -0.9927    0.0091    3.2712   -1.7264    0.1691
% end

% frame   54
% time 54.0000
% report aster:force
%    class  identity      posX      posY    forceX    forceY    torque
         1         1   -0.9740   -0.0044    4.8276   -1.8761   -0.4054
% end

% frame   55
% time 55.0000
% report aster:force
%    class  identity      posX      posY    forceX    forceY    torque
         1         1   -0.9911    0.0190    1.1881    3.9973   -0.1308
% end

% frame   56
% time 56.0000
% report aster:force
%    class  identity      posX      posY    forceX    forceY    torque
         1         1   -1.0036   -0.0086   -0.4137    0.6634    0.2463
% end

% frame   57
% time 57.0000
% report aster:force
%    class  identity      posX      posY    forceX    forceY    torque
         1         1   -0.9864    0.0192    7.0593    1.2241    0.1126
% end

% frame   58
% time 58.0000
% report aster:force
%    class  identity      posX      posY    forceX    forceY    torque
         1         1   -0.9839    0.0015    1.9290    1.4556   -0.1267
% end

% frame   59
% time 59.0000
% report aster:force
%    class  identity      posX      posY    forceX    forceY    torque
         1         1   -0.9994    0.0011   -2.4671   -3.8480   -0.2649
% end

% frame   60
% time 60.0000
% report aster:force
%    class  identity      posX      posY    forceX    forceY    torque
         1         1   -1.0063   -0.0111   -0.0399   -2.4559   -0.4743
% end

% frame   61
% time 61.0000
% report aster:force
%    class  identity      posX      posY    forceX    forceY    torque
         1         1   -1.0038   -0.0099    6.5568   -5.9947    0.3942
% end

% frame   62
% time 62.0000
% report aster:force
%    class  identity      posX      posY    forceX    forceY    torque
         1         1   -0.9944   -0.0050    0.8127   -1.9789   -0.2621
% end

% frame   63
% time 63.0000
% report aster:force
%    class  identity      posX      posY    forceX    forceY    torque
         1         1   -0.9988   -0.0085    3.2091   -2.4502   -0.1273
% end

% frame   64
% time 64.0000
% report aster:force
%    class  identity      posX      posY    forceX    forceY    torque
         1         1   -0.9763   -0.0007    0.3296   -0.1155    0.0810
% end

% frame   65
% time 65.0000
% report aster:force
%    class  identity      posX      posY    forceX    forceY    torque
         1         1   -0.9833    0.0160    5.0152    6.5554    0.1706
% end

% frame   66
% time 66.0000
% report aster:force
%    class  identity      posX      posY    forceX    forceY    torque
         1         1   -0.9978   -0.0073    1.3243    3.6001    0.2738
% end

% frame   67
% time 67.0000
% report aster:force
%    class  identity      posX      posY    forceX    forceY    torque
         1         1   -0.9937   -0.0020    5.3971    0.2204    0.1014
% end

% frame   68
% time 68.0000
% report aster:force
%    class  identity      posX      posY    forceX    forceY    torque
         1         1   -1.0079   -0.0250    5.4145   -1.1966   -0.0347
% end

% frame   69
% time 69.0000
% report aster:force
%    class  identity      posX      posY    forceX    forceY    torque
         1         1   -0.9991    0.0118    3.4818    1.4116    0.2017
% end

% frame   70
% time 70.0000
% report aster:force
%    class  identity      posX      posY    forceX    forceY    torque
         1         1   -0.9841    0.0256   -1.7623    0.6158   -0.0523
% end

% frame   71
% time 71.0000
% report aster:force
%    class  identity      posX      posY    forceX    forceY    torque
         1         1   -0.9840    0.0184    2.5794    2.1375   -0.1489
% end

% frame   72
% time 72.0000
% report aster:force
%    class  identity      posX      posY    forceX    forceY    torque
         1         1   -0.9983   -0.0006   -2.0583    0.2281   -0.2152
% end

% frame   73
% time 73.0000
% report aster:force
%    class  identity      posX      posY    forceX    forceY    torque
         1         1   -0.9776    0.0054    4.6191    2.3474   -0.0886
% end

% frame   74
% time 74.0000
% report aster:force
%    class  identity      posX      posY    forceX    forceY    torque
         1         1   -0.9944   -0.0044    7.5744   -1.7572   -0.0155
% end

% frame   75
% time 75.0000
% report aster:force
%    class  identity      posX      posY    forceX    forceY    torque
         1         1   -1.0117    0.0191    7.2123   -0.2579   -0.2845
% end

% frame   76
% time 76.0000
% report aster:force
%    class  identity      posX      posY    forceX    forceY    torque
         1         1   -0.9840    0.0062   13.9054    1.7085   -0.6530
% end

% frame   77
% time 77.0000
% report aster:force
%    class  identity      posX      posY    forceX    forceY    torque
         1         1   -1.0076    0.0093    0.4156    3.0648   -0.4440
% end

% frame   78
% time 78.0000
% report aster:force
%    class  identity      posX      posY    forceX    forceY    torque
         1         1   -0.9954   -0.0134    6.1959    1.8656    0.1113
% end

% frame   79
% time 79.0000
% report aster:force
%    class  identity      posX      posY    forceX    forceY    torque
         1         1   -0.9716    0.0014    7.1462    4.7371    0.1209
% end

% frame   80
% time 80.0000
% report aster:force
%    class  identity      posX      posY    forceX    forceY    torque
         1         1   -0.9975    0.0062    5.5284   -4.6399    0.4425
% end

% frame   81
% time 81.0000
% report aster:force
%    class  identity      posX      posY    forceX    forceY    torque
         1         1   -0.9943    0.0087   -1.7821    1.1648   -0.5390
% end

% frame   82
% time 82.0000
% report aster:force
%    class  identity      posX      posY    forceX    forceY    torque
         1         1   -1.0166   -0.0035    2.9831   -2.0263    0.3186
% end

% frame   83
% time 83.0000
% report aster:force
%    class  identity      posX      posY    forceX    forceY    torque
         1         1   -1.0058    0.0217    3.9063    4.2018    0.3266
% end

% frame   84
% time 84.0000
% report aster:force
%    class  identity      posX      posY    forceX    forceY    torque
         1         1   -0.9958    0.0107    3.5673   -0.3492    0.0732
% end

% frame   85
% time 85.0000
% report aster:force
%    class  identity      posX      posY    forceX    forceY    torque
         1         1   -0.9939    0.0097    1.5436   -0.3066    0.4615
% end

% frame   86
% time 86.0000
% report aster:force
%    class  identity      posX      posY    forceX    forceY    torque
         1         1   -0.9763    0.0101    5.3695    1.3946   -0.2411
% end

% frame   87
% time 87.0000
% report aster:force
%    class  identity      posX      posY    forceX    forceY    torque
         1         1   -1.0083    0.0073    6.2795    1.6843   -0.0667
% end

% frame   88
% time 88.0000
% report aster:force
%    class  identity      posX      posY    forceX    forceY    torque
         1         1   -1.0018    0.0257    6.0947    7.7058    0.0577
% end

% frame   89
% time 89.0000
% report aster:force
%    class  identity      posX      posY    forceX    forceY    torque
         1         1   -0.9966    0.0079    2.8570    3.6120   -0.0475
% end

% frame   90
% time 90.0000
% report aster:force
%    class  identity      posX      posY    forceX    forceY    torque
         1         1   -1.0071   -0.0010    6.1741   -2.8730    0.3147
% end

% frame   91
% time 91.0000
% report aster:force
%    class  identity      posX      posY    forceX    forceY    torque
         1         1   -0.9750    0.0010    5.0959    3.5404    0.0998
% end

% frame   92
% time 92.0000
% report aster:force
%    class  identity      posX      posY    forceX    forceY    torque
         1         1   -0.9994    0.0006    6.1094    2.0167   -0.1510
% end

% frame   93
% time 93.0000
% report aster:force
%    class  identity      posX      posY    forceX    forceY    torque
         1         1   -1.0013    0.0208   -1.1711   -1.3463    0.0915
% end

% frame   94
% time 94.0000
% report aster:force
%    class  identity      posX      posY    forceX    forceY    torque
         1         1   -1.0018    0.0085    2.4083   -2.8223    0.0677
% end

% frame   95
% time 95.0000
% report aster:force
%    class  identity      posX      posY    forceX    forceY    torque
         1         1   -0.9800    0.0135    3.5573    3.0715    0.2767
% end

% frame   96
% time 96.0000
% report aster:force
%    class  identity      posX      posY    forceX    forceY    torque
         1         1   -0.9861    0.0221    3.8335    4.1729   -0.0597
% end

% frame   97
% time 97.0000
% report aster:force
%    class  identity      posX      posY    forceX    forceY    torque
         1         1   -0.9837    0.0086    6.4955    0.2639    0.1223
% end

% frame   98
% time 98.0000
% report aster:force
%    class  identity      posX      posY    forceX    forceY    torque
         1         1   -0.9955   -0.0196    1.4582   -2.2759   -0.0416
% end

% frame   99
% time 99.0000
% report aster:force
%    class  identity      posX      posY    forceX    forceY    torque
         1         1   -0.9758   -0.0083    5.4278   -0.1796   -0.0898
% end

% frame   100
% time 100.0000
% report aster:force
%    class  identity      posX      posY    forceX    forceY    torque
         1         1   -0.9852   -0.0271    7.1978   -0.8330   -0.0717
% end

% frame   101
% time 101.0000
% report aster:force
%    class  identity      posX      posY    forceX    forceY    torque
         1         1   -1.0168    0.0064    0.5672   -1.7020   -0.4955
% end

% frame   102
% time 102.0000
% report aster:force
%    class  identity      posX      posY    forceX    forceY    torque
         1         1   -0.9655   -0.0074    4.7550   -5.5592   -0.0274
% end

% frame   103
% time 103.0000
% report aster:force
%    class  identity      posX      posY    forceX    forceY    torque
         1         1   -0.9775   -0.0027    4.3413   -0.0248   -0.0622
% end

% frame   104
% time 104.0000
% report aster:force
%    class  identity      posX      posY    forceX    forceY    torque
         1         1   -1.0004    0.0102    3.5706    6.3834   -0.0435
% end

% frame   105
% time 105.0000
% report aster:force
%    class  identity      posX      posY    forceX    forceY    torque
         1         1   -0.9992    0.0155   -0.4678    2.1565    0.0677
% end

% frame   106
% time 106.0000
% report aster:force
%    class  identity      posX      posY    forceX    forceY    torque
         1         1   -1.0108    0.0041   -0.2911   -2.4022    0.1689
% end

% frame   107
% time 107.0000
% report aster:force
%    class  identity      posX      posY    forceX    forceY    torque
         1         1   -0.9948    0.0011    2.6639   -4.6693   -0.1276
% end

% frame   108
% time 108.0000
% report aster:force
%    class  identity      posX      posY    forceX    forceY    torque
         1         1   -0.9996   -0.0258    5.7671   -7.3784    0.4345
% end

% frame   109
% time 109.0000
% report aster:force
%    class  identity      posX      posY    forceX    forceY    torque
         1         1   -1.0020    0.0081   -0.0894    0.5021   -0.0684
% end

% frame   110
% time 110.0000
% report aster:force
%    class  identity      posX      posY    forceX    forceY    torque
         1         1   -1.0060    0.0265   -0.0962    0.6739    0.3168
% end

% frame   111
% time 111.0000
% report aster:force
%    class  identity      posX      posY    forceX    forceY    torque
         1         1   -0.9940   -0.0011    8.5850   -5.6997   -0.3150
% end

% frame   112
% time 112.0000
% report aster:force
%    class  identity      posX      posY    forceX    forceY    torque
         1         1   -0.9923    0.0151    3.5745    1.7795   -0.1214
% end

% frame   113
% time 113.0000
% report aster:force
%    class  identity      posX      posY    forceX    forceY    torque
         1         1   -1.0012    0.0038   -0.1203    0.9980    0.2549
% end

% frame   114
% time 114.0000
% report aster:force
%    class  identity      posX      posY    forceX    forceY    torque
         1         1   -0.9785   -0.0067    0.3555   -1.7466   -0.1800
% end

% frame   115
% time 115.0000
% report aster:force
%    class  identity      posX      posY    forceX    forceY    torque
         1         1   -0.9908    0.0019    5.9644   -4.1898    0.2117
% end

% frame   116
% time 116.0000
% report aster:force
%    class  identity      posX      posY    forceX    forceY    torque
         1         1   -1.0016   -0.0023    1.6576    2.9775    0.1862
% end

% frame   117
% time 117.0000
% report aster:force
%    class  identity      posX      posY    forceX    forceY    torque
         1         1   -0.9926    0.0022    1.8373   -4.1640   -0.3457
% end

% frame   118
% time 118.0000
% report aster:force
%    class  identity      posX      posY    forceX    forceY    torque
         1         1   -1.0034    0.0103   -0.5109   -0.8883   -0.4975
% end

% frame   119
% time 119.0000
% report aster:force
%    class  identity      posX      posY    forceX    forceY    torque
         1         1   -1.0061    0.0014    1.4522   -2.0189    0.0868
% end

% frame   120
% time 120.0000
% report aster:force
%    class  identity      posX      posY    forceX    forceY    torque
         1         1   -1.0027    0.0145   -5.1030    4.4283    0.0124
% end

% frame   121
% time 121.0000
% report aster:force
%    class  identity      posX      posY    forceX    forceY    torque
         1         1   -0.9794    0.0059    2.7856    3.2777   -0.1702
% end

% frame   122
% time 122.0000
% report aster:force
%    class  identity      posX      posY    forceX    forceY    torque
         1         1   -1.0114   -0.0078    3.1629   -2.1088    0.0934
% end

% frame   123
% time 123.0000
% report aster:force
%    class  identity      posX      posY    forceX    forceY    torque
         1         1   -0.9934   -0.0034   -1.2326    1.2499    0.0024
% end

% frame   124
% time 124.0000
% report aster:force
%    class  identity      posX      posY    forceX    forceY    torque
         1         1   -0.9925   -0.0046    0.0803   -3.9404    0.3429
% end

% frame   125
% time 125.0000
% report aster:force
%    class  identity      posX      posY    forceX    forceY    torque
         1         1   -1.0050   -0.0066    6.1095   -1.8681   -0.3703
% end

% frame   126
% time 126.0000
% report aster:force
%    class  identity      posX      posY    forceX    forceY    torque
         1         1   -0.9909    0.0089    1.6139   -4.7207    0.5288
% end

% frame   127
% time 127.0000
% report aster:force
%    class  identity      posX      posY    forceX    forceY    torque
         1         1   -1.0027    0.0147   -2.5412    3.5348   -0.3273
% end

% frame   128
% time 128.0000
% report aster:force
%    class  identity      posX      posY    forceX    forceY    torque
         1         1   -0.9902    0.0104    3.9433   -2.4952   -0.3025
% end

% frame   129
% time 129.0000
% report aster:force
%    class  identity      posX      posY    forceX    forceY    torque
         1         1   -0.9833   -0.0015   -0.4902    0.9316   -0.0653
% end

% frame   130
% time 130.0000
% report aster:force
%    class  identity      posX      posY    forceX    forceY    torque
         1         1   -1.0007   -0.0084    9.1851   -1.6507    0.1970
% end

% frame   131
% time 131.0000
% report aster:force
%    class  identity      posX      posY    forceX    forceY    torque
         1         1   -0.9997   -0.0027   -3.4336    3.5341    0.3535
% end

% frame   132
% time 132.0000
% report aster:force
%    class  identity      posX      posY    forceX    forceY    torque
         1         1   -1.0041   -0.0091   -3.1555   -4.1922   -0.1240
% end

% frame   133
% time 133.0000
% report aster:force
%    class  identity      posX      posY    forceX    forceY    torque
         1         1   -1.0023    0.0088   -3.2917   -0.1176    0.1689
% end

% frame   134
% time 134.0000
% report aster:force
%    class  identity      posX      posY    forceX    forceY    torque
         1         1   -0.9861   -0.0160    5.5100   -3.4946   -0.2901
% end

% frame   135
% time 135.0000
% report aster:force
%    class  identity      posX      posY    forceX    forceY    torque
         1         1   -0.9960   -0.0040    2.4216    2.6244    0.2199
% end

% frame   136
% time 136.0000
% report aster:force
%    class  identity      posX      posY    forceX    forceY    torque
         1         1   -1.0006    0.0173    2.3617    2.8627   -0.1918
% end

% frame   137
% time 137.0000
% report aster:force
%    class  identity      posX      posY    forceX    forceY    torque
         1         1   -0.9732    0.0165   10.0894   -2.3470    0.1385
% end

% frame   138
% time 138.0000
% report aster:force
%    class  identity      posX      posY    forceX    forceY    torque
         1         1   -0.9843    0.0051   -3.1429    5.0625   -0.0838
% end

% frame   139
% time 139.0000
% report aster:force
%    class  identity      posX      posY    forceX    forceY    torque
         1         1   -0.9684   -0.0153    3.8515    1.3553    0.1668
% end

% frame   140
% time 140.0000
% report aster:force
%    class  identity      posX      posY    forceX    forceY    torque
         1         1   -1.0014    0.0054    2.0943    1.4209   -0.0287
% end

% frame   141
% time 141.0000
% report aster:force
%    class  identity      posX      posY    forceX    forceY    torque
         1         1   -0.9923   -0.0043   10.5361   -2.3241   -0.0153
% end

% frame   142
% time 142.0000
% report aster:force
%    class  identity      posX      posY    forceX    forceY    torque
         1         1   -0.9990   -0.0106    2.9861    1.3002   -0.2545
% end

% frame   143
% time 143.0000
% report aster:force
%    class  identity      posX      posY    forceX    forceY    torque
         1         1   -0.9862   -0.0203   -3.8260   -1.9551    0.1844
% end

% frame   144
% time 144.0000
% report aster:force
%    class  identity      posX      posY    forceX    forceY    torque
         1         1   -1.0268   -0.0117   -0.6458   -5.8604    0.4339
% end

% frame   145
% time 145.0000
% report aster:force
%    class  identity      posX      posY    forceX    forceY    torque
         1         1   -1.0143   -0.0176    5.8976   -2.7868    0.0746
% end

% frame   146
% time 146.0000
% report aster:force
%    class  identity      posX      posY    forceX    forceY    torque
         1         1   -0.9811    0.0003   -1.3510    3.1542   -0.4723
% end

% frame   147
% time 147.0000
% report aster:force
%    class  identity      posX      posY    forceX    forceY    torque
         1         1   -0.9867   -0.0033    8.0120   -7.8216    0.2642
% end

% frame   148
% time 148.0000
% report aster:force
%    class  identity      posX      posY    forceX    forceY    torque
         1         1   -1.0004   -0.0121    3.9822    2.2379    0.1991
% end

% frame   149
% time 149.0000
% report aster:force
%    class  identity      posX      posY    forceX    forceY    torque
         1         1   -0.9941   -0.0135   -2.7878   -0.8062    0.0110
% end

% frame   150
% time 150.0000
% report aster:force
%    class  identity      posX      posY    forceX    forceY    torque
         1         1   -0.9782    0.0122   -0.7842    3.1001   -0.1307
% end

% frame   151
% time 151.0000
% report aster:force
%    class  identity      posX      posY    forceX    forceY    torque
         1         1   -1.0070    0.0106   -0.4825    4.2268   -0.2175
% end

% frame   152
% time 152.0000
% report aster:force
%    class  identity      posX      posY    forceX    forceY    torque
         1         1   -0.9773    0.0084    6.0978    1.7869   -0.0691
% end

% frame   153
% time 153.0000
% report aster:force
%    class  identity      posX      posY    forceX    forceY    torque
         1         1   -0.9892    0.0173    7.4681    6.1760   -0.1518
% end

% frame   154
% time 154.0000
% report aster:force
%    class  identity      posX      posY    forceX    forceY    torque
         1         1   -0.9958    0.0089    3.3229    0.4123    0.2574
% end

% frame   155
% time 155.0000
% report aster:force
%    class  identity      posX      posY    forceX    forceY    torque
         1         1   -1.0056   -0.0036   -1.8012   -5.1892   -0.2755
% end

% frame   156
% time 156.0000
% report aster:force
%    class  identity      posX      posY    forceX    forceY    torque
         1         1   -0.9835    0.0057   -3.1345   -3.8292    0.3198
% end

% frame   157
% time 157.0000
% report aster:force
%    class  identity      posX      posY    forceX    forceY    torque
         1         1   -1.0122    0.0174    3.1294    2.8264   -0.3602
% end

% frame   158
% time 158.0000
% report aster:force
%    class  identity      posX      posY    forceX    forceY    torque
         1         1   -1.0145   -0.0209    2.5595   -5.1529   -0.1098
% end

% frame   159
% time 159.0000
% report aster:force
%    class  identity      posX      posY    forceX    forceY    torque
         1         1   -1.0048   -0.0092    2.3842   -2.6368   -0.0074
% end

% frame   160
% time 160.0000
% report aster:force
%    class  identity      posX      posY    forceX    forceY    torque
         1         1   -1.0042    0.0040   -2.4084   -4.1295    0.2146
% end

% frame   161
% time 161.0000
% report aster:force
%    class  identity      posX      posY    forceX    forceY    torque
         1         1   -0.9796   -0.0237   11.4349   -4.9843   -0.1149
% end

% frame   162
% time 162.0000
% report aster:force
%    class  identity      posX      posY    forceX    forceY    torque
         1         1   -0.9810    0.0221    8.8645    7.4951    0.7493
% end

% frame   163
% time 163.0000
% report aster:force
%    class  identity      posX      posY    forceX    forceY    torque
         1         1   -1.0043   -0.0020   -0.2414   -2.3247    0.1123
% end

% frame   164
% time 164.0000
% report aster:force
%    class  identity      posX      posY    forceX    forceY    torque
         1         1   -0.9864    0.0135    6.3658    0.1158   -0.0566
% end

% frame   165
% time 165.0000
% report aster:force
%    class  identity      posX      posY    forceX    forceY    torque
         1         1   -1.0070    0.0207    0.8671    2.4929    0.3243
% end

% frame   166
% time 166.0000
% report aster:force
%    class  identity      posX      posY    forceX    forceY    torque
         1         1   -1.0079    0.0060    0.9345   -0.7619    0.1836
% end

% frame   167
% time 167.0000
% report aster:force
%    class  identity      posX      posY    forceX    forceY    torque
         1         1   -1.0055   -0.0040    2.6912   -1.9109    0.3179
% end

% frame   168
% time 168.0000
% report aster:force
%    class  identity      posX      posY    forceX    forceY    torque
         1         1   -1.0101    0.0076    2.2287    2.0364   -0.2946
% end

% frame   169
% time 169.0000
% report aster:force
%    class  identity      posX      posY    forceX    forceY    torque
         1         1   -0.9965    0.0086   -1.4166    7.8711    0.0492
% end

% frame   170
% time 170.0000
% report aster:force
%    class  identity      posX      posY    forceX    forceY    torque
         1         1   -0.9878   -0.0033    1.6092   -6.0382    0.0942
% end

% frame   171
% time 171.0000
% report aster:force
%    class  identity      posX      posY    forceX    forceY    torque
         1         1   -0.9985    0.0058    5.2088    2.5661    0.0492
% end

% frame   172
% time 172.0000
% report aster:force
%    class  identity      posX      posY    forceX    forceY    torque
         1         1   -0.9992   -0.0003    2.1907    3.7881    0.2506
% end

% frame   173
% time 173.0000
% report aster:force
%    class  identity      posX      posY    forceX    forceY    torque
         1         1   -0.9984    0.0161    1.1598    1.5864   -0.1456
% end

% frame   174
% time 174.0000
% report aster:force
%    class  identity      posX      posY    forceX    forceY    torque
         1         1   -1.0083    0.0085   -4.4416    4.3979   -0.4469
% end

% frame   175
% time 175.0000
% report aster:force
%    class  identity      posX      posY    forceX    forceY    torque
         1         1   -1.0082   -0.0130    1.7534    1.6998   -0.5348
% end

% frame   176
% time 176.0000
% report aster:force
%    class  identity      posX      posY    forceX    forceY    torque
         1         1   -0.9967    0.0025    0.6357   -2.2015   -0.1475
% end

% frame   177
% time 177.0000
% report aster:force
%    class  identity      posX      posY    forceX    forceY    torque
         1         1   -1.0092   -0.0075   -3.7125    4.9839   -0.3175
% end

% frame   178
% time 178.0000
% report aster:force
%    class  identity      posX      posY    forceX    forceY    torque
         1         1   -1.0071   -0.0054    5.4076    0.8456   -0.0886
% end

% frame   179
% time 179.0000
% report aster:force
%    class  identity      posX      posY    forceX    forceY    torque
         1         1   -0.9981    0.0171    2.3914    7.8599   -0.0203
% end

% frame   180
% time 180.0000
% report aster:force
%    class  identity      posX      posY    forceX    forceY    torque
         1         1   -0.9943    0.0018    5.1020   -3.6225    0.2437
% end

% frame   181
% time 181.0000
% report aster:force
%    class  identity      posX      posY    forceX    forceY    torque
         1         1   -0.9830    0.0035    1.0658   -2.4081   -0.0995
% end

% frame   182
% time 182.0000
% report aster:force
%    class  identity      posX      posY    forceX    forceY    torque
         1         1   -0.9955    0.0032    4.1581    0.3058    0.4177
% end

% frame   183
% time 183.0000
% report aster:force
%    class  identity      posX      posY    forceX    forceY    torque
         1         1   -0.9971    0.0093    2.6941    2.7940   -0.0723
% end

% frame   184
% time 184.0000
% report aster:force
%    class  identity      posX      posY    forceX    forceY    torque
         1         1   -1.0039   -0.0019   -3.1195   -0.0671    0.3627
% end

% frame   185
% time 185.0000
% report aster:force
%    class  identity      posX      posY    forceX    forceY    torque
         1         1   -0.9791   -0.0072    6.2962   -1.5318    0.2117
% end

% frame   186
% time 186.0000
% report aster:force
%    class  identity      posX      posY    forceX    forceY    torque
         1         1   -0.9806    0.0011    7.1693   -0.9894   -0.2772
% end

% frame   187
% time 187.0000
% report aster:force
%    class  identity      posX      posY    forceX    forceY    torque
         1         1   -0.9991   -0.0026    6.8548    3.1248    0.0544
% end

% frame   188
% time 188.0000
% report aster:force
%    class  identity      posX      posY    forceX    forceY    torque
         1         1   -0.9990    0.0045    6.8469    1.1903   -0.2035
% end

% frame   189
% time 189.0000
% report aster:force
%    class  identity      posX      posY    forceX    forceY    torque
         1         1   -1.0029    0.0088    5.6635   -4.6790   -0.0106
% end

% frame   190
% time 190.0000
% report aster:force
%    class  identity      posX      posY    forceX    forceY    torque
         1         1   -1.0130   -0.0015   -4.6916   -7.9880    0.5888
% end

% frame   191
% time 191.0000
% report aster:force
%    class  identity      posX      posY    forceX    forceY    torque
         1         1   -0.9978   -0.0130    8.1527   -1.4556    0.1234
% end

% frame   192
% time 192.0000
% report aster:force
%    class  identity      posX      posY    forceX    forceY    torque
         1         1   -1.0075    0.0010   -4.2326   -4.6626   -0.1727
% end

% frame   193
% time 193.0000
% report aster:force
%    class  identity      posX      posY    forceX    forceY    torque
         1         1   -0.9952   -0.0155    1.0370   -3.9532    0.0726
% end

% frame   194
% time 194.0000
% report aster:force
%    class  identity      posX      posY    forceX    forceY    torque
         1         1   -0.9864    0.0105    4.7805   -0.2077   -0.0948
% end

% frame   195
% time 195.0000
% report aster:force
%    class  identity      posX      posY    forceX    forceY    torque
         1         1   -0.9980    0.0065    4.0699   -3.1157    0.3301
% end

% frame   196
% time 196.0000
% report aster:force
%    class  identity      posX      posY    forceX    forceY    torque
         1         1   -0.9988   -0.0084    0.3445   -0.6857    0.1385
% end

% frame   197
% time 197.0000
% report aster:force
%    class  identity      posX      posY    forceX    forceY    torque
         1         1   -0.9808    0.0022    1.3041   -2.1734    0.0427
% end

% frame   198
% time 198.0000
% report aster:force
%    class  identity      posX      posY    forceX    forceY    torque
         1         1   -1.0024   -0.0059    5.3266   -1.0800    0.0501
% end

% frame   199
% time 199.0000
% report aster:force
%    class  identity      posX      posY    forceX    forceY    torque
         1         1   -1.0120   -0.0055   -4.7621   -6.7971    0.1466
% end

% frame   200
% time 200.0000
% report aster:force
%    class  identity      posX      posY    forceX    forceY    torque
         1         1   -0.9961   -0.0068   -2.6037    1.5314   -0.3549
% end

% frame   201
% time 201.0000
% report aster:force
%    class  identity      posX      posY    forceX    forceY    torque
         1         1   -0.9962    0.0059   -4.3778    0.2658   -0.1008
% end

% frame   202
% time 202.0000
% report aster:force
%    class  identity      posX      posY    forceX    forceY    torque
         1         1   -1.0026   -0.0082   -0.2364   -0.3305    0.2172
% end

% frame   203
% time 203.0000
% report aster:force
%    class  identity      posX      posY    forceX    forceY    torque
         1         1   -0.9813    0.0080    9.7467   11.1025    0.0164
% end

% frame   204
% time 204.0000
% report aster:force
%    class  identity      posX      posY    forceX    forceY    torque
         1         1   -0.9816    0.0031    1.9415   -1.3904   -0.0486
% end

% frame   205
% time 205.0000
% report aster:force
%    class  identity      posX      posY    forceX    forceY    torque
         1         1   -1.0069    0.0114   -0.4063    2.0102    0.0047
% end

% frame   206
% time 206.0000
% report aster:force
%    class  identity      posX      posY    forceX    forceY    torque
         1         1   -0.9956   -0.0023   -0.2666   -1.1553   -0.0914
% end

% frame   207
% time 207.0000
% report aster:force
%    class  identity      posX      posY    forceX    forceY    torque
         1         1   -0.9983   -0.0032   -1.3823    0.6152   -0.3740
% end

% frame   208
% time 208.0000
% report aster:force
%    class  identity      posX      posY    forceX    forceY    torque
         1         1   -0.9975   -0.0195    0.7057   -7.8695   -0.3805
% end

% frame   209
% time 209.0000
% report aster:force
%    class  identity      posX      posY    forceX    forceY    torque
         1         1   -1.0035   -0.0163    2.9918   -7.0777   -0.3242
% end

% frame   210
% time 210.0000
% report aster:force
%    class  identity      posX      posY    forceX    forceY    torque
         1         1   -1.0136   -0.0093   -0.6237    2.3679    0.4866
% end

% frame   211
% time 211.0000
% report aster:force
%    class  identity      posX      posY    forceX    forceY    torque
         1         1   -0.9860   -0.0013   -2.8176   -0.2755   -0.1034
% end

% frame   212
% time 212.0000
% report aster:force
%    class  identity      posX      posY    forceX    forceY    torque
         1         1   -1.0166    0.0035    4.7321    2.6015    0.3367
% end

% frame   213
% time 213.0000
% report aster:force
%    class  identity      posX      posY    forceX    forceY    torque
         1         1   -1.0037   -0.0026   -1.1973    4.6032   -0.2553
% end

% frame   214
% time 214.0000
% report aster:force
%    class  identity      posX      posY    forceX    forceY    torque
         1         1   -0.9959    0.0057   -5.6228   -0.8112   -0.1647
% end

% frame   215
% time 215.0000
% report aster:force
%    class  identity      posX      posY    forceX    forceY    torque
         1         1   -0.9979    0.0156   -1.2686    1.6376    0.1547
% end

% frame   216
% time 216.0000
% report aster:force
%    class  identity      posX      posY    forceX    forceY    torque
         1         1   -1.0022    0.0001   -2.5139    1.3267    0.2286
% end

% frame   217
% time 217.0000
% report aster:force
%    class  identity      posX      posY    forceX    forceY    torque
         1         1   -0.9924    0.0034    0.5487    5.3384   -0.1781
% end

% frame   218
% time 218.0000
% report aster:force
%    class  identity      posX      posY    forceX    forceY    torque
         1         1   -1.0165   -0.0053    1.9802   -2.8572    0.0577
% end

% frame   219
% time 219.0000
% report aster:force
%    class  identity      posX      posY    forceX    forceY    torque
         1         1   -1.0106    0.0054    2.4964   -0.2321   -0.1505
% end

% frame   220
% time 220.0000
% report aster:force
%    class  identity      posX      posY    forceX    forceY    torque
         1         1   -1.0022    0.0009    1.1185    1.0270    0.2092
% end

% frame   221
% time 221.0000
% report aster:force
%    class  identity      posX      posY    forceX    forceY    torque
         1         1   -0.9829   -0.0153   -0.6652    1.9139   -0.3367
% end

% frame   222
% time 222.0000
% report aster:force
%    class  identity      posX      posY    forceX    forceY    torque
         1         1   -1.0010    0.0021    2.9024    0.4656    0.4435
% end

% frame   223
% time 223.0000
% report aster:force
%    class  identity      posX      posY    forceX    forceY    torque
         1         1   -0.9910    0.0145   -3.6476    0.4702   -0.4309
% end

% frame   224
% time 224.0000
% report aster:force
%    class  identity      posX      posY    forceX    forceY    torque
         1         1   -0.9755   -0.0019    4.7480    0.3560    0.1026
% end

% frame   225
% time 225.0000
% report aster:force
%    class  identity      posX      posY    forceX    forceY    torque
         1         1   -1.0133    0.0106   -1.6287   -2.0563    0.1420
% end

% frame   226
% time 226.0000
% report aster:force
%    class  identity      posX      posY    forceX    forceY    torque
         1         1   -0.9975    0.0062   -2.0451   -6.2863   -0.1158
% end

% frame   227
% time 227.0000
% report aster:force
%    class  identity      posX      posY    forceX    forceY    torque
         1         1   -0.9975   -0.0058    0.8190   -0.6537   -0.2663
% end

% frame   228
% time 228.0000
% report aster:force
%    class  identity      posX      posY    forceX    forceY    torque
         1         1   -0.9992   -0.0019   -5.4608   -3.6302   -0.1745
% end

% frame   229
% time 229.0000
% report aster:force
%    class  identity      posX      posY    forceX    forceY    torque
         1         1   -0.9947    0.0049   -0.3212    1.9577   -0.3019
% end

% frame   230
% time 230.0000
% report aster:force
%    class  identity      posX      posY    forceX    forceY    torque
         1         1   -1.0057   -0.0077    2.6470   -0.1269   -0.1117
% end

% frame   231
% time 231.0000
% report aster:force
%    class  identity      posX      posY    forceX    forceY    torque
         1         1   -1.0034    0.0008    3.1051   -5.1238   -0.2932
% end

% frame   232
% time 232.0000
% report aster:force
%    class  identity      posX      posY    forceX    forceY    torque
         1         1   -0.9882   -0.0043    3.6173   -3.2140   -0.1193
% end

% frame   233
% time 233.0000
% report aster:force
%    class  identity      posX      posY    forceX    forceY    torque
         1         1   -0.9841    0.0047    2.9266   -2.2366   -0.2949
% end

% frame   234
% time 234.0000
% report aster:force
%    class  identity      posX      posY    forceX    forceY    torque
         1         1   -0.9990   -0.0017    1.2423   -2.0916   -0.1118
% end

% frame   235
% time 235.0000
% report aster:force
%    class  identity      posX      posY    forceX    forceY    torque
         1         1   -0.9923   -0.0065    0.4400    2.2565   -0.1306
% end

% frame   236
% time 236.0000
% report aster:force
%    class  identity      posX      posY    forceX    forceY    torque
         1         1   -0.9890    0.0087    6.4830   -3.0550   -0.1334
% end

% frame   237
% time 237.0000
% report aster:force
%    class  identity      posX      posY    forceX    forceY    torque
         1         1   -1.0065   -0.0046    3.9070   -4.9380   -0.0382
% end

% frame   238
% time 238.0000
% report aster:force
%    class  identity      posX      posY    forceX    forceY    torque
         1         1   -0.9946    0.0150   -5.7277    0.0424    0.0593
% end

% frame   239
% time 239.0000
% report aster:force
%    class  identity      posX      posY    forceX    forceY    torque
         1         1   -0.9962   -0.0081    7.5676    0.5241    0.0929
% end

% frame   240
% time 240.0000
% report aster:force
%    class  identity      posX      posY    forceX    forceY    torque
         1         1   -0.9971    0.0163    3.4536    0.7642    0.0048
% end

% frame   241
% time 241.0000
% report aster:force
%    class  identity      posX      posY    forceX    forceY    torque
         1         1   -1.0129   -0.0012   -1.2561    0.9770    0.1269
% end

% frame   242
% time 242.0000
% report aster:force
%    class  identity      posX      posY    forceX    forceY    torque
         1         1   -0.9794    0.0016    7.7419   -0.2354    0.1596
% end

% frame   243
% time 243.0000
% report aster:force
%    class  identity      posX      posY    forceX    forceY    torque
         1         1   -0.9866   -0.0064    6.9135    1.3091    0.1311
% end

% frame   244
% time 244.0000
% report aster:force
%    class  identity      posX      posY    forceX    forceY    torque
         1         1   -0.9855    0.0049    8.8307    3.2489    0.2876
% end

% frame   245
% time 245.0000
% report aster:force
%    class  identity      posX      posY    forceX    forceY    torque
         1         1   -0.9958    0.0112    3.1178   -2.2720   -0.3772
% end

% frame   246
% time 246.0000
% report aster:force
%    class  identity      posX      posY    forceX    forceY    torque
         1         1   -1.0104   -0.0341    1.8817    1.4116   -0.3043
% end

% frame   247
% time 247.0000
% report aster:force
%    class  identity      posX      posY    forceX    forceY    torque
         1         1   -1.0050   -0.0038    2.3482    3.1716    0.1151
% end

% frame   248
% time 248.0000
% report aster:force
%    class  identity      posX      posY    forceX    forceY    torque
         1         1   -0.9859    0.0124    1.2996    2.3040   -0.1973
% end

% frame   249
% time 249.0000
% report aster:force
%    class  identity      posX      posY    forceX    forceY    torque
         1         1   -0.9890    0.0003    0.3782   -0.4394   -0.5039
% end

% frame   250
% time 250.0000
% report aster:force
%    class  identity      posX      posY    forceX    forceY    torque
         1         1   -1.0119   -0.0014   -5.3685    2.0321    0.1253
% end

% frame   251
% time 251.0000
% report aster:force
%    class  identity      posX      posY    forceX    forceY    torque
         1         1   -1.0189    0.0061   -0.7955   -2.3195    0.2966
% end

% frame   252
% time 252.0000
% report aster:force
%    class  identity      posX      posY    forceX    forceY    torque
         1         1   -0.9949   -0.0131    4.5004   -1.9207    0.1076
% end

% frame   253
% time 253.0000
% report aster:force
%    class  identity      posX      posY    forceX    forceY    torque
         1         1   -0.9790   -0.0016   -4.3203   -1.9716    0.3015
% end

% frame   254
% time 254.0000
% report aster:force
%    class  identity      posX      posY    forceX    forceY    torque
         1         1   -0.9953    0.0096    0.9429   -2.2902    0.1453
% end

% frame   255
% time 255.0000
% report aster:force
%    class  identity      posX      posY    forceX    forceY    torque
         1         1   -1.0076   -0.0025    5.5590   -2.3132    0.4119
% end

% frame   256
% time 256.0000
% report aster:force
%    class  identity      posX      posY    forceX    forceY    torque
         1         1   -0.9981    0.0152    1.7704    5.1355   -0.2395
% end

% frame   257
% time 257.0000
% report aster:force
%    class  identity      posX      posY    forceX    forceY    torque
         1         1   -0.9968    0.0034    0.2168   -2.0260    0.1174
% end

% frame   258
% time 258.0000
% report aster:force
%    class  identity      posX      posY    forceX    forceY    torque
         1         1   -0.9953    0.0148   -3.7698    3.2364   -0.2358
% end

% frame   259
% time 259.0000
% report aster:force
%    class  identity      posX      posY    forceX    forceY    torque
         1         1   -1.0025   -0.0085    4.9897    2.6032    0.0660
% end

% frame   260
% time 260.0000
% report aster:force
%    class  identity      posX      posY    forceX    forceY    torque
         1         1   -0.9920    0.0147    4.1437    7.7714    0.0812
% end

% frame   261
% time 261.0000
% report aster:force
%    class  identity      posX      posY    forceX    forceY    torque
         1         1   -1.0065   -0.0050    7.0439   -1.9406   -0.3873
% end

% frame   262
% time 262.0000
% report aster:force
%    class  identity      posX      posY    forceX    forceY    torque
         1         1   -1.0015    0.0235    3.3101   -1.0425   -0.1401
% end

% frame   263
% time 263.0000
% report aster:force
%    class  identity      posX      posY    forceX    forceY    torque
         1         1   -1.0128    0.0011   -0.1859   -3.5641   -0.0195
% end

% frame   264
% time 264.0000
% report aster:force
%    class  identity      posX      posY    forceX    forceY    torque
         1         1   -1.0105    0.0057    5.4921   -2.2854    0.0143
% end

% frame   265
% time 265.0000
% report aster:force
%    class  identity      posX      posY    forceX    forceY    torque
         1         1   -1.0014    0.0059    3.2591   -0.8380   -0.2933
% end

% frame   266
% time 266.0000
% report aster:force
%    class  identity      posX      posY    forceX    forceY    torque
         1         1   -0.9880   -0.0118    0.1830   -0.2520   -0.2569
% end

% frame   267
% time 267.0000
% report aster:force
%    class  identity      posX      posY    forceX    forceY    torque
         1         1   -0.9926   -0.0054    3.8987    1.8050   -0.0259
% end

% frame   268
% time 268.0000
% report aster:force
%    class  identity      posX      posY    forceX    forceY    torque
         1         1   -0.9809    0.0073    3.9196    3.3831   -0.3105
% end

% frame   269
% time 269.0000
% report aster:force
%    class  identity      posX      posY    forceX    forceY    torque
         1         1   -1.0038   -0.0057    1.1595   -3.7500   -0.0362
% end

% frame   270
% time 270.0000
% report aster:force
%    class  identity      posX      posY    forceX    forceY    torque
         1         1   -1.0044   -0.0016    4.3194   -3.1106    0.0831
% end

% frame   271
% time 271.0000
% report aster:force
%    class  identity      posX      posY    forceX    forceY    torque
         1         1   -1.0200    0.0093   -1.6126    1.1543   -0.0481
% end

% frame   272
% time 272.0000
% report aster:force
%    class  identity      posX      posY    forceX    forceY    torque
         1         1   -1.0174   -0.0058   -2.1522    3.4008   -0.0825
% end

% frame   273
% time 273.0000
% report aster:force
%    class  identity      posX      posY    forceX    forceY    torque
         1         1   -1.0061    0.0152    0.1345    5.2012    0.0705
% end

% frame   274
% time 274.0000
% report aster:force
%    class  identity      posX      posY    forceX    forceY    torque
         1         1   -0.9891    0.0128    3.6094    3.8223    0.0598
% end

% frame   275
% time 275.0000
% report aster:force
%    class  identity      posX      posY    forceX    forceY    torque
         1         1   -1.0178   -0.0100    0.7132   -6.1138    0.2053
% end

% frame   276
% time 276.0000
% report aster:force
%    class  identity      posX      posY    forceX    forceY    torque
         1         1   -0.9959    0.0060    2.0328   -6.3184   -0.3566
% end

% frame   277
% time 277.0000
% report aster:force
%    class  identity      posX      posY    forceX    forceY    torque
         1         1   -0.9937   -0.0130    6.4590   -0.4188   -0.2036
% end

% frame   278
% time 278.0000
% report aster:force
%    class  identity      posX      posY    forceX    forceY    torque
         1         1   -1.0026   -0.0123   -1.0607   -3.7857   -0.3376
% end

% frame   279
% time 279.0000
% report aster:force
%    class  identity      posX      posY    forceX    forceY    torque
         1         1   -1.0083   -0.0225    2.3256   -0.2662   -0.2188
% end

% frame   280
% time 280.0000
% report aster:force
%    class  identity      posX      posY    forceX    forceY    torque
         1         1   -0.9887   -0.0115    7.8405   -2.0897    0.1911
% end

% frame   281
% time 281.0000
% report aster:force
%    class  identity      posX      posY    forceX    forceY    torque
         1         1   -1.0026    0.0008   -0.8487   -0.1160   -0.3372
% end

% frame   282
% time 282.0000
% report aster:force
%    class  identity      posX      posY    forceX    forceY    torque
         1         1   -1.0022    0.0110   -0.3105   -4.1533   -0.2185
% end

% frame   283
% time 283.0000
% report aster:force
%    class  identity      posX      posY    forceX    forceY    torque
         1         1   -1.0061    0.0069   -1.3927   -3.0407    0.1523
% end

% frame   284
% time 284.0000
% report aster:force
%    class  identity      posX      posY    forceX    forceY    torque
         1         1   -0.9855    0.0027    5.3421   -4.1268    0.4121
% end

% frame   285
% time 285.0000
% report aster:force
%    class  identity      posX      posY    forceX    forceY    torque
         1         1   -0.9835    0.0114    3.8245   -5.1741    0.3199
% end

% frame   286
% time 286.0000
% report aster:force
%    class  identity      posX      posY    forceX    forceY    torque
         1         1   -0.9825   -0.0043    5.4442   -2.5539    0.3335
% end

% frame   287
% time 287.0000
% report aster:force
%    class  identity      posX      posY    forceX    forceY    torque
         1         1   -0.9939    0.0074   -0.0486   -1.2934   -0.3692
% end

% frame   288
% time 288.0000
% report aster:force
%    class  identity      posX      posY    forceX    forceY    torque
         1         1   -0.9967   -0.0144    6.5763    0.6816    0.0547
% end

% frame   289
% time 289.0000
% report aster:force
%    class  identity      posX      posY    forceX    forceY    torque
         1         1   -1.0134   -0.0034    0.1872   -6.6799    0.1867
% end

% frame   290
% time 290.0000
% report aster:force
%    class  identity      posX      posY    forceX    forceY    torque
         1         1   -1.0084    0.0152   -6.6781    1.4174    0.4082
% end

% frame   291
% time 291.0000
% report aster:force
%    class  identity      posX      posY    forceX    forceY    torque
         1         1   -0.9675    0.0233    4.0900    1.3344    0.1265
% end

% frame   292
% time 292.0000
% report aster:force
%    class  identity      posX      posY    forceX    forceY    torque
         1         1   -0.9934    0.0040   -0.5397    1.6656    0.0213
% end

% frame   293
% time 293.0000
% report aster:force
%    class  identity      posX      posY    forceX    forceY    torque
         1         1   -1.0118   -0.0025   -0.7495   -0.2487    0.2626
% end

% frame   294
% time 294.0000
% report aster:force
%    class  identity      posX      posY    forceX    forceY    torque
         1         1   -0.9978   -0.0017    0.4651   -2.2003   -0.1060
% end

% frame   295
% time 295.0000
% report aster:force
%    class  identity      posX      posY    forceX    forceY    torque
         1         1   -1.0002   -0.0013   -2.3833   -4.0996    0.1678
% end

% frame   296
% time 296.0000
% report aster:force
%    class  identity      posX      posY    forceX    forceY    torque
         1         1   -0.9838   -0.0008    3.7375    1.9368   -0.3525
% end

% frame   297
% time 297.0000
% report aster:force
%    class  identity      posX      posY    forceX    forceY    torque
         1         1   -1.0091   -0.0059    4.7181   -5.4091   -0.1420
% end

% frame   298
% time 298.0000
% report aster:force
%    class  identity      posX      posY    forceX    forceY    torque
         1         1   -1.0102    0.0004    4.0007    6.4125   -0.0280
% end

% frame   299
% time 299.0000
% report aster:force
%    class  identity      posX      posY    forceX    forceY    torque
         1         1   -0.9948    0.0018    3.8897   -0.9566    0.1072
% end

% frame   300
% time 300.0000
% report aster:force
%    class  identity      posX      posY    forceX    forceY    torque
         1         1   -1.0238   -0.0061    2.7444   -1.6537   -0.0672
% end

% frame   301
% time 301.0000
% report aster:force
%    class  identity      posX      posY    forceX    forceY    torque
         1         1   -1.0050    0.0085   -1.6363    3.6033   -0.0111
% end

% frame   302
% time 302.0000
% report aster:force
%    class  identity      posX      posY    forceX    forceY    torque
         1         1   -0.9984   -0.0008    5.5300   -1.6554    0.1893
% end

% frame   303
% time 303.0000
% report aster:force
%    class  identity      posX      posY    forceX    forceY    torque
         1         1   -1.0128    0.0229    0.9885   -0.3334   -0.2304
% end

% frame   304
% time 304.0000
% report aster:force
%    class  identity      posX      posY    forceX    forceY    torque
         1         1   -1.0000   -0.0088    0.8609    1.8239    0.4472
% end

% frame   305
% time 305.0000
% report aster:force
%    class  identity      posX      posY    forceX    forceY    torque
         1         1   -0.9968    0.0036    0.6325    0.8626    0.1301
% end

% frame   306
% time 306.0000
% report aster:force
%    class  identity      posX      posY    forceX    forceY    torque
         1         1   -0.9920   -0.0003    4.7504    2.5424    0.0602
% end

% frame   307
% time 307.0000
% report aster:force
%    class  identity      posX      posY    forceX    forceY    torque
         1         1   -0.9919   -0.0155    6.6803    1.7629   -0.1829
% end

% frame   308
% time 308.0000
% report aster:force
%    class  identity      posX      posY    forceX    forceY    torque
         1         1   -0.9877    0.0171    5.5945    5.3131   -0.0609
% end

% frame   309
% time 309.0000
% report aster:force
%    class  identity      posX      posY    forceX    forceY    torque
         1         1   -1.0157    0.0017    2.0161    1.4159   -0.1650
% end

% frame   310
% time 310.0000
% report aster:force
%    class  identity      posX      posY    forceX    forceY    torque
         1         1   -0.9924    0.0035    4.4193    1.6905    0.3146
% end

% frame   311
% time 311.0000
% report aster:force
%    class  identity      posX      posY    forceX    forceY    torque
         1         1   -0.9894   -0.0023    9.4055   -2.1717    0.0318
% end

% frame   312
% time 312.0000
% report aster:force
%    class  identity      posX      posY    forceX    forceY    torque
         1         1   -0.9838    0.0027    4.7558    0.1409   -0.0907
% end

% frame   313
% time 313.0000
% report aster:force
%    class  identity      posX      posY    forceX    forceY    torque
         1         1   -0.9850    0.0037    5.7149    0.4775    0.3908
% end

% frame   314
% time 314.0000
% report aster:force
%    class  identity      posX      posY    forceX    forceY    torque
         1         1   -1.0058   -0.0123    0.8705   -2.8269   -0.1215
% end

% frame   315
% time 315.0000
% report aster:force
%    class  identity      posX      posY    forceX    forceY    torque
         1         1   -0.9877    0.0049    3.8691   -2.3612    0.2239
% end

% frame   316
% time 316.0000
% report aster:force
%    class  identity      posX      posY    forceX    forceY    torque
         1         1   -0.9848    0.0033    4.4455   -4.3325    0.3990
% end

% frame   317
% time 317.0000
% report aster:force
%    class  identity      posX      posY    forceX    forceY    torque
         1         1   -1.0092    0.0057    1.5562   -2.3303   -0.0580
% end

% frame   318
% time 318.0000
% report aster:force
%    class  identity      posX      posY    forceX    forceY    torque
         1         1   -0.9948   -0.0031    6.1190   -0.6568   -0.1572
% end

% frame   319
% time 319.0000
% report aster:force
%    class  identity      posX      posY    forceX    forceY    torque
         1         1   -0.9786   -0.0075    1.2196    1.8688   -0.3579
% end

% frame   320
% time 320.0000
% report aster:force
%    class  identity      posX      posY    forceX    forceY    torque
         1         1   -0.9930   -0.0210    7.2916   -1.3075    0.0649
% end

% frame   321
% time 321.0000
% report aster:force
%    class  identity      posX      posY    forceX    forceY    torque
         1         1   -1.0039   -0.0093    0.2271   -5.6315   -0.3738
% end

% frame   322
% time 322.0000
% report aster:force
%    class  identity      posX      posY    forceX    forceY    torque
         1         1   -1.0041   -0.0021    4.5896   -2.1041   -0.1502
% end

% frame   323
% time 323.0000
% report aster:force
%    class  identity      posX      posY    forceX    forceY    torque
         1         1   -0.9897    0.0018    0.7088   -0.3830   -0.0651
% end

% frame   324
% time 324.0000
% report aster:force
%    class  identity      posX      posY    forceX    forceY    torque
         1         1   -1.0109    0.0045   -2.7969   -2.0626    0.2380
% end

% frame   325
% time 325.0000
% report aster:force
%    class  identity      posX      posY    forceX    forceY    torque
         1         1   -1.0031    0.0029    5.5791   -1.7962    0.3501
% end

% frame   326
% time 326.0000
% report aster:force
%    class  identity      posX      posY    forceX    forceY    torque
         1         1   -0.9864    0.0142    0.1163   -3.4905   -0.2112
% end

% frame   327
% time 327.0000
% report aster:force
%    class  identity      posX      posY    forceX    forceY    torque
         1         1   -1.0014   -0.0053    1.0373    1.5260    0.2551
% end

% frame   328
% time 328.0000
% report aster:force
%    class  identity      posX      posY    forceX    forceY    torque
         1         1   -0.9960    0.0008    3.4539   -5.1380   -0.2366
% end

% frame   329
% time 329.0000
% report aster:force
%    class  identity      posX      posY    forceX    forceY    torque
         1         1   -0.9925    0.0020   -1.0197    4.6965   -0.2155
% end

% frame   330
% time 330.0000
% report aster:force
%    class  identity      posX      posY    forceX    forceY    torque
         1         1   -1.0074   -0.0079   -2.1786   -5.0293    0.2818
% end

% frame   331
% time 331.0000
% report aster:force
%    class  identity      posX      posY    forceX    forceY    torque
         1         1   -1.0038    0.0168    0.6709    1.0981   -0.0166
% end

% frame   332
% time 332.0000
% report aster:force
%    class  identity      posX      posY    forceX    forceY    torque
         1         1   -1.0029   -0.0208    1.1199   -2.9782    0.0650
% end

% frame   333
% time 333.0000
% report aster:force
%    class  identity      posX      posY    forceX    forceY    torque
         1         1   -1.0045    0.0172    1.4476   -3.8067   -0.3036
% end

% frame   334
% time 334.0000
% report aster:force
%    class  identity      posX      posY    forceX    forceY    torque
         1         1   -0.9793   -0.0034    5.4569    2.6714   -0.3707
% end

% frame   335
% time 335.0000
% report aster:force
%    class  identity      posX      posY    forceX    forceY    torque
         1         1   -1.0086    0.0000    1.6808    2.3054   -0.2656
% end

% frame   336
% time 336.0000
% report aster:force
%    class  identity      posX      posY    forceX    forceY    torque
         1         1   -0.9978    0.0078    1.0054    4.4411   -0.0143
% end

% frame   337
% time 337.0000
% report aster:force
%    class  identity      posX      posY    forceX    forceY    torque
         1         1   -0.9869    0.0045    2.3987    5.5297   -0.0348
% end

% frame   338
% time 338.0000
% report aster:force
%    class  identity      posX      posY    forceX    forceY    torque
         1         1   -1.0081    0.0074   -2.0583    4.5319    0.1007
% end

% frame   339
% time 339.0000
% report aster:force
%    class  identity      posX      posY    forceX    forceY    torque
         1         1   -0.9954   -0.0060    0.3397    1.9186   -0.0321
% end

% frame   340
% time 340.0000
% report aster:force
%    class  identity      posX      posY    forceX    forceY    torque
         1         1   -1.0052    0.0153    1.4653    1.3502   -0.1173
% end

% frame   341
% time 341.0000
% report aster:force
%    class  identity      posX      posY    forceX    forceY    torque
         1         1   -1.0037   -0.0109   -8.6418   -3.7696    0.2761
% end

% frame   342
% time 342.0000
% report aster:force
%    class  identity      posX      posY    forceX    forceY    torque
         1         1   -0.9913   -0.0062    7.0937    2.7163    0.4368
% end

% frame   343
% time 343.0000
% report aster:force
%    class  identity      posX      posY    forceX    forceY    torque
         1         1   -0.9954   -0.0065    2.4607   -2.1779    0.0393
% end

% frame   344
% time 344.0000
% report aster:force
%    class  identity      posX      posY    forceX    forceY    torque
         1         1   -1.0003   -0.0138    2.2048   -2.2495    0.0583
% end

% frame   345
% time 345.0000
% report aster:force
%    class  identity      posX      posY    forceX    forceY    torque
         1         1   -0.9859    0.0027    4.0003   -2.7966    0.0376
% end

% frame   346
% time 346.0000
% report aster:force
%    class  identity      posX      posY    forceX    forceY    torque
         1         1   -1.0164    0.0047   -2.2690   -1.9390   -0.2683
% end

% frame   347
% time 347.0000
% report aster:force
%    class  identity      posX      posY    forceX    forceY    torque
         1         1   -0.9943   -0.0073    3.8594   -4.7984   -0.0149
% end

% frame   348
% time 348.0000
% report aster:force
%    class  identity      posX      posY    forceX    forceY    torque
         1         1   -0.9986    0.0009    2.1719   -2.5067    0.0020
% end

% frame   349
% time 349.0000
% report aster:force
%    class  identity      posX      posY    forceX    forceY    torque
         1         1   -1.0047    0.0047   -0.8192   -0.0571   -0.1222
% end

% frame   350
% time 350.0000
% report aster:force
%    class  identity      posX      posY    forceX    forceY    torque
         1         1   -0.9930    0.0045    4.7209   -1.6545   -0.2374
% end

% frame   351
% time 351.0000
% report aster:force
%    class  identity      posX      posY    forceX    forceY    torque
         1         1   -1.0028    0.0138    4.4264   -0.0456    0.0918
% end

% frame   352
% time 352.0000
% report aster:force
%    class  identity      posX      posY    forceX    forceY    torque
         1         1   -0.9965   -0.0054   -1.0689    0.5987    0.0665
% end

% frame   353
% time 353.0000
% report aster:force
%    class  identity      posX      posY    forceX    forceY    torque
         1         1   -1.0023   -0.0031   -4.6858    0.2431   -0.1062
% end

% frame   354
% time 354.0000
% report aster:force
%    class  identity      posX      posY    forceX    forceY    torque
         1         1   -0.9966   -0.0123    0.9433    1.0624    0.0785
% end

% frame   355
% time 355.0000
% report aster:force
%    class  identity      posX      posY    forceX    forceY    torque
         1         1   -1.0041   -0.0031    4.3949   -1.6735    0.1110
% end

% frame   356
% time 356.0000
% report aster:force
%    class  identity      posX      posY    forceX    forceY    torque
         1         1   -1.0045   -0.0192    3.3905    1.7425   -0.0228
% end

% frame   357
% time 357.0000
% report aster:force
%    class  identity      posX      posY    forceX    forceY    torque
         1         1   -1.0036   -0.0178   -1.2400   -2.3214   -0.5136
% end

% frame   358
% time 358.0000
% report aster:force
%    class  identity      posX      posY    forceX    forceY    torque
         1         1   -0.9962   -0.0093    3.2754    0.4431    0.0156
% end

% frame   359
% time 359.0000
% report aster:force
%    class  identity      posX      posY    forceX    forceY    torque
         1         1   -0.9924   -0.0005    6.1371   -2.5987    0.0959
% end

% frame   360
% time 360.0000
% report aster:force
%    class  identity      posX      posY    forceX    forceY    torque
         1         1   -1.0102    0.0101    0.5482    7.3160    0.1585
% end

% frame   361
% time 361.0000
% report aster:force
%    class  identity      posX      posY    forceX    forceY    torque
         1         1   -0.9871   -0.0179    7.3142   -2.2919   -0.1319
% end

% frame   362
% time 362.0000
% report aster:force
%    class  identity      posX      posY    forceX    forceY    torque
         1         1   -0.9880   -0.0042    4.5322    4.5707    0.2436
% end

% frame   363
% time 363.0000
% report aster:force
%    class  identity      posX      posY    forceX    forceY    torque
         1         1   -1.0044    0.0162    3.3951    0.0031    0.1719
% end

% frame   364
% time 364.0000
% report aster:force
%    class  identity      posX      posY    forceX    forceY    torque
         1         1   -1.0131    0.0257   -1.2824    2.6865    0.1846
% end

% frame   365
% time 365.0000
% report aster:force
%    class  identity      posX      posY    forceX    forceY    torque
         1         1   -1.0083    0.0170   -0.7257    4.0808    0.2883
% end

% frame   366
% time 366.0000
% report aster:force
%    class  identity      posX      posY    forceX    forceY    torque
         1         1   -0.9970    0.0014   -0.0266    7.0145    0.0445
% end

% frame   367
% time 367.0000
% report aster:force
%    class  identity      posX      posY    forceX    forceY    torque
         1         1   -1.0005    0.0054    2.9200    0.2417   -0.2018
% end

% frame   368
% time 368.0000
% report aster:force
%    class  identity      posX      posY    forceX    forceY    torque
         1         1   -1.0165    0.0148   -3.1380    1.2864    0.1780
% end

% frame   369
% time 369.0000
% report aster:force
%    class  identity      posX      posY    forceX    forceY    torque
         1         1   -1.0058   -0.0108    4.4397    0.1273   -0.0941
% end

% frame   370
% time 370.0000
% report aster:force
%    class  identity      posX      posY    forceX    forceY    torque
         1         1   -0.9943    0.0041    5.1812   -2.2313   -0.3576
% end

% frame   371
% time 371.0000
% report aster:force
%    class  identity      posX      posY    forceX    forceY    torque
         1         1   -0.9952   -0.0055    2.8459   -4.2278    0.3250
% end

% frame   372
% time 372.0000
% report aster:force
%    class  identity      posX      posY    forceX    forceY    torque
         1         1   -0.9911    0.0038    1.1119   -0.0910    0.0644
% end

% frame   373
% time 373.0000
% report aster:force
%    class  identity      posX      posY    forceX    forceY    torque
         1         1   -1.0043   -0.0087   -2.2820   -5.0208    0.2233
% end

% frame   374
% time 374.0000
% report aster:force
%    class  identity      posX      posY    forceX    forceY    torque
         1         1   -1.0019    0.0077    1.0051   -2.2104   -0.1449
% end

% frame   375
% time 375.0000
% report aster:force
%    class  identity      posX      posY    forceX    forceY    torque
         1         1   -1.0053    0.0189   -1.6873    3.6117   -0.0943
% end

% frame   376
% time 376.0000
% report aster:force
%    class  identity      posX      posY    forceX    forceY    torque
         1         1   -0.9922    0.0090    4.4565    3.0774    0.0614
% end

% frame   377
% time 377.0000
% report aster:force
%    class  identity      posX      posY    forceX    forceY    torque
         1         1   -0.9775   -0.0161    6.1324   -1.6484   -0.1560
% end

% frame   378
% time 378.0000
% report aster:force
%    class  identity      posX      posY    forceX    forceY    torque
         1         1   -0.9996   -0.0026    2.5078   -2.5327    0.0569
% end

% frame   379
% time 379.0000
% report aster:force
%    class  identity      posX      posY    forceX    forceY    torque
         1         1   -0.9788   -0.0020    6.8074   -1.4837   -0.0019
% end

% frame   380
% time 380.0000
% report aster:force
%    class  identity      posX      posY    forceX    forceY    torque
         1         1   -0.9898    0.0127    4.5476    4.2546    0.2070
% end

% frame   381
% time 381.0000
% report aster:force
%    class  identity      posX      posY    forceX    forceY    torque
         1         1   -0.9899    0.0177    1.8739    0.9552    0.1287
% end

% frame   382
% time 382.0000
% report aster:force
%    class  identity      posX      posY    forceX    forceY    torque
         1         1   -1.0026    0.0063    4.0057    2.6145    0.2310
% end

% frame   383
% time 383.0000
% report aster:force
%    class  identity      posX      posY    forceX    forceY    torque
         1         1   -0.9943   -0.0229    6.2543   -1.7702    0.3807
% end

% frame   384
% time 384.0000
% report aster:force
%    class  identity      posX      posY    forceX    forceY    torque
         1         1   -0.9983    0.0032    1.9554    0.7499    0.0156
% end

% frame   385
% time 385.0000
% report aster:force
%    class  identity      posX      posY    forceX    forceY    torque
         1         1   -0.9830    0.0017    5.5247   -2.4691    0.1963
% end

% frame   386
% time 386.0000
% report aster:force
%    class  identity      posX      posY    forceX    forceY    torque
         1         1   -0.9906   -0.0030    7.1496   -2.7684   -0.2545
% end

% frame   387
% time 387.0000
% report aster:force
%    class  identity      posX      posY    forceX    forceY    torque
         1         1   -1.0000   -0.0059   -2.4607   -5.7989    0.0992
% end

% frame   388
% time 388.0000
% report aster:force
%    class  identity      posX      posY    forceX    forceY    torque
         1         1   -1.0017    0.0333    3.1524    1.5073   -0.1966
% end

% frame   389
% time 389.0000
% report aster:force
%    class  identity      posX      posY    forceX    forceY    torque
         1         1   -0.9979    0.0218    1.5671    0.2981   -0.0312
% end

% frame   390
% time 390.0000
% report aster:force
%    class  identity      posX      posY    forceX    forceY    torque
         1         1   -0.9743    0.0099    6.3373    2.7877   -0.1235
% end

% frame   391
% time 391.0000
% report aster:force
%    class  identity      posX      posY    forceX    forceY    torque
         1         1   -1.0004   -0.0027    2.3618   -1.1471    0.2472
% end

% frame   392
% time 392.0000
% report aster:force
%    class  identity      posX      posY    forceX    forceY    torque
         1         1   -0.9898   -0.0124    3.2728    2.5640   -0.1000
% end

% frame   393
% time 393.0000
% report aster:force
%    class  identity      posX      posY    forceX    forceY    torque
         1         1   -1.0095    0.0083    4.1978   -7.2362    0.1591
% end

% frame   394
% time 394.0000
% report aster:force
%    class  identity      posX      posY    forceX    forceY    torque
         1         1   -0.9955   -0.0089    0.8397   -2.4957    0.0832
% end

% frame   395
% time 395.0000
% report aster:force
%    class  identity      posX      posY    forceX    forceY    torque
         1         1   -0.9850    0.0083    4.2580   -0.0293   -0.2187
% end

% frame   396
% time 396.0000
% report aster:force
%    class  identity      posX      posY    forceX    forceY    torque
         1         1   -0.9849    0.0136    2.6288    2.0618   -0.0347
% end

% frame   397
% time 397.0000
% report aster:force
%    class  identity      posX      posY    forceX    forceY    torque
         1         1   -1.0111   -0.0037   -1.2997   -2.9071    0.0436
% end

% frame   398
% time 398.0000
% report aster:force
%    class  identity      posX      posY    forceX    forceY    torque
         1         1   -1.0166    0.0056    2.8031    2.3467    0.4378
% end

% frame   399
% time 399.0000
% report aster:force
%    class  identity      posX      posY    forceX    forceY    torque
         1         1   -1.0004    0.0183   -2.8756    3.3529   -0.1251
% end

% frame   400
% time 400.0000
% report aster:force
%    class  identity      posX      posY    forceX    forceY    torque
         1         1   -1.0050   -0.0157   -1.6609   -7.4191    0.0958
% end

% frame   401
% time 401.0000
% report aster:force
%    class  identity      posX      posY    forceX    forceY    torque
         1         1   -1.0049   -0.0033    0.1432   -4.0906   -0.3456
% end

% frame   402
% time 402.0000
% report aster:force
%    class  identity      posX      posY    forceX    forceY    torque
         1         1   -1.0036    0.0143   -7.4544   -0.3465    0.0994
% end

% frame   403
% time 403.0000
% report aster:force
%    class  identity      posX      posY    forceX    forceY    torque
         1         1   -0.9873   -0.0098    2.9277   -3.4769   -0.0881
% end

% frame   404
% time 404.0000
% report aster:force
%    class  identity      posX      posY    forceX    forceY    torque
         1         1   -0.9915    0.0236    2.8283   -2.1337    0.0570
% end

% frame   405
% time 405.0000
% report aster:force
%    class  identity      posX      posY    forceX    forceY    torque
         1         1   -1.0010    0.0029    3.4974    2.3085    0.3223
% end

% frame   406
% time 406.0000
% report aster:force
%    class  identity      posX      posY    forceX    forceY    torque
         1         1   -1.0048   -0.0054    3.2996   -1.6170   -0.3029
% end

% frame   407
% time 407.0000
% report aster:force
%    class  identity      posX      posY    forceX    forceY    torque
         1         1   -0.9927   -0.0002    3.5564    2.1104    0.1749
% end

% frame   408
% time 408.0000
% report aster:force
%    class  identity      posX      posY    forceX    forceY    torque
         1         1   -1.0036   -0.0001    0.8528    2.4293    0.1094
% end

% frame   409
% time 409.0000
% report aster:force
%    class  identity      posX      posY    forceX    forceY    torque
         1         1   -0.9882   -0.0001    0.9532   -2.6688   -0.0233
% end

% frame   410
% time 410.0000
% report aster:force
%    class  identity      posX      posY    forceX    forceY    torque
         1         1   -1.0042   -0.0076   -0.6591   -1.2362   -0.0843
% end

% frame   411
% time 411.0000
% report aster:force
%    class  identity      posX      posY    forceX    forceY    torque
         1         1   -0.9969    0.0063   -0.2112   -1.3540    0.2211
% end

% frame   412
% time 412.0000
% report aster:force
%    class  identity      posX      posY    forceX    forceY    torque
         1         1   -0.9903    0.0073    2.0937   -1.1991    0.0545
% end

% frame   413
% time 413.0000
% report aster:force
%    class  identity      posX      posY    forceX    forceY    torque
         1         1   -0.9956    0.0056    5.1245    2.2263    0.1378
% end

% frame   414
% time 414.0000
% report aster:force
%    class  identity      posX      posY    forceX    forceY    torque
         1         1   -0.9942   -0.0066   -4.2373   -2.4448   -0.2581
% end

% frame   415
% time 415.0000
% report aster:force
%    class  identity      posX      posY    forceX    forceY    torque
         1         1   -0.9980    0.0080    3.7753    1.5458    0.2270
% end

% frame   416
% time 416.0000
% report aster:force
%    class  identity      posX      posY    forceX    forceY    torque
         1         1   -1.0027   -0.0035    0.7937    0.5204   -0.2908
% end

% frame   417
% time 417.0000
% report aster:force
%    class  identity      posX      posY    forceX    forceY    torque
         1         1   -0.9992   -0.0066   -2.0999   -2.0516   -0.3060
% end

% frame   418
% time 418.0000
% report aster:force
%    class  identity      posX      posY    forceX    forceY    torque
         1         1   -1.0028   -0.0035   -6.3886   -2.7383    0.1303
% end

% frame   419
% time 419.0000
% report aster:force
%    class  identity      posX      posY    forceX    forceY    torque
         1         1   -1.0110   -0.0060   -6.3242   -0.2948   -0.0236
% end

% frame   420
% time 420.0000
% report aster:force
%    class  identity      posX      posY    forceX    forceY    torque
         1         1   -0.9986    0.0171   -1.0762    1.3088    0.1112
% end

% frame   421
% time 421.0000
% report aster:force
%    class  identity      posX      posY    forceX    forceY    torque
         1         1   -1.0026    0.0059   -2.9068   -1.9207    0.0253
% end

% frame   422
% time 422.0000
% report aster:force
%    class  identity      posX      posY    forceX    forceY    torque
         1         1   -0.9873    0.0055   -0.0697   -0.8774    0.2088
% end

% frame   423
% time 423.0000
% report aster:force
%    class  identity      posX      posY    forceX    forceY    torque
         1         1   -1.0079    0.0046    0.8780   -0.2522    0.3537
% end

% frame   424
% time 424.0000
% report aster:force
%    class  identity      posX      posY    forceX    forceY    torque
         1         1   -0.9876    0.0009    2.1279   -1.5418    0.0366
% end

% frame   425
% time 425.0000
% report aster:force
%    class  identity      posX      posY    forceX    forceY    torque
         1         1   -0.9836   -0.0003    1.1365   -1.5800    0.3359
% end

% frame   426
% time 426.0000
% report aster:force
%    class  identity      posX      posY    forceX    forceY    torque
         1         1   -1.0123    0.0141   -4.4191   -3.2684    0.0846
% end

% frame   427
% time 427.0000
% report aster:force
%    class  identity      posX      posY    forceX    forceY    torque
         1         1   -1.0044    0.0107    3.6317    3.9289   -0.0669
% end

% frame   428
% time 428.0000
% report aster:force
%    class  identity      posX      posY    forceX    forceY    torque
         1         1   -1.0201    0.0078   -0.5329    2.7286    0.3499
% end

% frame   429
% time 429.0000
% report aster:force
%    class  identity      posX      posY    forceX    forceY    torque
         1         1   -0.9955   -0.0068    4.6769   -5.6089   -0.1848
% end

% frame   430
% time 430.0000
% report aster:force
%    class  identity      posX      posY    forceX    forceY    torque
         1         1   -0.9973    0.0095   -4.7443   -0.4033   -0.3665
% end

% frame   431
% time 431.0000
% report aster:force
%    class  identity      posX      posY    forceX    forceY    torque
         1         1   -0.9950    0.0021    7.1165   -1.6311   -0.1997
% end

% frame   432
% time 432.0000
% report aster:force
%    class  identity      posX      posY    forceX    forceY    torque
         1         1   -0.9976    0.0001    2.4716   -3.0696    0.2563
% end

% frame   433
% time 433.0000
% report aster:force
%    class  identity      posX      posY    forceX    forceY    torque
         1         1   -1.0015    0.0026    4.1119   -1.3213    0.4926
% end

% frame   434
% time 434.0000
% report aster:force
%    class  identity      posX      posY    forceX    forceY    torque
         1         1   -1.0064   -0.0069    0.2086    1.8968    0.0854
% end

% frame   435
% time 435.0000
% report aster:force
%    class  identity      posX      posY    forceX    forceY    torque
         1         1   -0.9965    0.0026    7.8433    2.1799    0.0968
% end

% frame   436
% time 436.0000
% report aster:force
%    class  identity      posX      posY    forceX    forceY    torque
         1         1   -0.9969   -0.0061   -1.0221   -1.0155    0.2782
% end

% frame   437
% time 437.0000
% report aster:force
%    class  identity      posX      posY    forceX    forceY    torque
         1         1   -1.0030    0.0143   -3.8318    1.5821   -0.0784
% end

% frame   438
% time 438.0000
% report aster:force
%    class  identity      posX      posY    forceX    forceY    torque
         1         1   -1.0111    0.0032   -0.7714   -4.4723   -0.0295
% end

% frame   439
% time 439.0000
% report aster:force
%    class  identity      posX      posY    forceX    forceY    torque
         1         1   -0.9974    0.0056    3.2727   -0.9062    0.1462
% end

% frame   440
% time 440.0000
% report aster:force
%    class  identity      posX      posY    forceX    forceY    torque
         1         1   -0.9965    0.0065    3.9113    2.3291    0.1629
% end

% frame   441
% time 441.0000
% report aster:force
%    class  identity      posX      posY    forceX    forceY    torque
         1         1   -0.9976    0.0086   -1.1460   -1.1075    0.2259
% end

% frame   442
% time 442.0000
% report aster:force
%    class  identity      posX      posY    forceX    forceY    torque
         1         1   -0.9865    0.0107    5.7781   -1.4498    0.3125
% end

% frame   443
% time 443.0000
% report aster:force
%    class  identity      posX      posY    forceX    forceY    torque
         1         1   -0.9927   -0.0158    5.1941   -5.4347    0.0629
% end

% frame   444
% time 444.0000
% report aster:force
%    class  identity      posX      posY    forceX    forceY    torque
         1         1   -0.9890    0.0028    4.4769    2.5249   -0.2119
% end

% frame   445
% time 445.0000
% report aster:force
%    class  identity      posX      posY    forceX    forceY    torque
         1         1   -0.9921    0.0005    4.4547    0.5507   -0.0009
% end

% frame   446
% time 446.0000
% report aster:force
%    class  identity      posX      posY    forceX    forceY    torque
         1         1   -0.9869   -0.0108    6.5162   -4.6508   -0.1043
% end

% frame   447
% time 447.0000
% report aster:force
%    class  identity      posX      posY    forceX    forceY    torque
         1         1   -0.9920    0.0095    1.9945    0.8681   -0.1906
% end

% frame   448
% time 448.0000
% report aster:force
%    class  identity      posX      posY    forceX    forceY    torque
         1         1   -0.9930   -0.0166    7.0210   -4.2182    0.2516
% end

% frame   449
% time 449.0000
% report aster:force
%    class  identity      posX      posY    forceX    forceY    torque
         1         1   -0.9970    0.0038    3.9739   -2.3091    0.1880
% end

% frame   450
% time 450.0000
% report aster:force
%    class  identity      posX      posY    forceX    forceY    torque
         1         1   -0.9938   -0.0039   -5.1551   -0.9479   -0.4173
% end

% frame   451
% time 451.0000
% report aster:force
%    class  identity      posX      posY    forceX    forceY    torque
         1         1   -1.0035   -0.0061   -0.3625   -6.3435    0.0294
% end

% frame   452
% time 452.0000
% report aster:force
%    class  identity      posX      posY    forceX    forceY    torque
         1         1   -0.9987   -0.0063    5.0945    0.4883    0.2386
% end

% frame   453
% time 453.0000
% report aster:force
%    class  identity      posX      posY    forceX    forceY    torque
         1         1   -0.9831    0.0108   12.0080    2.9692   -0.1031
% end

% frame   454
% time 454.0000
% report aster:force
%    class  identity      posX      posY    forceX    forceY    torque
         1         1   -1.0090   -0.0003    1.4682    1.0635   -0.1839
% end

% frame   455
% time 455.0000
% report aster:force
%    class  identity      posX      posY    forceX    forceY    torque
         1         1   -0.9960    0.0085    6.1344    1.4438    0.1564
% end

% frame   456
% time 456.0000
% report aster:force
%    class  identity      posX      posY    forceX    forceY    torque
         1         1   -0.9996   -0.0023    0.2390    0.5263    0.0646
% end

% frame   457
% time 457.0000
% report aster:force
%    class  identity      posX      posY    forceX    forceY    torque
         1         1   -0.9895    0.0080    5.0446    7.6929    0.3259
% end

% frame   458
% time 458.0000
% report aster:force
%    class  identity      posX      posY    forceX    forceY    torque
         1         1   -1.0071   -0.0033    1.3648   -5.2967   -0.0815
% end

% frame   459
% time 459.0000
% report aster:force
%    class  identity      posX      posY    forceX    forceY    torque
         1         1   -0.9968    0.0126   -2.8383    1.1684   -0.1359
% end

% frame   460
% time 460.0000
% report aster:force
%    class  identity      posX      posY    forceX    forceY    torque
         1         1   -0.9773    0.0052   -1.3320   -4.4240   -0.1594
% end

% frame   461
% time 461.0000
% report aster:force
%    class  identity      posX      posY    forceX    forceY    torque
         1         1   -0.9868    0.0138    2.1277    1.5443    0.2716
% end

% frame   462
% time 462.0000
% report aster:force
%    class  identity      posX      posY    forceX    forceY    torque
         1         1   -0.9919    0.0063    2.6088    1.5586    0.1316
% end

% frame   463
% time 463.0000
% report aster:force
%    class  identity      posX      posY    forceX    forceY    torque
         1         1   -0.9963   -0.0056    0.2139   -3.1769    0.2323
% end

% frame   464
% time 464.0000
% report aster:force
%    class  identity      posX      posY    forceX    forceY    torque
         1         1   -1.0038    0.0067   -0.3932   -3.2318    0.3133
% end

% frame   465
% time 465.0000
% report aster:force
%    class  identity      posX      posY    forceX    forceY    torque
         1         1   -1.0069   -0.0053   -1.0319   -9.0152   -0.1687
% end

% frame   466
% time 466.0000
% report aster:force
%    class  identity      posX      posY    forceX    forceY    torque
         1         1   -1.0071    0.0090    2.0787    3.0835   -0.1530
% end

% frame   467
% time 467.0000
% report aster:force
%    class  identity      posX      posY    forceX    forceY    torque
         1         1   -0.9896   -0.0025    7.9548   -0.7953    0.4666
% end

% frame   468
% time 468.0000
% report aster:force
%    class  identity      posX      posY    forceX    forceY    torque
         1         1   -0.9810   -0.0086   10.0750   -5.5595   -0.3898
% end

% frame   469
% time 469.0000
% report aster:force
%    class  identity      posX      posY    forceX    forceY    torque
         1         1   -0.9903   -0.0003   -1.3972   -1.5289    0.1510
% end

% frame   470
% time 470.0000
% report aster:force
%    class  identity      posX      posY    forceX    forceY    torque
         1         1   -0.9904    0.0117    8.3166    2.2117    0.1232
% end

% frame   471
% time 471.0000
% report aster:force
%    class  identity      posX      posY    forceX    forceY    torque
         1         1   -1.0017    0.0131    2.6825   -2.8993    0.4319
% end

% frame   472
% time 472.0000
% report aster:force
%    class  identity      posX      posY    forceX    forceY    torque
         1         1   -0.9860    0.0156    9.0731    3.9842    0.1591
% end

% frame   473
% time 473.0000
% report aster:force
%    class  identity      posX      posY    forceX    forceY    torque
         1         1   -0.9834   -0.0016    5.1856    0.1225    0.5311
% end

% frame   474
% time 474.0000
% report aster:force
%    class  identity      posX      posY    forceX    forceY    torque
         1         1   -0.9949   -0.0005    5.9382   -1.5739    0.3036
% end

% frame   475
% time 475.0000
% report aster:force
%    class  identity      posX      posY    forceX    forceY    torque
         1         1   -1.0032    0.0006   -4.8676    0.0599   -0.2312
% end

% frame   476
% time 476.0000
% report aster:force
%    class  identity      posX      posY    forceX    forceY    torque
         1         1   -0.9948   -0.0112    6.6094   -1.2726    0.1025
% end

% frame   477
% time 477.0000
% report aster:force
%    class  identity      posX      posY    forceX    forceY    torque
         1         1   -1.0016    0.0080    2.2944    0.0918   -0.0369
% end

% frame   478
% time 478.0000
% report aster:force
%    class  identity      posX      posY    forceX    forceY    torque
         1         1   -1.0011   -0.0178   -1.7022   -3.0935   -0.0405
% end

% frame   479
% time 479.0000
% report aster:force
%    class  identity      posX      posY    forceX    forceY    torque
         1         1   -1.0149    0.0086   -3.1745   -3.9206    0.1341
% end

% frame   480
% time 480.0000
% report aster:force
%    class  identity      posX      posY    forceX    forceY    torque
         1         1   -0.9991    0.0073    6.6232    5.5559    0.2036
% end

% frame   481
% time 481.0000
% report aster:force
%    class  identity      posX      posY    forceX    forceY    torque
         1         1   -0.9909    0.0106    3.9362    1.0772    0.2022
% end

% frame   482
% time 482.0000
% report aster:force
%    class  identity      posX      posY    forceX    forceY    torque
         1         1   -1.0066    0.0009    4.0001   -4.7553   -0.0030
% end

% frame   483
% time 483.0000
% report aster:force
%    class  identity      posX      posY    forceX    forceY    torque
         1         1   -0.9836    0.0156    7.1123   -2.8647    0.0198
% end

% frame   484
% time 484.0000
% report aster:force
%    class  identity      posX      posY    forceX    forceY    torque
         1         1   -0.9915    0.0129    2.7294   -2.4339    0.5237
% end

% frame   485
% time 485.0000
% report aster:force
%    class  identity      posX      posY    forceX    forceY    torque
         1         1   -0.9978   -0.0006   -0.7803   -1.4741    0.0946
% end

% frame   486
% time 486.0000
% report aster:force
%    class  identity      posX      posY    forceX    forceY    torque
         1         1   -1.0020    0.0105   -1.9391    2.5391   -0.3447
% end

% frame   487
% time 487.0000
% report aster:force
%    class  identity      posX      posY    forceX    forceY    torque
         1         1   -0.9872   -0.0137    2.3939   -1.1440   -0.0307
% end

% frame   488
% time 488.0000
% report aster:force
%    class  identity      posX      posY    forceX    forceY    torque
         1         1   -0.9908   -0.0090    3.6595   -3.0981   -0.0163
% end

% frame   489
% time 489.0000
% report aster:force
%    class  identity      posX      posY    forceX    forceY    torque
         1         1   -0.9964   -0.0032    2.2534    1.0171    0.0388
% end

% frame   490
% time 490.0000
% report aster:force
%    class  identity      posX      posY    forceX    forceY    torque
         1         1   -0.9947    0.0102    4.1718   -6.7521    0.2605
% end

% frame   491
% time 491.0000
% report aster:force
%    class  identity      posX      posY    forceX    forceY    torque
         1         1   -0.9934    0.0175    2.6414   -1.3762    0.2631
% end

% frame   492
% time 492.0000
% report aster:force
%    class  identity      posX      posY    forceX    forceY    torque
         1         1   -0.9997    0.0058   -2.4655    5.2264   -0.3627
% end

% frame   493
% time 493.0000
% report aster:force
%    class  identity      posX      posY    forceX    forceY    torque
         1         1   -0.9842   -0.0175    5.6458   -3.5014   -0.0618
% end

% frame   494
% time 494.0000
% report aster:force
%    class  identity      posX      posY    forceX    forceY    torque
         1         1   -0.9955    0.0005    2.0012   -0.5041    0.4964
% end

% frame   495
% time 495.0000
% report aster:force
%    class  identity      posX      posY    forceX    forceY    torque
         1         1   -0.9940   -0.0088    6.9735   -1.4356    0.0238
% end

% frame   496
% time 496.0000
% report aster:force
%    class  identity      posX      posY    forceX    forceY    torque
         1         1   -0.9981   -0.0007    3.4219   -2.2256   -0.3489
% end

% frame   497
% time 497.0000
% report aster:force
%    class  identity      posX      posY    forceX    forceY    torque
         1         1   -0.9973    0.0003    2.5342   -0.5365   -0.2154
% end

% frame   498
% time 498.0000
% report aster:force
%    class  identity      posX      posY    forceX    forceY    torque
         1         1   -1.0015    0.0098    4.6707   -4.7482    0.0651
% end

% frame   499
% time 499.0000
% report aster:force
%    class  identity      posX      posY    forceX    forceY    torque
         1         1   -1.0057   -0.0035   -1.1629   -1.7009    0.0692
% end

% frame   500
% time 500.0000
% report aster:force
%    class  identity      posX      posY    forceX    forceY    torque
         1         1   -1.0023   -0.0050    3.4200   -2.9707   -0.2990
% end
