
% frame   0
% time 0.0000
% report space:tweezers
   tweezer         2   tweezer
% tweezer position
0.0000 -1.8750
% tweezer frequency
0.0000
% tweezer amplitude
0.0000

% end

% frame   1
% time 1.0000
% report space:tweezers
   tweezer         2   tweezer
% tweezer position
0.0000 -1.8750
% tweezer frequency
0.0000
% tweezer amplitude
0.0000

% end

% frame   2
% time 2.0000
% report space:tweezers
   tweezer         2   tweezer
% tweezer position
0.0000 -1.8750
% tweezer frequency
0.0000
% tweezer amplitude
0.0000

% end

% frame   3
% time 3.0000
% report space:tweezers
   tweezer         2   tweezer
% tweezer position
0.0000 -1.8750
% tweezer frequency
0.0000
% tweezer amplitude
0.0000

% end

% frame   4
% time 4.0000
% report space:tweezers
   tweezer         2   tweezer
% tweezer position
0.0000 -1.8750
% tweezer frequency
0.0000
% tweezer amplitude
0.0000

% end

% frame   5
% time 5.0000
% report space:tweezers
   tweezer         2   tweezer
% tweezer position
0.0000 -1.8750
% tweezer frequency
0.0000
% tweezer amplitude
0.0000

% end

% frame   6
% time 6.0000
% report space:tweezers
   tweezer         2   tweezer
% tweezer position
0.0000 -1.8750
% tweezer frequency
0.0000
% tweezer amplitude
0.0000

% end

% frame   7
% time 7.0000
% report space:tweezers
   tweezer         2   tweezer
% tweezer position
0.0000 -1.8750
% tweezer frequency
0.0000
% tweezer amplitude
0.0000

% end

% frame   8
% time 8.0000
% report space:tweezers
   tweezer         2   tweezer
% tweezer position
0.0000 -1.8750
% tweezer frequency
0.0000
% tweezer amplitude
0.0000

% end

% frame   9
% time 9.0000
% report space:tweezers
   tweezer         2   tweezer
% tweezer position
0.0000 -1.8750
% tweezer frequency
0.0000
% tweezer amplitude
0.0000

% end

% frame   10
% time 10.0000
% report space:tweezers
   tweezer         2   tweezer
% tweezer position
0.0000 -1.8750
% tweezer frequency
0.0000
% tweezer amplitude
0.0000

% end

% frame   11
% time 11.0000
% report space:tweezers
   tweezer         2   tweezer
% tweezer position
0.0000 -1.8750
% tweezer frequency
0.0000
% tweezer amplitude
0.0000

% end

% frame   12
% time 12.0000
% report space:tweezers
   tweezer         2   tweezer
% tweezer position
0.0000 -1.8750
% tweezer frequency
0.0000
% tweezer amplitude
0.0000

% end

% frame   13
% time 13.0000
% report space:tweezers
   tweezer         2   tweezer
% tweezer position
0.0000 -1.8750
% tweezer frequency
0.0000
% tweezer amplitude
0.0000

% end

% frame   14
% time 14.0000
% report space:tweezers
   tweezer         2   tweezer
% tweezer position
0.0000 -1.8750
% tweezer frequency
0.0000
% tweezer amplitude
0.0000

% end

% frame   15
% time 15.0000
% report space:tweezers
   tweezer         2   tweezer
% tweezer position
0.0000 -1.8750
% tweezer frequency
0.0000
% tweezer amplitude
0.0000

% end

% frame   16
% time 16.0000
% report space:tweezers
   tweezer         2   tweezer
% tweezer position
0.0000 -1.8750
% tweezer frequency
0.0000
% tweezer amplitude
0.0000

% end

% frame   17
% time 17.0000
% report space:tweezers
   tweezer         2   tweezer
% tweezer position
0.0000 -1.8750
% tweezer frequency
0.0000
% tweezer amplitude
0.0000

% end

% frame   18
% time 18.0000
% report space:tweezers
   tweezer         2   tweezer
% tweezer position
0.0000 -1.8750
% tweezer frequency
0.0000
% tweezer amplitude
0.0000

% end

% frame   19
% time 19.0000
% report space:tweezers
   tweezer         2   tweezer
% tweezer position
0.0000 -1.8750
% tweezer frequency
0.0000
% tweezer amplitude
0.0000

% end

% frame   20
% time 20.0000
% report space:tweezers
   tweezer         2   tweezer
% tweezer position
0.0000 -1.8750
% tweezer frequency
0.0000
% tweezer amplitude
0.0000

% end

% frame   21
% time 21.0000
% report space:tweezers
   tweezer         2   tweezer
% tweezer position
0.0000 -1.8750
% tweezer frequency
0.0000
% tweezer amplitude
0.0000

% end

% frame   22
% time 22.0000
% report space:tweezers
   tweezer         2   tweezer
% tweezer position
0.0000 -1.8750
% tweezer frequency
0.0000
% tweezer amplitude
0.0000

% end

% frame   23
% time 23.0000
% report space:tweezers
   tweezer         2   tweezer
% tweezer position
0.0000 -1.8750
% tweezer frequency
0.0000
% tweezer amplitude
0.0000

% end

% frame   24
% time 24.0000
% report space:tweezers
   tweezer         2   tweezer
% tweezer position
0.0000 -1.8750
% tweezer frequency
0.0000
% tweezer amplitude
0.0000

% end

% frame   25
% time 25.0000
% report space:tweezers
   tweezer         2   tweezer
% tweezer position
0.0000 -1.8750
% tweezer frequency
0.0000
% tweezer amplitude
0.0000

% end

% frame   26
% time 26.0000
% report space:tweezers
   tweezer         2   tweezer
% tweezer position
0.0000 -1.8750
% tweezer frequency
0.0000
% tweezer amplitude
0.0000

% end

% frame   27
% time 27.0000
% report space:tweezers
   tweezer         2   tweezer
% tweezer position
0.0000 -1.8750
% tweezer frequency
0.0000
% tweezer amplitude
0.0000

% end

% frame   28
% time 28.0000
% report space:tweezers
   tweezer         2   tweezer
% tweezer position
0.0000 -1.8750
% tweezer frequency
0.0000
% tweezer amplitude
0.0000

% end

% frame   29
% time 29.0000
% report space:tweezers
   tweezer         2   tweezer
% tweezer position
0.0000 -1.8750
% tweezer frequency
0.0000
% tweezer amplitude
0.0000

% end

% frame   30
% time 30.0000
% report space:tweezers
   tweezer         2   tweezer
% tweezer position
0.0000 -1.8750
% tweezer frequency
0.0000
% tweezer amplitude
0.0000

% end

% frame   31
% time 31.0000
% report space:tweezers
   tweezer         2   tweezer
% tweezer position
0.0000 -1.8750
% tweezer frequency
0.0000
% tweezer amplitude
0.0000

% end

% frame   32
% time 32.0000
% report space:tweezers
   tweezer         2   tweezer
% tweezer position
0.0000 -1.8750
% tweezer frequency
0.0000
% tweezer amplitude
0.0000

% end

% frame   33
% time 33.0000
% report space:tweezers
   tweezer         2   tweezer
% tweezer position
0.0000 -1.8750
% tweezer frequency
0.0000
% tweezer amplitude
0.0000

% end

% frame   34
% time 34.0000
% report space:tweezers
   tweezer         2   tweezer
% tweezer position
0.0000 -1.8750
% tweezer frequency
0.0000
% tweezer amplitude
0.0000

% end

% frame   35
% time 35.0000
% report space:tweezers
   tweezer         2   tweezer
% tweezer position
0.0000 -1.8750
% tweezer frequency
0.0000
% tweezer amplitude
0.0000

% end

% frame   36
% time 36.0000
% report space:tweezers
   tweezer         2   tweezer
% tweezer position
0.0000 -1.8750
% tweezer frequency
0.0000
% tweezer amplitude
0.0000

% end

% frame   37
% time 37.0000
% report space:tweezers
   tweezer         2   tweezer
% tweezer position
0.0000 -1.8750
% tweezer frequency
0.0000
% tweezer amplitude
0.0000

% end

% frame   38
% time 38.0000
% report space:tweezers
   tweezer         2   tweezer
% tweezer position
0.0000 -1.8750
% tweezer frequency
0.0000
% tweezer amplitude
0.0000

% end

% frame   39
% time 39.0000
% report space:tweezers
   tweezer         2   tweezer
% tweezer position
0.0000 -1.8750
% tweezer frequency
0.0000
% tweezer amplitude
0.0000

% end

% frame   40
% time 40.0000
% report space:tweezers
   tweezer         2   tweezer
% tweezer position
0.0000 -1.8750
% tweezer frequency
0.0000
% tweezer amplitude
0.0000

% end

% frame   41
% time 41.0000
% report space:tweezers
   tweezer         2   tweezer
% tweezer position
0.0000 -1.8750
% tweezer frequency
0.0000
% tweezer amplitude
0.0000

% end

% frame   42
% time 42.0000
% report space:tweezers
   tweezer         2   tweezer
% tweezer position
0.0000 -1.8750
% tweezer frequency
0.0000
% tweezer amplitude
0.0000

% end

% frame   43
% time 43.0000
% report space:tweezers
   tweezer         2   tweezer
% tweezer position
0.0000 -1.8750
% tweezer frequency
0.0000
% tweezer amplitude
0.0000

% end

% frame   44
% time 44.0000
% report space:tweezers
   tweezer         2   tweezer
% tweezer position
0.0000 -1.8750
% tweezer frequency
0.0000
% tweezer amplitude
0.0000

% end

% frame   45
% time 45.0000
% report space:tweezers
   tweezer         2   tweezer
% tweezer position
0.0000 -1.8750
% tweezer frequency
0.0000
% tweezer amplitude
0.0000

% end

% frame   46
% time 46.0000
% report space:tweezers
   tweezer         2   tweezer
% tweezer position
0.0000 -1.8750
% tweezer frequency
0.0000
% tweezer amplitude
0.0000

% end

% frame   47
% time 47.0000
% report space:tweezers
   tweezer         2   tweezer
% tweezer position
0.0000 -1.8750
% tweezer frequency
0.0000
% tweezer amplitude
0.0000

% end

% frame   48
% time 48.0000
% report space:tweezers
   tweezer         2   tweezer
% tweezer position
0.0000 -1.8750
% tweezer frequency
0.0000
% tweezer amplitude
0.0000

% end

% frame   49
% time 49.0000
% report space:tweezers
   tweezer         2   tweezer
% tweezer position
0.0000 -1.8750
% tweezer frequency
0.0000
% tweezer amplitude
0.0000

% end

% frame   50
% time 50.0000
% report space:tweezers
   tweezer         2   tweezer
% tweezer position
0.0000 -1.8750
% tweezer frequency
0.0000
% tweezer amplitude
0.0000

% end

% frame   51
% time 51.0000
% report space:tweezers
   tweezer         2   tweezer
% tweezer position
0.0000 -1.8750
% tweezer frequency
0.0000
% tweezer amplitude
0.0000

% end

% frame   52
% time 52.0000
% report space:tweezers
   tweezer         2   tweezer
% tweezer position
0.0000 -1.8750
% tweezer frequency
0.0000
% tweezer amplitude
0.0000

% end

% frame   53
% time 53.0000
% report space:tweezers
   tweezer         2   tweezer
% tweezer position
0.0000 -1.8750
% tweezer frequency
0.0000
% tweezer amplitude
0.0000

% end

% frame   54
% time 54.0000
% report space:tweezers
   tweezer         2   tweezer
% tweezer position
0.0000 -1.8750
% tweezer frequency
0.0000
% tweezer amplitude
0.0000

% end

% frame   55
% time 55.0000
% report space:tweezers
   tweezer         2   tweezer
% tweezer position
0.0000 -1.8750
% tweezer frequency
0.0000
% tweezer amplitude
0.0000

% end

% frame   56
% time 56.0000
% report space:tweezers
   tweezer         2   tweezer
% tweezer position
0.0000 -1.8750
% tweezer frequency
0.0000
% tweezer amplitude
0.0000

% end

% frame   57
% time 57.0000
% report space:tweezers
   tweezer         2   tweezer
% tweezer position
0.0000 -1.8750
% tweezer frequency
0.0000
% tweezer amplitude
0.0000

% end

% frame   58
% time 58.0000
% report space:tweezers
   tweezer         2   tweezer
% tweezer position
0.0000 -1.8750
% tweezer frequency
0.0000
% tweezer amplitude
0.0000

% end

% frame   59
% time 59.0000
% report space:tweezers
   tweezer         2   tweezer
% tweezer position
0.0000 -1.8750
% tweezer frequency
0.0000
% tweezer amplitude
0.0000

% end

% frame   60
% time 60.0000
% report space:tweezers
   tweezer         2   tweezer
% tweezer position
0.0000 -1.8750
% tweezer frequency
0.0000
% tweezer amplitude
0.0000

% end

% frame   61
% time 61.0000
% report space:tweezers
   tweezer         2   tweezer
% tweezer position
0.0000 -1.8750
% tweezer frequency
0.0000
% tweezer amplitude
0.0000

% end

% frame   62
% time 62.0000
% report space:tweezers
   tweezer         2   tweezer
% tweezer position
0.0000 -1.8750
% tweezer frequency
0.0000
% tweezer amplitude
0.0000

% end

% frame   63
% time 63.0000
% report space:tweezers
   tweezer         2   tweezer
% tweezer position
0.0000 -1.8750
% tweezer frequency
0.0000
% tweezer amplitude
0.0000

% end

% frame   64
% time 64.0000
% report space:tweezers
   tweezer         2   tweezer
% tweezer position
0.0000 -1.8750
% tweezer frequency
0.0000
% tweezer amplitude
0.0000

% end

% frame   65
% time 65.0000
% report space:tweezers
   tweezer         2   tweezer
% tweezer position
0.0000 -1.8750
% tweezer frequency
0.0000
% tweezer amplitude
0.0000

% end

% frame   66
% time 66.0000
% report space:tweezers
   tweezer         2   tweezer
% tweezer position
0.0000 -1.8750
% tweezer frequency
0.0000
% tweezer amplitude
0.0000

% end

% frame   67
% time 67.0000
% report space:tweezers
   tweezer         2   tweezer
% tweezer position
0.0000 -1.8750
% tweezer frequency
0.0000
% tweezer amplitude
0.0000

% end

% frame   68
% time 68.0000
% report space:tweezers
   tweezer         2   tweezer
% tweezer position
0.0000 -1.8750
% tweezer frequency
0.0000
% tweezer amplitude
0.0000

% end

% frame   69
% time 69.0000
% report space:tweezers
   tweezer         2   tweezer
% tweezer position
0.0000 -1.8750
% tweezer frequency
0.0000
% tweezer amplitude
0.0000

% end

% frame   70
% time 70.0000
% report space:tweezers
   tweezer         2   tweezer
% tweezer position
0.0000 -1.8750
% tweezer frequency
0.0000
% tweezer amplitude
0.0000

% end

% frame   71
% time 71.0000
% report space:tweezers
   tweezer         2   tweezer
% tweezer position
0.0000 -1.8750
% tweezer frequency
0.0000
% tweezer amplitude
0.0000

% end

% frame   72
% time 72.0000
% report space:tweezers
   tweezer         2   tweezer
% tweezer position
0.0000 -1.8750
% tweezer frequency
0.0000
% tweezer amplitude
0.0000

% end

% frame   73
% time 73.0000
% report space:tweezers
   tweezer         2   tweezer
% tweezer position
0.0000 -1.8750
% tweezer frequency
0.0000
% tweezer amplitude
0.0000

% end

% frame   74
% time 74.0000
% report space:tweezers
   tweezer         2   tweezer
% tweezer position
0.0000 -1.8750
% tweezer frequency
0.0000
% tweezer amplitude
0.0000

% end

% frame   75
% time 75.0000
% report space:tweezers
   tweezer         2   tweezer
% tweezer position
0.0000 -1.8750
% tweezer frequency
0.0000
% tweezer amplitude
0.0000

% end

% frame   76
% time 76.0000
% report space:tweezers
   tweezer         2   tweezer
% tweezer position
0.0000 -1.8750
% tweezer frequency
0.0000
% tweezer amplitude
0.0000

% end

% frame   77
% time 77.0000
% report space:tweezers
   tweezer         2   tweezer
% tweezer position
0.0000 -1.8750
% tweezer frequency
0.0000
% tweezer amplitude
0.0000

% end

% frame   78
% time 78.0000
% report space:tweezers
   tweezer         2   tweezer
% tweezer position
0.0000 -1.8750
% tweezer frequency
0.0000
% tweezer amplitude
0.0000

% end

% frame   79
% time 79.0000
% report space:tweezers
   tweezer         2   tweezer
% tweezer position
0.0000 -1.8750
% tweezer frequency
0.0000
% tweezer amplitude
0.0000

% end

% frame   80
% time 80.0000
% report space:tweezers
   tweezer         2   tweezer
% tweezer position
0.0000 -1.8750
% tweezer frequency
0.0000
% tweezer amplitude
0.0000

% end

% frame   81
% time 81.0000
% report space:tweezers
   tweezer         2   tweezer
% tweezer position
0.0000 -1.8750
% tweezer frequency
0.0000
% tweezer amplitude
0.0000

% end

% frame   82
% time 82.0000
% report space:tweezers
   tweezer         2   tweezer
% tweezer position
0.0000 -1.8750
% tweezer frequency
0.0000
% tweezer amplitude
0.0000

% end

% frame   83
% time 83.0000
% report space:tweezers
   tweezer         2   tweezer
% tweezer position
0.0000 -1.8750
% tweezer frequency
0.0000
% tweezer amplitude
0.0000

% end

% frame   84
% time 84.0000
% report space:tweezers
   tweezer         2   tweezer
% tweezer position
0.0000 -1.8750
% tweezer frequency
0.0000
% tweezer amplitude
0.0000

% end

% frame   85
% time 85.0000
% report space:tweezers
   tweezer         2   tweezer
% tweezer position
0.0000 -1.8750
% tweezer frequency
0.0000
% tweezer amplitude
0.0000

% end

% frame   86
% time 86.0000
% report space:tweezers
   tweezer         2   tweezer
% tweezer position
0.0000 -1.8750
% tweezer frequency
0.0000
% tweezer amplitude
0.0000

% end

% frame   87
% time 87.0000
% report space:tweezers
   tweezer         2   tweezer
% tweezer position
0.0000 -1.8750
% tweezer frequency
0.0000
% tweezer amplitude
0.0000

% end

% frame   88
% time 88.0000
% report space:tweezers
   tweezer         2   tweezer
% tweezer position
0.0000 -1.8750
% tweezer frequency
0.0000
% tweezer amplitude
0.0000

% end

% frame   89
% time 89.0000
% report space:tweezers
   tweezer         2   tweezer
% tweezer position
0.0000 -1.8750
% tweezer frequency
0.0000
% tweezer amplitude
0.0000

% end

% frame   90
% time 90.0000
% report space:tweezers
   tweezer         2   tweezer
% tweezer position
0.0000 -1.8750
% tweezer frequency
0.0000
% tweezer amplitude
0.0000

% end

% frame   91
% time 91.0000
% report space:tweezers
   tweezer         2   tweezer
% tweezer position
0.0000 -1.8750
% tweezer frequency
0.0000
% tweezer amplitude
0.0000

% end

% frame   92
% time 92.0000
% report space:tweezers
   tweezer         2   tweezer
% tweezer position
0.0000 -1.8750
% tweezer frequency
0.0000
% tweezer amplitude
0.0000

% end

% frame   93
% time 93.0000
% report space:tweezers
   tweezer         2   tweezer
% tweezer position
0.0000 -1.8750
% tweezer frequency
0.0000
% tweezer amplitude
0.0000

% end

% frame   94
% time 94.0000
% report space:tweezers
   tweezer         2   tweezer
% tweezer position
0.0000 -1.8750
% tweezer frequency
0.0000
% tweezer amplitude
0.0000

% end

% frame   95
% time 95.0000
% report space:tweezers
   tweezer         2   tweezer
% tweezer position
0.0000 -1.8750
% tweezer frequency
0.0000
% tweezer amplitude
0.0000

% end

% frame   96
% time 96.0000
% report space:tweezers
   tweezer         2   tweezer
% tweezer position
0.0000 -1.8750
% tweezer frequency
0.0000
% tweezer amplitude
0.0000

% end

% frame   97
% time 97.0000
% report space:tweezers
   tweezer         2   tweezer
% tweezer position
0.0000 -1.8750
% tweezer frequency
0.0000
% tweezer amplitude
0.0000

% end

% frame   98
% time 98.0000
% report space:tweezers
   tweezer         2   tweezer
% tweezer position
0.0000 -1.8750
% tweezer frequency
0.0000
% tweezer amplitude
0.0000

% end

% frame   99
% time 99.0000
% report space:tweezers
   tweezer         2   tweezer
% tweezer position
0.0000 -1.8750
% tweezer frequency
0.0000
% tweezer amplitude
0.0000

% end

% frame   100
% time 100.0000
% report space:tweezers
   tweezer         2   tweezer
% tweezer position
0.0000 -1.8750
% tweezer frequency
0.0000
% tweezer amplitude
0.0000

% end

% frame   101
% time 101.0000
% report space:tweezers
   tweezer         2   tweezer
% tweezer position
0.0000 -1.8750
% tweezer frequency
0.0000
% tweezer amplitude
0.0000

% end

% frame   102
% time 102.0000
% report space:tweezers
   tweezer         2   tweezer
% tweezer position
0.0000 -1.8750
% tweezer frequency
0.0000
% tweezer amplitude
0.0000

% end

% frame   103
% time 103.0000
% report space:tweezers
   tweezer         2   tweezer
% tweezer position
0.0000 -1.8750
% tweezer frequency
0.0000
% tweezer amplitude
0.0000

% end

% frame   104
% time 104.0000
% report space:tweezers
   tweezer         2   tweezer
% tweezer position
0.0000 -1.8750
% tweezer frequency
0.0000
% tweezer amplitude
0.0000

% end

% frame   105
% time 105.0000
% report space:tweezers
   tweezer         2   tweezer
% tweezer position
0.0000 -1.8750
% tweezer frequency
0.0000
% tweezer amplitude
0.0000

% end

% frame   106
% time 106.0000
% report space:tweezers
   tweezer         2   tweezer
% tweezer position
0.0000 -1.8750
% tweezer frequency
0.0000
% tweezer amplitude
0.0000

% end

% frame   107
% time 107.0000
% report space:tweezers
   tweezer         2   tweezer
% tweezer position
0.0000 -1.8750
% tweezer frequency
0.0000
% tweezer amplitude
0.0000

% end

% frame   108
% time 108.0000
% report space:tweezers
   tweezer         2   tweezer
% tweezer position
0.0000 -1.8750
% tweezer frequency
0.0000
% tweezer amplitude
0.0000

% end

% frame   109
% time 109.0000
% report space:tweezers
   tweezer         2   tweezer
% tweezer position
0.0000 -1.8750
% tweezer frequency
0.0000
% tweezer amplitude
0.0000

% end

% frame   110
% time 110.0000
% report space:tweezers
   tweezer         2   tweezer
% tweezer position
0.0000 -1.8750
% tweezer frequency
0.0000
% tweezer amplitude
0.0000

% end

% frame   111
% time 111.0000
% report space:tweezers
   tweezer         2   tweezer
% tweezer position
0.0000 -1.8750
% tweezer frequency
0.0000
% tweezer amplitude
0.0000

% end

% frame   112
% time 112.0000
% report space:tweezers
   tweezer         2   tweezer
% tweezer position
0.0000 -1.8750
% tweezer frequency
0.0000
% tweezer amplitude
0.0000

% end

% frame   113
% time 113.0000
% report space:tweezers
   tweezer         2   tweezer
% tweezer position
0.0000 -1.8750
% tweezer frequency
0.0000
% tweezer amplitude
0.0000

% end

% frame   114
% time 114.0000
% report space:tweezers
   tweezer         2   tweezer
% tweezer position
0.0000 -1.8750
% tweezer frequency
0.0000
% tweezer amplitude
0.0000

% end

% frame   115
% time 115.0000
% report space:tweezers
   tweezer         2   tweezer
% tweezer position
0.0000 -1.8750
% tweezer frequency
0.0000
% tweezer amplitude
0.0000

% end

% frame   116
% time 116.0000
% report space:tweezers
   tweezer         2   tweezer
% tweezer position
0.0000 -1.8750
% tweezer frequency
0.0000
% tweezer amplitude
0.0000

% end

% frame   117
% time 117.0000
% report space:tweezers
   tweezer         2   tweezer
% tweezer position
0.0000 -1.8750
% tweezer frequency
0.0000
% tweezer amplitude
0.0000

% end

% frame   118
% time 118.0000
% report space:tweezers
   tweezer         2   tweezer
% tweezer position
0.0000 -1.8750
% tweezer frequency
0.0000
% tweezer amplitude
0.0000

% end

% frame   119
% time 119.0000
% report space:tweezers
   tweezer         2   tweezer
% tweezer position
0.0000 -1.8750
% tweezer frequency
0.0000
% tweezer amplitude
0.0000

% end

% frame   120
% time 120.0000
% report space:tweezers
   tweezer         2   tweezer
% tweezer position
0.0000 -1.8750
% tweezer frequency
0.0000
% tweezer amplitude
0.0000

% end

% frame   121
% time 121.0000
% report space:tweezers
   tweezer         2   tweezer
% tweezer position
0.0000 -1.8750
% tweezer frequency
0.0000
% tweezer amplitude
0.0000

% end

% frame   122
% time 122.0000
% report space:tweezers
   tweezer         2   tweezer
% tweezer position
0.0000 -1.8750
% tweezer frequency
0.0000
% tweezer amplitude
0.0000

% end

% frame   123
% time 123.0000
% report space:tweezers
   tweezer         2   tweezer
% tweezer position
0.0000 -1.8750
% tweezer frequency
0.0000
% tweezer amplitude
0.0000

% end

% frame   124
% time 124.0000
% report space:tweezers
   tweezer         2   tweezer
% tweezer position
0.0000 -1.8750
% tweezer frequency
0.0000
% tweezer amplitude
0.0000

% end

% frame   125
% time 125.0000
% report space:tweezers
   tweezer         2   tweezer
% tweezer position
0.0000 -1.8750
% tweezer frequency
0.0000
% tweezer amplitude
0.0000

% end

% frame   126
% time 126.0000
% report space:tweezers
   tweezer         2   tweezer
% tweezer position
0.0000 -1.8750
% tweezer frequency
0.0000
% tweezer amplitude
0.0000

% end

% frame   127
% time 127.0000
% report space:tweezers
   tweezer         2   tweezer
% tweezer position
0.0000 -1.8750
% tweezer frequency
0.0000
% tweezer amplitude
0.0000

% end

% frame   128
% time 128.0000
% report space:tweezers
   tweezer         2   tweezer
% tweezer position
0.0000 -1.8750
% tweezer frequency
0.0000
% tweezer amplitude
0.0000

% end

% frame   129
% time 129.0000
% report space:tweezers
   tweezer         2   tweezer
% tweezer position
0.0000 -1.8750
% tweezer frequency
0.0000
% tweezer amplitude
0.0000

% end

% frame   130
% time 130.0000
% report space:tweezers
   tweezer         2   tweezer
% tweezer position
0.0000 -1.8750
% tweezer frequency
0.0000
% tweezer amplitude
0.0000

% end

% frame   131
% time 131.0000
% report space:tweezers
   tweezer         2   tweezer
% tweezer position
0.0000 -1.8750
% tweezer frequency
0.0000
% tweezer amplitude
0.0000

% end

% frame   132
% time 132.0000
% report space:tweezers
   tweezer         2   tweezer
% tweezer position
0.0000 -1.8750
% tweezer frequency
0.0000
% tweezer amplitude
0.0000

% end

% frame   133
% time 133.0000
% report space:tweezers
   tweezer         2   tweezer
% tweezer position
0.0000 -1.8750
% tweezer frequency
0.0000
% tweezer amplitude
0.0000

% end

% frame   134
% time 134.0000
% report space:tweezers
   tweezer         2   tweezer
% tweezer position
0.0000 -1.8750
% tweezer frequency
0.0000
% tweezer amplitude
0.0000

% end

% frame   135
% time 135.0000
% report space:tweezers
   tweezer         2   tweezer
% tweezer position
0.0000 -1.8750
% tweezer frequency
0.0000
% tweezer amplitude
0.0000

% end

% frame   136
% time 136.0000
% report space:tweezers
   tweezer         2   tweezer
% tweezer position
0.0000 -1.8750
% tweezer frequency
0.0000
% tweezer amplitude
0.0000

% end

% frame   137
% time 137.0000
% report space:tweezers
   tweezer         2   tweezer
% tweezer position
0.0000 -1.8750
% tweezer frequency
0.0000
% tweezer amplitude
0.0000

% end

% frame   138
% time 138.0000
% report space:tweezers
   tweezer         2   tweezer
% tweezer position
0.0000 -1.8750
% tweezer frequency
0.0000
% tweezer amplitude
0.0000

% end

% frame   139
% time 139.0000
% report space:tweezers
   tweezer         2   tweezer
% tweezer position
0.0000 -1.8750
% tweezer frequency
0.0000
% tweezer amplitude
0.0000

% end

% frame   140
% time 140.0000
% report space:tweezers
   tweezer         2   tweezer
% tweezer position
0.0000 -1.8750
% tweezer frequency
0.0000
% tweezer amplitude
0.0000

% end

% frame   141
% time 141.0000
% report space:tweezers
   tweezer         2   tweezer
% tweezer position
0.0000 -1.8750
% tweezer frequency
0.0000
% tweezer amplitude
0.0000

% end

% frame   142
% time 142.0000
% report space:tweezers
   tweezer         2   tweezer
% tweezer position
0.0000 -1.8750
% tweezer frequency
0.0000
% tweezer amplitude
0.0000

% end

% frame   143
% time 143.0000
% report space:tweezers
   tweezer         2   tweezer
% tweezer position
0.0000 -1.8750
% tweezer frequency
0.0000
% tweezer amplitude
0.0000

% end

% frame   144
% time 144.0000
% report space:tweezers
   tweezer         2   tweezer
% tweezer position
0.0000 -1.8750
% tweezer frequency
0.0000
% tweezer amplitude
0.0000

% end

% frame   145
% time 145.0000
% report space:tweezers
   tweezer         2   tweezer
% tweezer position
0.0000 -1.8750
% tweezer frequency
0.0000
% tweezer amplitude
0.0000

% end

% frame   146
% time 146.0000
% report space:tweezers
   tweezer         2   tweezer
% tweezer position
0.0000 -1.8750
% tweezer frequency
0.0000
% tweezer amplitude
0.0000

% end

% frame   147
% time 147.0000
% report space:tweezers
   tweezer         2   tweezer
% tweezer position
0.0000 -1.8750
% tweezer frequency
0.0000
% tweezer amplitude
0.0000

% end

% frame   148
% time 148.0000
% report space:tweezers
   tweezer         2   tweezer
% tweezer position
0.0000 -1.8750
% tweezer frequency
0.0000
% tweezer amplitude
0.0000

% end

% frame   149
% time 149.0000
% report space:tweezers
   tweezer         2   tweezer
% tweezer position
0.0000 -1.8750
% tweezer frequency
0.0000
% tweezer amplitude
0.0000

% end

% frame   150
% time 150.0000
% report space:tweezers
   tweezer         2   tweezer
% tweezer position
0.0000 -1.8750
% tweezer frequency
0.0000
% tweezer amplitude
0.0000

% end

% frame   151
% time 151.0000
% report space:tweezers
   tweezer         2   tweezer
% tweezer position
0.0000 -1.8750
% tweezer frequency
0.0000
% tweezer amplitude
0.0000

% end

% frame   152
% time 152.0000
% report space:tweezers
   tweezer         2   tweezer
% tweezer position
0.0000 -1.8750
% tweezer frequency
0.0000
% tweezer amplitude
0.0000

% end

% frame   153
% time 153.0000
% report space:tweezers
   tweezer         2   tweezer
% tweezer position
0.0000 -1.8750
% tweezer frequency
0.0000
% tweezer amplitude
0.0000

% end

% frame   154
% time 154.0000
% report space:tweezers
   tweezer         2   tweezer
% tweezer position
0.0000 -1.8750
% tweezer frequency
0.0000
% tweezer amplitude
0.0000

% end

% frame   155
% time 155.0000
% report space:tweezers
   tweezer         2   tweezer
% tweezer position
0.0000 -1.8750
% tweezer frequency
0.0000
% tweezer amplitude
0.0000

% end

% frame   156
% time 156.0000
% report space:tweezers
   tweezer         2   tweezer
% tweezer position
0.0000 -1.8750
% tweezer frequency
0.0000
% tweezer amplitude
0.0000

% end

% frame   157
% time 157.0000
% report space:tweezers
   tweezer         2   tweezer
% tweezer position
0.0000 -1.8750
% tweezer frequency
0.0000
% tweezer amplitude
0.0000

% end

% frame   158
% time 158.0000
% report space:tweezers
   tweezer         2   tweezer
% tweezer position
0.0000 -1.8750
% tweezer frequency
0.0000
% tweezer amplitude
0.0000

% end

% frame   159
% time 159.0000
% report space:tweezers
   tweezer         2   tweezer
% tweezer position
0.0000 -1.8750
% tweezer frequency
0.0000
% tweezer amplitude
0.0000

% end

% frame   160
% time 160.0000
% report space:tweezers
   tweezer         2   tweezer
% tweezer position
0.0000 -1.8750
% tweezer frequency
0.0000
% tweezer amplitude
0.0000

% end

% frame   161
% time 161.0000
% report space:tweezers
   tweezer         2   tweezer
% tweezer position
0.0000 -1.8750
% tweezer frequency
0.0000
% tweezer amplitude
0.0000

% end

% frame   162
% time 162.0000
% report space:tweezers
   tweezer         2   tweezer
% tweezer position
0.0000 -1.8750
% tweezer frequency
0.0000
% tweezer amplitude
0.0000

% end

% frame   163
% time 163.0000
% report space:tweezers
   tweezer         2   tweezer
% tweezer position
0.0000 -1.8750
% tweezer frequency
0.0000
% tweezer amplitude
0.0000

% end

% frame   164
% time 164.0000
% report space:tweezers
   tweezer         2   tweezer
% tweezer position
0.0000 -1.8750
% tweezer frequency
0.0000
% tweezer amplitude
0.0000

% end

% frame   165
% time 165.0000
% report space:tweezers
   tweezer         2   tweezer
% tweezer position
0.0000 -1.8750
% tweezer frequency
0.0000
% tweezer amplitude
0.0000

% end

% frame   166
% time 166.0000
% report space:tweezers
   tweezer         2   tweezer
% tweezer position
0.0000 -1.8750
% tweezer frequency
0.0000
% tweezer amplitude
0.0000

% end

% frame   167
% time 167.0000
% report space:tweezers
   tweezer         2   tweezer
% tweezer position
0.0000 -1.8750
% tweezer frequency
0.0000
% tweezer amplitude
0.0000

% end

% frame   168
% time 168.0000
% report space:tweezers
   tweezer         2   tweezer
% tweezer position
0.0000 -1.8750
% tweezer frequency
0.0000
% tweezer amplitude
0.0000

% end

% frame   169
% time 169.0000
% report space:tweezers
   tweezer         2   tweezer
% tweezer position
0.0000 -1.8750
% tweezer frequency
0.0000
% tweezer amplitude
0.0000

% end

% frame   170
% time 170.0000
% report space:tweezers
   tweezer         2   tweezer
% tweezer position
0.0000 -1.8750
% tweezer frequency
0.0000
% tweezer amplitude
0.0000

% end

% frame   171
% time 171.0000
% report space:tweezers
   tweezer         2   tweezer
% tweezer position
0.0000 -1.8750
% tweezer frequency
0.0000
% tweezer amplitude
0.0000

% end

% frame   172
% time 172.0000
% report space:tweezers
   tweezer         2   tweezer
% tweezer position
0.0000 -1.8750
% tweezer frequency
0.0000
% tweezer amplitude
0.0000

% end

% frame   173
% time 173.0000
% report space:tweezers
   tweezer         2   tweezer
% tweezer position
0.0000 -1.8750
% tweezer frequency
0.0000
% tweezer amplitude
0.0000

% end

% frame   174
% time 174.0000
% report space:tweezers
   tweezer         2   tweezer
% tweezer position
0.0000 -1.8750
% tweezer frequency
0.0000
% tweezer amplitude
0.0000

% end

% frame   175
% time 175.0000
% report space:tweezers
   tweezer         2   tweezer
% tweezer position
0.0000 -1.8750
% tweezer frequency
0.0000
% tweezer amplitude
0.0000

% end

% frame   176
% time 176.0000
% report space:tweezers
   tweezer         2   tweezer
% tweezer position
0.0000 -1.8750
% tweezer frequency
0.0000
% tweezer amplitude
0.0000

% end

% frame   177
% time 177.0000
% report space:tweezers
   tweezer         2   tweezer
% tweezer position
0.0000 -1.8750
% tweezer frequency
0.0000
% tweezer amplitude
0.0000

% end

% frame   178
% time 178.0000
% report space:tweezers
   tweezer         2   tweezer
% tweezer position
0.0000 -1.8750
% tweezer frequency
0.0000
% tweezer amplitude
0.0000

% end

% frame   179
% time 179.0000
% report space:tweezers
   tweezer         2   tweezer
% tweezer position
0.0000 -1.8750
% tweezer frequency
0.0000
% tweezer amplitude
0.0000

% end

% frame   180
% time 180.0000
% report space:tweezers
   tweezer         2   tweezer
% tweezer position
0.0000 -1.8750
% tweezer frequency
0.0000
% tweezer amplitude
0.0000

% end

% frame   181
% time 181.0000
% report space:tweezers
   tweezer         2   tweezer
% tweezer position
0.0000 -1.8750
% tweezer frequency
0.0000
% tweezer amplitude
0.0000

% end

% frame   182
% time 182.0000
% report space:tweezers
   tweezer         2   tweezer
% tweezer position
0.0000 -1.8750
% tweezer frequency
0.0000
% tweezer amplitude
0.0000

% end

% frame   183
% time 183.0000
% report space:tweezers
   tweezer         2   tweezer
% tweezer position
0.0000 -1.8750
% tweezer frequency
0.0000
% tweezer amplitude
0.0000

% end

% frame   184
% time 184.0000
% report space:tweezers
   tweezer         2   tweezer
% tweezer position
0.0000 -1.8750
% tweezer frequency
0.0000
% tweezer amplitude
0.0000

% end

% frame   185
% time 185.0000
% report space:tweezers
   tweezer         2   tweezer
% tweezer position
0.0000 -1.8750
% tweezer frequency
0.0000
% tweezer amplitude
0.0000

% end

% frame   186
% time 186.0000
% report space:tweezers
   tweezer         2   tweezer
% tweezer position
0.0000 -1.8750
% tweezer frequency
0.0000
% tweezer amplitude
0.0000

% end

% frame   187
% time 187.0000
% report space:tweezers
   tweezer         2   tweezer
% tweezer position
0.0000 -1.8750
% tweezer frequency
0.0000
% tweezer amplitude
0.0000

% end

% frame   188
% time 188.0000
% report space:tweezers
   tweezer         2   tweezer
% tweezer position
0.0000 -1.8750
% tweezer frequency
0.0000
% tweezer amplitude
0.0000

% end

% frame   189
% time 189.0000
% report space:tweezers
   tweezer         2   tweezer
% tweezer position
0.0000 -1.8750
% tweezer frequency
0.0000
% tweezer amplitude
0.0000

% end

% frame   190
% time 190.0000
% report space:tweezers
   tweezer         2   tweezer
% tweezer position
0.0000 -1.8750
% tweezer frequency
0.0000
% tweezer amplitude
0.0000

% end

% frame   191
% time 191.0000
% report space:tweezers
   tweezer         2   tweezer
% tweezer position
0.0000 -1.8750
% tweezer frequency
0.0000
% tweezer amplitude
0.0000

% end

% frame   192
% time 192.0000
% report space:tweezers
   tweezer         2   tweezer
% tweezer position
0.0000 -1.8750
% tweezer frequency
0.0000
% tweezer amplitude
0.0000

% end

% frame   193
% time 193.0000
% report space:tweezers
   tweezer         2   tweezer
% tweezer position
0.0000 -1.8750
% tweezer frequency
0.0000
% tweezer amplitude
0.0000

% end

% frame   194
% time 194.0000
% report space:tweezers
   tweezer         2   tweezer
% tweezer position
0.0000 -1.8750
% tweezer frequency
0.0000
% tweezer amplitude
0.0000

% end

% frame   195
% time 195.0000
% report space:tweezers
   tweezer         2   tweezer
% tweezer position
0.0000 -1.8750
% tweezer frequency
0.0000
% tweezer amplitude
0.0000

% end

% frame   196
% time 196.0000
% report space:tweezers
   tweezer         2   tweezer
% tweezer position
0.0000 -1.8750
% tweezer frequency
0.0000
% tweezer amplitude
0.0000

% end

% frame   197
% time 197.0000
% report space:tweezers
   tweezer         2   tweezer
% tweezer position
0.0000 -1.8750
% tweezer frequency
0.0000
% tweezer amplitude
0.0000

% end

% frame   198
% time 198.0000
% report space:tweezers
   tweezer         2   tweezer
% tweezer position
0.0000 -1.8750
% tweezer frequency
0.0000
% tweezer amplitude
0.0000

% end

% frame   199
% time 199.0000
% report space:tweezers
   tweezer         2   tweezer
% tweezer position
0.0000 -1.8750
% tweezer frequency
0.0000
% tweezer amplitude
0.0000

% end

% frame   200
% time 200.0000
% report space:tweezers
   tweezer         2   tweezer
% tweezer position
0.0000 -1.8750
% tweezer frequency
0.0000
% tweezer amplitude
0.0000

% end

% frame   201
% time 201.0000
% report space:tweezers
   tweezer         2   tweezer
% tweezer position
0.0000 -1.8750
% tweezer frequency
0.0000
% tweezer amplitude
0.0000

% end

% frame   202
% time 202.0000
% report space:tweezers
   tweezer         2   tweezer
% tweezer position
0.0000 -1.8750
% tweezer frequency
0.0000
% tweezer amplitude
0.0000

% end

% frame   203
% time 203.0000
% report space:tweezers
   tweezer         2   tweezer
% tweezer position
0.0000 -1.8750
% tweezer frequency
0.0000
% tweezer amplitude
0.0000

% end

% frame   204
% time 204.0000
% report space:tweezers
   tweezer         2   tweezer
% tweezer position
0.0000 -1.8750
% tweezer frequency
0.0000
% tweezer amplitude
0.0000

% end

% frame   205
% time 205.0000
% report space:tweezers
   tweezer         2   tweezer
% tweezer position
0.0000 -1.8750
% tweezer frequency
0.0000
% tweezer amplitude
0.0000

% end

% frame   206
% time 206.0000
% report space:tweezers
   tweezer         2   tweezer
% tweezer position
0.0000 -1.8750
% tweezer frequency
0.0000
% tweezer amplitude
0.0000

% end

% frame   207
% time 207.0000
% report space:tweezers
   tweezer         2   tweezer
% tweezer position
0.0000 -1.8750
% tweezer frequency
0.0000
% tweezer amplitude
0.0000

% end

% frame   208
% time 208.0000
% report space:tweezers
   tweezer         2   tweezer
% tweezer position
0.0000 -1.8750
% tweezer frequency
0.0000
% tweezer amplitude
0.0000

% end

% frame   209
% time 209.0000
% report space:tweezers
   tweezer         2   tweezer
% tweezer position
0.0000 -1.8750
% tweezer frequency
0.0000
% tweezer amplitude
0.0000

% end

% frame   210
% time 210.0000
% report space:tweezers
   tweezer         2   tweezer
% tweezer position
0.0000 -1.8750
% tweezer frequency
0.0000
% tweezer amplitude
0.0000

% end

% frame   211
% time 211.0000
% report space:tweezers
   tweezer         2   tweezer
% tweezer position
0.0000 -1.8750
% tweezer frequency
0.0000
% tweezer amplitude
0.0000

% end

% frame   212
% time 212.0000
% report space:tweezers
   tweezer         2   tweezer
% tweezer position
0.0000 -1.8750
% tweezer frequency
0.0000
% tweezer amplitude
0.0000

% end

% frame   213
% time 213.0000
% report space:tweezers
   tweezer         2   tweezer
% tweezer position
0.0000 -1.8750
% tweezer frequency
0.0000
% tweezer amplitude
0.0000

% end

% frame   214
% time 214.0000
% report space:tweezers
   tweezer         2   tweezer
% tweezer position
0.0000 -1.8750
% tweezer frequency
0.0000
% tweezer amplitude
0.0000

% end

% frame   215
% time 215.0000
% report space:tweezers
   tweezer         2   tweezer
% tweezer position
0.0000 -1.8750
% tweezer frequency
0.0000
% tweezer amplitude
0.0000

% end

% frame   216
% time 216.0000
% report space:tweezers
   tweezer         2   tweezer
% tweezer position
0.0000 -1.8750
% tweezer frequency
0.0000
% tweezer amplitude
0.0000

% end

% frame   217
% time 217.0000
% report space:tweezers
   tweezer         2   tweezer
% tweezer position
0.0000 -1.8750
% tweezer frequency
0.0000
% tweezer amplitude
0.0000

% end

% frame   218
% time 218.0000
% report space:tweezers
   tweezer         2   tweezer
% tweezer position
0.0000 -1.8750
% tweezer frequency
0.0000
% tweezer amplitude
0.0000

% end

% frame   219
% time 219.0000
% report space:tweezers
   tweezer         2   tweezer
% tweezer position
0.0000 -1.8750
% tweezer frequency
0.0000
% tweezer amplitude
0.0000

% end

% frame   220
% time 220.0000
% report space:tweezers
   tweezer         2   tweezer
% tweezer position
0.0000 -1.8750
% tweezer frequency
0.0000
% tweezer amplitude
0.0000

% end

% frame   221
% time 221.0000
% report space:tweezers
   tweezer         2   tweezer
% tweezer position
0.0000 -1.8750
% tweezer frequency
0.0000
% tweezer amplitude
0.0000

% end

% frame   222
% time 222.0000
% report space:tweezers
   tweezer         2   tweezer
% tweezer position
0.0000 -1.8750
% tweezer frequency
0.0000
% tweezer amplitude
0.0000

% end

% frame   223
% time 223.0000
% report space:tweezers
   tweezer         2   tweezer
% tweezer position
0.0000 -1.8750
% tweezer frequency
0.0000
% tweezer amplitude
0.0000

% end

% frame   224
% time 224.0000
% report space:tweezers
   tweezer         2   tweezer
% tweezer position
0.0000 -1.8750
% tweezer frequency
0.0000
% tweezer amplitude
0.0000

% end

% frame   225
% time 225.0000
% report space:tweezers
   tweezer         2   tweezer
% tweezer position
0.0000 -1.8750
% tweezer frequency
0.0000
% tweezer amplitude
0.0000

% end

% frame   226
% time 226.0000
% report space:tweezers
   tweezer         2   tweezer
% tweezer position
0.0000 -1.8750
% tweezer frequency
0.0000
% tweezer amplitude
0.0000

% end

% frame   227
% time 227.0000
% report space:tweezers
   tweezer         2   tweezer
% tweezer position
0.0000 -1.8750
% tweezer frequency
0.0000
% tweezer amplitude
0.0000

% end

% frame   228
% time 228.0000
% report space:tweezers
   tweezer         2   tweezer
% tweezer position
0.0000 -1.8750
% tweezer frequency
0.0000
% tweezer amplitude
0.0000

% end

% frame   229
% time 229.0000
% report space:tweezers
   tweezer         2   tweezer
% tweezer position
0.0000 -1.8750
% tweezer frequency
0.0000
% tweezer amplitude
0.0000

% end

% frame   230
% time 230.0000
% report space:tweezers
   tweezer         2   tweezer
% tweezer position
0.0000 -1.8750
% tweezer frequency
0.0000
% tweezer amplitude
0.0000

% end

% frame   231
% time 231.0000
% report space:tweezers
   tweezer         2   tweezer
% tweezer position
0.0000 -1.8750
% tweezer frequency
0.0000
% tweezer amplitude
0.0000

% end

% frame   232
% time 232.0000
% report space:tweezers
   tweezer         2   tweezer
% tweezer position
0.0000 -1.8750
% tweezer frequency
0.0000
% tweezer amplitude
0.0000

% end

% frame   233
% time 233.0000
% report space:tweezers
   tweezer         2   tweezer
% tweezer position
0.0000 -1.8750
% tweezer frequency
0.0000
% tweezer amplitude
0.0000

% end

% frame   234
% time 234.0000
% report space:tweezers
   tweezer         2   tweezer
% tweezer position
0.0000 -1.8750
% tweezer frequency
0.0000
% tweezer amplitude
0.0000

% end

% frame   235
% time 235.0000
% report space:tweezers
   tweezer         2   tweezer
% tweezer position
0.0000 -1.8750
% tweezer frequency
0.0000
% tweezer amplitude
0.0000

% end

% frame   236
% time 236.0000
% report space:tweezers
   tweezer         2   tweezer
% tweezer position
0.0000 -1.8750
% tweezer frequency
0.0000
% tweezer amplitude
0.0000

% end

% frame   237
% time 237.0000
% report space:tweezers
   tweezer         2   tweezer
% tweezer position
0.0000 -1.8750
% tweezer frequency
0.0000
% tweezer amplitude
0.0000

% end

% frame   238
% time 238.0000
% report space:tweezers
   tweezer         2   tweezer
% tweezer position
0.0000 -1.8750
% tweezer frequency
0.0000
% tweezer amplitude
0.0000

% end

% frame   239
% time 239.0000
% report space:tweezers
   tweezer         2   tweezer
% tweezer position
0.0000 -1.8750
% tweezer frequency
0.0000
% tweezer amplitude
0.0000

% end

% frame   240
% time 240.0000
% report space:tweezers
   tweezer         2   tweezer
% tweezer position
0.0000 -1.8750
% tweezer frequency
0.0000
% tweezer amplitude
0.0000

% end

% frame   241
% time 241.0000
% report space:tweezers
   tweezer         2   tweezer
% tweezer position
0.0000 -1.8750
% tweezer frequency
0.0000
% tweezer amplitude
0.0000

% end

% frame   242
% time 242.0000
% report space:tweezers
   tweezer         2   tweezer
% tweezer position
0.0000 -1.8750
% tweezer frequency
0.0000
% tweezer amplitude
0.0000

% end

% frame   243
% time 243.0000
% report space:tweezers
   tweezer         2   tweezer
% tweezer position
0.0000 -1.8750
% tweezer frequency
0.0000
% tweezer amplitude
0.0000

% end

% frame   244
% time 244.0000
% report space:tweezers
   tweezer         2   tweezer
% tweezer position
0.0000 -1.8750
% tweezer frequency
0.0000
% tweezer amplitude
0.0000

% end

% frame   245
% time 245.0000
% report space:tweezers
   tweezer         2   tweezer
% tweezer position
0.0000 -1.8750
% tweezer frequency
0.0000
% tweezer amplitude
0.0000

% end

% frame   246
% time 246.0000
% report space:tweezers
   tweezer         2   tweezer
% tweezer position
0.0000 -1.8750
% tweezer frequency
0.0000
% tweezer amplitude
0.0000

% end

% frame   247
% time 247.0000
% report space:tweezers
   tweezer         2   tweezer
% tweezer position
0.0000 -1.8750
% tweezer frequency
0.0000
% tweezer amplitude
0.0000

% end

% frame   248
% time 248.0000
% report space:tweezers
   tweezer         2   tweezer
% tweezer position
0.0000 -1.8750
% tweezer frequency
0.0000
% tweezer amplitude
0.0000

% end

% frame   249
% time 249.0000
% report space:tweezers
   tweezer         2   tweezer
% tweezer position
0.0000 -1.8750
% tweezer frequency
0.0000
% tweezer amplitude
0.0000

% end

% frame   250
% time 250.0000
% report space:tweezers
   tweezer         2   tweezer
% tweezer position
0.0000 -1.8750
% tweezer frequency
0.0000
% tweezer amplitude
0.0000

% end

% frame   251
% time 251.0000
% report space:tweezers
   tweezer         2   tweezer
% tweezer position
0.0000 -1.8750
% tweezer frequency
0.0000
% tweezer amplitude
0.0000

% end

% frame   252
% time 252.0000
% report space:tweezers
   tweezer         2   tweezer
% tweezer position
0.0000 -1.8750
% tweezer frequency
0.0000
% tweezer amplitude
0.0000

% end

% frame   253
% time 253.0000
% report space:tweezers
   tweezer         2   tweezer
% tweezer position
0.0000 -1.8750
% tweezer frequency
0.0000
% tweezer amplitude
0.0000

% end

% frame   254
% time 254.0000
% report space:tweezers
   tweezer         2   tweezer
% tweezer position
0.0000 -1.8750
% tweezer frequency
0.0000
% tweezer amplitude
0.0000

% end

% frame   255
% time 255.0000
% report space:tweezers
   tweezer         2   tweezer
% tweezer position
0.0000 -1.8750
% tweezer frequency
0.0000
% tweezer amplitude
0.0000

% end

% frame   256
% time 256.0000
% report space:tweezers
   tweezer         2   tweezer
% tweezer position
0.0000 -1.8750
% tweezer frequency
0.0000
% tweezer amplitude
0.0000

% end

% frame   257
% time 257.0000
% report space:tweezers
   tweezer         2   tweezer
% tweezer position
0.0000 -1.8750
% tweezer frequency
0.0000
% tweezer amplitude
0.0000

% end

% frame   258
% time 258.0000
% report space:tweezers
   tweezer         2   tweezer
% tweezer position
0.0000 -1.8750
% tweezer frequency
0.0000
% tweezer amplitude
0.0000

% end

% frame   259
% time 259.0000
% report space:tweezers
   tweezer         2   tweezer
% tweezer position
0.0000 -1.8750
% tweezer frequency
0.0000
% tweezer amplitude
0.0000

% end

% frame   260
% time 260.0000
% report space:tweezers
   tweezer         2   tweezer
% tweezer position
0.0000 -1.8750
% tweezer frequency
0.0000
% tweezer amplitude
0.0000

% end

% frame   261
% time 261.0000
% report space:tweezers
   tweezer         2   tweezer
% tweezer position
0.0000 -1.8750
% tweezer frequency
0.0000
% tweezer amplitude
0.0000

% end

% frame   262
% time 262.0000
% report space:tweezers
   tweezer         2   tweezer
% tweezer position
0.0000 -1.8750
% tweezer frequency
0.0000
% tweezer amplitude
0.0000

% end

% frame   263
% time 263.0000
% report space:tweezers
   tweezer         2   tweezer
% tweezer position
0.0000 -1.8750
% tweezer frequency
0.0000
% tweezer amplitude
0.0000

% end

% frame   264
% time 264.0000
% report space:tweezers
   tweezer         2   tweezer
% tweezer position
0.0000 -1.8750
% tweezer frequency
0.0000
% tweezer amplitude
0.0000

% end

% frame   265
% time 265.0000
% report space:tweezers
   tweezer         2   tweezer
% tweezer position
0.0000 -1.8750
% tweezer frequency
0.0000
% tweezer amplitude
0.0000

% end

% frame   266
% time 266.0000
% report space:tweezers
   tweezer         2   tweezer
% tweezer position
0.0000 -1.8750
% tweezer frequency
0.0000
% tweezer amplitude
0.0000

% end

% frame   267
% time 267.0000
% report space:tweezers
   tweezer         2   tweezer
% tweezer position
0.0000 -1.8750
% tweezer frequency
0.0000
% tweezer amplitude
0.0000

% end

% frame   268
% time 268.0000
% report space:tweezers
   tweezer         2   tweezer
% tweezer position
0.0000 -1.8750
% tweezer frequency
0.0000
% tweezer amplitude
0.0000

% end

% frame   269
% time 269.0000
% report space:tweezers
   tweezer         2   tweezer
% tweezer position
0.0000 -1.8750
% tweezer frequency
0.0000
% tweezer amplitude
0.0000

% end

% frame   270
% time 270.0000
% report space:tweezers
   tweezer         2   tweezer
% tweezer position
0.0000 -1.8750
% tweezer frequency
0.0000
% tweezer amplitude
0.0000

% end

% frame   271
% time 271.0000
% report space:tweezers
   tweezer         2   tweezer
% tweezer position
0.0000 -1.8750
% tweezer frequency
0.0000
% tweezer amplitude
0.0000

% end

% frame   272
% time 272.0000
% report space:tweezers
   tweezer         2   tweezer
% tweezer position
0.0000 -1.8750
% tweezer frequency
0.0000
% tweezer amplitude
0.0000

% end

% frame   273
% time 273.0000
% report space:tweezers
   tweezer         2   tweezer
% tweezer position
0.0000 -1.8750
% tweezer frequency
0.0000
% tweezer amplitude
0.0000

% end

% frame   274
% time 274.0000
% report space:tweezers
   tweezer         2   tweezer
% tweezer position
0.0000 -1.8750
% tweezer frequency
0.0000
% tweezer amplitude
0.0000

% end

% frame   275
% time 275.0000
% report space:tweezers
   tweezer         2   tweezer
% tweezer position
0.0000 -1.8750
% tweezer frequency
0.0000
% tweezer amplitude
0.0000

% end

% frame   276
% time 276.0000
% report space:tweezers
   tweezer         2   tweezer
% tweezer position
0.0000 -1.8750
% tweezer frequency
0.0000
% tweezer amplitude
0.0000

% end

% frame   277
% time 277.0000
% report space:tweezers
   tweezer         2   tweezer
% tweezer position
0.0000 -1.8750
% tweezer frequency
0.0000
% tweezer amplitude
0.0000

% end

% frame   278
% time 278.0000
% report space:tweezers
   tweezer         2   tweezer
% tweezer position
0.0000 -1.8750
% tweezer frequency
0.0000
% tweezer amplitude
0.0000

% end

% frame   279
% time 279.0000
% report space:tweezers
   tweezer         2   tweezer
% tweezer position
0.0000 -1.8750
% tweezer frequency
0.0000
% tweezer amplitude
0.0000

% end

% frame   280
% time 280.0000
% report space:tweezers
   tweezer         2   tweezer
% tweezer position
0.0000 -1.8750
% tweezer frequency
0.0000
% tweezer amplitude
0.0000

% end

% frame   281
% time 281.0000
% report space:tweezers
   tweezer         2   tweezer
% tweezer position
0.0000 -1.8750
% tweezer frequency
0.0000
% tweezer amplitude
0.0000

% end

% frame   282
% time 282.0000
% report space:tweezers
   tweezer         2   tweezer
% tweezer position
0.0000 -1.8750
% tweezer frequency
0.0000
% tweezer amplitude
0.0000

% end

% frame   283
% time 283.0000
% report space:tweezers
   tweezer         2   tweezer
% tweezer position
0.0000 -1.8750
% tweezer frequency
0.0000
% tweezer amplitude
0.0000

% end

% frame   284
% time 284.0000
% report space:tweezers
   tweezer         2   tweezer
% tweezer position
0.0000 -1.8750
% tweezer frequency
0.0000
% tweezer amplitude
0.0000

% end

% frame   285
% time 285.0000
% report space:tweezers
   tweezer         2   tweezer
% tweezer position
0.0000 -1.8750
% tweezer frequency
0.0000
% tweezer amplitude
0.0000

% end

% frame   286
% time 286.0000
% report space:tweezers
   tweezer         2   tweezer
% tweezer position
0.0000 -1.8750
% tweezer frequency
0.0000
% tweezer amplitude
0.0000

% end

% frame   287
% time 287.0000
% report space:tweezers
   tweezer         2   tweezer
% tweezer position
0.0000 -1.8750
% tweezer frequency
0.0000
% tweezer amplitude
0.0000

% end

% frame   288
% time 288.0000
% report space:tweezers
   tweezer         2   tweezer
% tweezer position
0.0000 -1.8750
% tweezer frequency
0.0000
% tweezer amplitude
0.0000

% end

% frame   289
% time 289.0000
% report space:tweezers
   tweezer         2   tweezer
% tweezer position
0.0000 -1.8750
% tweezer frequency
0.0000
% tweezer amplitude
0.0000

% end

% frame   290
% time 290.0000
% report space:tweezers
   tweezer         2   tweezer
% tweezer position
0.0000 -1.8750
% tweezer frequency
0.0000
% tweezer amplitude
0.0000

% end

% frame   291
% time 291.0000
% report space:tweezers
   tweezer         2   tweezer
% tweezer position
0.0000 -1.8750
% tweezer frequency
0.0000
% tweezer amplitude
0.0000

% end

% frame   292
% time 292.0000
% report space:tweezers
   tweezer         2   tweezer
% tweezer position
0.0000 -1.8750
% tweezer frequency
0.0000
% tweezer amplitude
0.0000

% end

% frame   293
% time 293.0000
% report space:tweezers
   tweezer         2   tweezer
% tweezer position
0.0000 -1.8750
% tweezer frequency
0.0000
% tweezer amplitude
0.0000

% end

% frame   294
% time 294.0000
% report space:tweezers
   tweezer         2   tweezer
% tweezer position
0.0000 -1.8750
% tweezer frequency
0.0000
% tweezer amplitude
0.0000

% end

% frame   295
% time 295.0000
% report space:tweezers
   tweezer         2   tweezer
% tweezer position
0.0000 -1.8750
% tweezer frequency
0.0000
% tweezer amplitude
0.0000

% end

% frame   296
% time 296.0000
% report space:tweezers
   tweezer         2   tweezer
% tweezer position
0.0000 -1.8750
% tweezer frequency
0.0000
% tweezer amplitude
0.0000

% end

% frame   297
% time 297.0000
% report space:tweezers
   tweezer         2   tweezer
% tweezer position
0.0000 -1.8750
% tweezer frequency
0.0000
% tweezer amplitude
0.0000

% end

% frame   298
% time 298.0000
% report space:tweezers
   tweezer         2   tweezer
% tweezer position
0.0000 -1.8750
% tweezer frequency
0.0000
% tweezer amplitude
0.0000

% end

% frame   299
% time 299.0000
% report space:tweezers
   tweezer         2   tweezer
% tweezer position
0.0000 -1.8750
% tweezer frequency
0.0000
% tweezer amplitude
0.0000

% end

% frame   300
% time 300.0000
% report space:tweezers
   tweezer         2   tweezer
% tweezer position
0.0000 -1.8750
% tweezer frequency
0.0000
% tweezer amplitude
0.0000

% end

% frame   301
% time 301.0000
% report space:tweezers
   tweezer         2   tweezer
% tweezer position
0.0000 -1.8750
% tweezer frequency
0.0000
% tweezer amplitude
0.0000

% end

% frame   302
% time 302.0000
% report space:tweezers
   tweezer         2   tweezer
% tweezer position
0.0000 -1.8750
% tweezer frequency
0.0000
% tweezer amplitude
0.0000

% end

% frame   303
% time 303.0000
% report space:tweezers
   tweezer         2   tweezer
% tweezer position
0.0000 -1.8750
% tweezer frequency
0.0000
% tweezer amplitude
0.0000

% end

% frame   304
% time 304.0000
% report space:tweezers
   tweezer         2   tweezer
% tweezer position
0.0000 -1.8750
% tweezer frequency
0.0000
% tweezer amplitude
0.0000

% end

% frame   305
% time 305.0000
% report space:tweezers
   tweezer         2   tweezer
% tweezer position
0.0000 -1.8750
% tweezer frequency
0.0000
% tweezer amplitude
0.0000

% end

% frame   306
% time 306.0000
% report space:tweezers
   tweezer         2   tweezer
% tweezer position
0.0000 -1.8750
% tweezer frequency
0.0000
% tweezer amplitude
0.0000

% end

% frame   307
% time 307.0000
% report space:tweezers
   tweezer         2   tweezer
% tweezer position
0.0000 -1.8750
% tweezer frequency
0.0000
% tweezer amplitude
0.0000

% end

% frame   308
% time 308.0000
% report space:tweezers
   tweezer         2   tweezer
% tweezer position
0.0000 -1.8750
% tweezer frequency
0.0000
% tweezer amplitude
0.0000

% end

% frame   309
% time 309.0000
% report space:tweezers
   tweezer         2   tweezer
% tweezer position
0.0000 -1.8750
% tweezer frequency
0.0000
% tweezer amplitude
0.0000

% end

% frame   310
% time 310.0000
% report space:tweezers
   tweezer         2   tweezer
% tweezer position
0.0000 -1.8750
% tweezer frequency
0.0000
% tweezer amplitude
0.0000

% end

% frame   311
% time 311.0000
% report space:tweezers
   tweezer         2   tweezer
% tweezer position
0.0000 -1.8750
% tweezer frequency
0.0000
% tweezer amplitude
0.0000

% end

% frame   312
% time 312.0000
% report space:tweezers
   tweezer         2   tweezer
% tweezer position
0.0000 -1.8750
% tweezer frequency
0.0000
% tweezer amplitude
0.0000

% end

% frame   313
% time 313.0000
% report space:tweezers
   tweezer         2   tweezer
% tweezer position
0.0000 -1.8750
% tweezer frequency
0.0000
% tweezer amplitude
0.0000

% end

% frame   314
% time 314.0000
% report space:tweezers
   tweezer         2   tweezer
% tweezer position
0.0000 -1.8750
% tweezer frequency
0.0000
% tweezer amplitude
0.0000

% end

% frame   315
% time 315.0000
% report space:tweezers
   tweezer         2   tweezer
% tweezer position
0.0000 -1.8750
% tweezer frequency
0.0000
% tweezer amplitude
0.0000

% end

% frame   316
% time 316.0000
% report space:tweezers
   tweezer         2   tweezer
% tweezer position
0.0000 -1.8750
% tweezer frequency
0.0000
% tweezer amplitude
0.0000

% end

% frame   317
% time 317.0000
% report space:tweezers
   tweezer         2   tweezer
% tweezer position
0.0000 -1.8750
% tweezer frequency
0.0000
% tweezer amplitude
0.0000

% end

% frame   318
% time 318.0000
% report space:tweezers
   tweezer         2   tweezer
% tweezer position
0.0000 -1.8750
% tweezer frequency
0.0000
% tweezer amplitude
0.0000

% end

% frame   319
% time 319.0000
% report space:tweezers
   tweezer         2   tweezer
% tweezer position
0.0000 -1.8750
% tweezer frequency
0.0000
% tweezer amplitude
0.0000

% end

% frame   320
% time 320.0000
% report space:tweezers
   tweezer         2   tweezer
% tweezer position
0.0000 -1.8750
% tweezer frequency
0.0000
% tweezer amplitude
0.0000

% end

% frame   321
% time 321.0000
% report space:tweezers
   tweezer         2   tweezer
% tweezer position
0.0000 -1.8750
% tweezer frequency
0.0000
% tweezer amplitude
0.0000

% end

% frame   322
% time 322.0000
% report space:tweezers
   tweezer         2   tweezer
% tweezer position
0.0000 -1.8750
% tweezer frequency
0.0000
% tweezer amplitude
0.0000

% end

% frame   323
% time 323.0000
% report space:tweezers
   tweezer         2   tweezer
% tweezer position
0.0000 -1.8750
% tweezer frequency
0.0000
% tweezer amplitude
0.0000

% end

% frame   324
% time 324.0000
% report space:tweezers
   tweezer         2   tweezer
% tweezer position
0.0000 -1.8750
% tweezer frequency
0.0000
% tweezer amplitude
0.0000

% end

% frame   325
% time 325.0000
% report space:tweezers
   tweezer         2   tweezer
% tweezer position
0.0000 -1.8750
% tweezer frequency
0.0000
% tweezer amplitude
0.0000

% end

% frame   326
% time 326.0000
% report space:tweezers
   tweezer         2   tweezer
% tweezer position
0.0000 -1.8750
% tweezer frequency
0.0000
% tweezer amplitude
0.0000

% end

% frame   327
% time 327.0000
% report space:tweezers
   tweezer         2   tweezer
% tweezer position
0.0000 -1.8750
% tweezer frequency
0.0000
% tweezer amplitude
0.0000

% end

% frame   328
% time 328.0000
% report space:tweezers
   tweezer         2   tweezer
% tweezer position
0.0000 -1.8750
% tweezer frequency
0.0000
% tweezer amplitude
0.0000

% end

% frame   329
% time 329.0000
% report space:tweezers
   tweezer         2   tweezer
% tweezer position
0.0000 -1.8750
% tweezer frequency
0.0000
% tweezer amplitude
0.0000

% end

% frame   330
% time 330.0000
% report space:tweezers
   tweezer         2   tweezer
% tweezer position
0.0000 -1.8750
% tweezer frequency
0.0000
% tweezer amplitude
0.0000

% end

% frame   331
% time 331.0000
% report space:tweezers
   tweezer         2   tweezer
% tweezer position
0.0000 -1.8750
% tweezer frequency
0.0000
% tweezer amplitude
0.0000

% end

% frame   332
% time 332.0000
% report space:tweezers
   tweezer         2   tweezer
% tweezer position
0.0000 -1.8750
% tweezer frequency
0.0000
% tweezer amplitude
0.0000

% end

% frame   333
% time 333.0000
% report space:tweezers
   tweezer         2   tweezer
% tweezer position
0.0000 -1.8750
% tweezer frequency
0.0000
% tweezer amplitude
0.0000

% end

% frame   334
% time 334.0000
% report space:tweezers
   tweezer         2   tweezer
% tweezer position
0.0000 -1.8750
% tweezer frequency
0.0000
% tweezer amplitude
0.0000

% end

% frame   335
% time 335.0000
% report space:tweezers
   tweezer         2   tweezer
% tweezer position
0.0000 -1.8750
% tweezer frequency
0.0000
% tweezer amplitude
0.0000

% end

% frame   336
% time 336.0000
% report space:tweezers
   tweezer         2   tweezer
% tweezer position
0.0000 -1.8750
% tweezer frequency
0.0000
% tweezer amplitude
0.0000

% end

% frame   337
% time 337.0000
% report space:tweezers
   tweezer         2   tweezer
% tweezer position
0.0000 -1.8750
% tweezer frequency
0.0000
% tweezer amplitude
0.0000

% end

% frame   338
% time 338.0000
% report space:tweezers
   tweezer         2   tweezer
% tweezer position
0.0000 -1.8750
% tweezer frequency
0.0000
% tweezer amplitude
0.0000

% end

% frame   339
% time 339.0000
% report space:tweezers
   tweezer         2   tweezer
% tweezer position
0.0000 -1.8750
% tweezer frequency
0.0000
% tweezer amplitude
0.0000

% end

% frame   340
% time 340.0000
% report space:tweezers
   tweezer         2   tweezer
% tweezer position
0.0000 -1.8750
% tweezer frequency
0.0000
% tweezer amplitude
0.0000

% end

% frame   341
% time 341.0000
% report space:tweezers
   tweezer         2   tweezer
% tweezer position
0.0000 -1.8750
% tweezer frequency
0.0000
% tweezer amplitude
0.0000

% end

% frame   342
% time 342.0000
% report space:tweezers
   tweezer         2   tweezer
% tweezer position
0.0000 -1.8750
% tweezer frequency
0.0000
% tweezer amplitude
0.0000

% end

% frame   343
% time 343.0000
% report space:tweezers
   tweezer         2   tweezer
% tweezer position
0.0000 -1.8750
% tweezer frequency
0.0000
% tweezer amplitude
0.0000

% end

% frame   344
% time 344.0000
% report space:tweezers
   tweezer         2   tweezer
% tweezer position
0.0000 -1.8750
% tweezer frequency
0.0000
% tweezer amplitude
0.0000

% end

% frame   345
% time 345.0000
% report space:tweezers
   tweezer         2   tweezer
% tweezer position
0.0000 -1.8750
% tweezer frequency
0.0000
% tweezer amplitude
0.0000

% end

% frame   346
% time 346.0000
% report space:tweezers
   tweezer         2   tweezer
% tweezer position
0.0000 -1.8750
% tweezer frequency
0.0000
% tweezer amplitude
0.0000

% end

% frame   347
% time 347.0000
% report space:tweezers
   tweezer         2   tweezer
% tweezer position
0.0000 -1.8750
% tweezer frequency
0.0000
% tweezer amplitude
0.0000

% end

% frame   348
% time 348.0000
% report space:tweezers
   tweezer         2   tweezer
% tweezer position
0.0000 -1.8750
% tweezer frequency
0.0000
% tweezer amplitude
0.0000

% end

% frame   349
% time 349.0000
% report space:tweezers
   tweezer         2   tweezer
% tweezer position
0.0000 -1.8750
% tweezer frequency
0.0000
% tweezer amplitude
0.0000

% end

% frame   350
% time 350.0000
% report space:tweezers
   tweezer         2   tweezer
% tweezer position
0.0000 -1.8750
% tweezer frequency
0.0000
% tweezer amplitude
0.0000

% end

% frame   351
% time 351.0000
% report space:tweezers
   tweezer         2   tweezer
% tweezer position
0.0000 -1.8750
% tweezer frequency
0.0000
% tweezer amplitude
0.0000

% end

% frame   352
% time 352.0000
% report space:tweezers
   tweezer         2   tweezer
% tweezer position
0.0000 -1.8750
% tweezer frequency
0.0000
% tweezer amplitude
0.0000

% end

% frame   353
% time 353.0000
% report space:tweezers
   tweezer         2   tweezer
% tweezer position
0.0000 -1.8750
% tweezer frequency
0.0000
% tweezer amplitude
0.0000

% end

% frame   354
% time 354.0000
% report space:tweezers
   tweezer         2   tweezer
% tweezer position
0.0000 -1.8750
% tweezer frequency
0.0000
% tweezer amplitude
0.0000

% end

% frame   355
% time 355.0000
% report space:tweezers
   tweezer         2   tweezer
% tweezer position
0.0000 -1.8750
% tweezer frequency
0.0000
% tweezer amplitude
0.0000

% end

% frame   356
% time 356.0000
% report space:tweezers
   tweezer         2   tweezer
% tweezer position
0.0000 -1.8750
% tweezer frequency
0.0000
% tweezer amplitude
0.0000

% end

% frame   357
% time 357.0000
% report space:tweezers
   tweezer         2   tweezer
% tweezer position
0.0000 -1.8750
% tweezer frequency
0.0000
% tweezer amplitude
0.0000

% end

% frame   358
% time 358.0000
% report space:tweezers
   tweezer         2   tweezer
% tweezer position
0.0000 -1.8750
% tweezer frequency
0.0000
% tweezer amplitude
0.0000

% end

% frame   359
% time 359.0000
% report space:tweezers
   tweezer         2   tweezer
% tweezer position
0.0000 -1.8750
% tweezer frequency
0.0000
% tweezer amplitude
0.0000

% end

% frame   360
% time 360.0000
% report space:tweezers
   tweezer         2   tweezer
% tweezer position
0.0000 -1.8750
% tweezer frequency
0.0000
% tweezer amplitude
0.0000

% end

% frame   361
% time 361.0000
% report space:tweezers
   tweezer         2   tweezer
% tweezer position
0.0000 -1.8750
% tweezer frequency
0.0000
% tweezer amplitude
0.0000

% end

% frame   362
% time 362.0000
% report space:tweezers
   tweezer         2   tweezer
% tweezer position
0.0000 -1.8750
% tweezer frequency
0.0000
% tweezer amplitude
0.0000

% end

% frame   363
% time 363.0000
% report space:tweezers
   tweezer         2   tweezer
% tweezer position
0.0000 -1.8750
% tweezer frequency
0.0000
% tweezer amplitude
0.0000

% end

% frame   364
% time 364.0000
% report space:tweezers
   tweezer         2   tweezer
% tweezer position
0.0000 -1.8750
% tweezer frequency
0.0000
% tweezer amplitude
0.0000

% end

% frame   365
% time 365.0000
% report space:tweezers
   tweezer         2   tweezer
% tweezer position
0.0000 -1.8750
% tweezer frequency
0.0000
% tweezer amplitude
0.0000

% end

% frame   366
% time 366.0000
% report space:tweezers
   tweezer         2   tweezer
% tweezer position
0.0000 -1.8750
% tweezer frequency
0.0000
% tweezer amplitude
0.0000

% end

% frame   367
% time 367.0000
% report space:tweezers
   tweezer         2   tweezer
% tweezer position
0.0000 -1.8750
% tweezer frequency
0.0000
% tweezer amplitude
0.0000

% end

% frame   368
% time 368.0000
% report space:tweezers
   tweezer         2   tweezer
% tweezer position
0.0000 -1.8750
% tweezer frequency
0.0000
% tweezer amplitude
0.0000

% end

% frame   369
% time 369.0000
% report space:tweezers
   tweezer         2   tweezer
% tweezer position
0.0000 -1.8750
% tweezer frequency
0.0000
% tweezer amplitude
0.0000

% end

% frame   370
% time 370.0000
% report space:tweezers
   tweezer         2   tweezer
% tweezer position
0.0000 -1.8750
% tweezer frequency
0.0000
% tweezer amplitude
0.0000

% end

% frame   371
% time 371.0000
% report space:tweezers
   tweezer         2   tweezer
% tweezer position
0.0000 -1.8750
% tweezer frequency
0.0000
% tweezer amplitude
0.0000

% end

% frame   372
% time 372.0000
% report space:tweezers
   tweezer         2   tweezer
% tweezer position
0.0000 -1.8750
% tweezer frequency
0.0000
% tweezer amplitude
0.0000

% end

% frame   373
% time 373.0000
% report space:tweezers
   tweezer         2   tweezer
% tweezer position
0.0000 -1.8750
% tweezer frequency
0.0000
% tweezer amplitude
0.0000

% end

% frame   374
% time 374.0000
% report space:tweezers
   tweezer         2   tweezer
% tweezer position
0.0000 -1.8750
% tweezer frequency
0.0000
% tweezer amplitude
0.0000

% end

% frame   375
% time 375.0000
% report space:tweezers
   tweezer         2   tweezer
% tweezer position
0.0000 -1.8750
% tweezer frequency
0.0000
% tweezer amplitude
0.0000

% end

% frame   376
% time 376.0000
% report space:tweezers
   tweezer         2   tweezer
% tweezer position
0.0000 -1.8750
% tweezer frequency
0.0000
% tweezer amplitude
0.0000

% end

% frame   377
% time 377.0000
% report space:tweezers
   tweezer         2   tweezer
% tweezer position
0.0000 -1.8750
% tweezer frequency
0.0000
% tweezer amplitude
0.0000

% end

% frame   378
% time 378.0000
% report space:tweezers
   tweezer         2   tweezer
% tweezer position
0.0000 -1.8750
% tweezer frequency
0.0000
% tweezer amplitude
0.0000

% end

% frame   379
% time 379.0000
% report space:tweezers
   tweezer         2   tweezer
% tweezer position
0.0000 -1.8750
% tweezer frequency
0.0000
% tweezer amplitude
0.0000

% end

% frame   380
% time 380.0000
% report space:tweezers
   tweezer         2   tweezer
% tweezer position
0.0000 -1.8750
% tweezer frequency
0.0000
% tweezer amplitude
0.0000

% end

% frame   381
% time 381.0000
% report space:tweezers
   tweezer         2   tweezer
% tweezer position
0.0000 -1.8750
% tweezer frequency
0.0000
% tweezer amplitude
0.0000

% end

% frame   382
% time 382.0000
% report space:tweezers
   tweezer         2   tweezer
% tweezer position
0.0000 -1.8750
% tweezer frequency
0.0000
% tweezer amplitude
0.0000

% end

% frame   383
% time 383.0000
% report space:tweezers
   tweezer         2   tweezer
% tweezer position
0.0000 -1.8750
% tweezer frequency
0.0000
% tweezer amplitude
0.0000

% end

% frame   384
% time 384.0000
% report space:tweezers
   tweezer         2   tweezer
% tweezer position
0.0000 -1.8750
% tweezer frequency
0.0000
% tweezer amplitude
0.0000

% end

% frame   385
% time 385.0000
% report space:tweezers
   tweezer         2   tweezer
% tweezer position
0.0000 -1.8750
% tweezer frequency
0.0000
% tweezer amplitude
0.0000

% end

% frame   386
% time 386.0000
% report space:tweezers
   tweezer         2   tweezer
% tweezer position
0.0000 -1.8750
% tweezer frequency
0.0000
% tweezer amplitude
0.0000

% end

% frame   387
% time 387.0000
% report space:tweezers
   tweezer         2   tweezer
% tweezer position
0.0000 -1.8750
% tweezer frequency
0.0000
% tweezer amplitude
0.0000

% end

% frame   388
% time 388.0000
% report space:tweezers
   tweezer         2   tweezer
% tweezer position
0.0000 -1.8750
% tweezer frequency
0.0000
% tweezer amplitude
0.0000

% end

% frame   389
% time 389.0000
% report space:tweezers
   tweezer         2   tweezer
% tweezer position
0.0000 -1.8750
% tweezer frequency
0.0000
% tweezer amplitude
0.0000

% end

% frame   390
% time 390.0000
% report space:tweezers
   tweezer         2   tweezer
% tweezer position
0.0000 -1.8750
% tweezer frequency
0.0000
% tweezer amplitude
0.0000

% end

% frame   391
% time 391.0000
% report space:tweezers
   tweezer         2   tweezer
% tweezer position
0.0000 -1.8750
% tweezer frequency
0.0000
% tweezer amplitude
0.0000

% end

% frame   392
% time 392.0000
% report space:tweezers
   tweezer         2   tweezer
% tweezer position
0.0000 -1.8750
% tweezer frequency
0.0000
% tweezer amplitude
0.0000

% end

% frame   393
% time 393.0000
% report space:tweezers
   tweezer         2   tweezer
% tweezer position
0.0000 -1.8750
% tweezer frequency
0.0000
% tweezer amplitude
0.0000

% end

% frame   394
% time 394.0000
% report space:tweezers
   tweezer         2   tweezer
% tweezer position
0.0000 -1.8750
% tweezer frequency
0.0000
% tweezer amplitude
0.0000

% end

% frame   395
% time 395.0000
% report space:tweezers
   tweezer         2   tweezer
% tweezer position
0.0000 -1.8750
% tweezer frequency
0.0000
% tweezer amplitude
0.0000

% end

% frame   396
% time 396.0000
% report space:tweezers
   tweezer         2   tweezer
% tweezer position
0.0000 -1.8750
% tweezer frequency
0.0000
% tweezer amplitude
0.0000

% end

% frame   397
% time 397.0000
% report space:tweezers
   tweezer         2   tweezer
% tweezer position
0.0000 -1.8750
% tweezer frequency
0.0000
% tweezer amplitude
0.0000

% end

% frame   398
% time 398.0000
% report space:tweezers
   tweezer         2   tweezer
% tweezer position
0.0000 -1.8750
% tweezer frequency
0.0000
% tweezer amplitude
0.0000

% end

% frame   399
% time 399.0000
% report space:tweezers
   tweezer         2   tweezer
% tweezer position
0.0000 -1.8750
% tweezer frequency
0.0000
% tweezer amplitude
0.0000

% end

% frame   400
% time 400.0000
% report space:tweezers
   tweezer         2   tweezer
% tweezer position
0.0000 -1.8750
% tweezer frequency
0.0000
% tweezer amplitude
0.0000

% end

% frame   401
% time 401.0000
% report space:tweezers
   tweezer         2   tweezer
% tweezer position
0.0000 -1.8750
% tweezer frequency
0.0000
% tweezer amplitude
0.0000

% end

% frame   402
% time 402.0000
% report space:tweezers
   tweezer         2   tweezer
% tweezer position
0.0000 -1.8750
% tweezer frequency
0.0000
% tweezer amplitude
0.0000

% end

% frame   403
% time 403.0000
% report space:tweezers
   tweezer         2   tweezer
% tweezer position
0.0000 -1.8750
% tweezer frequency
0.0000
% tweezer amplitude
0.0000

% end

% frame   404
% time 404.0000
% report space:tweezers
   tweezer         2   tweezer
% tweezer position
0.0000 -1.8750
% tweezer frequency
0.0000
% tweezer amplitude
0.0000

% end

% frame   405
% time 405.0000
% report space:tweezers
   tweezer         2   tweezer
% tweezer position
0.0000 -1.8750
% tweezer frequency
0.0000
% tweezer amplitude
0.0000

% end

% frame   406
% time 406.0000
% report space:tweezers
   tweezer         2   tweezer
% tweezer position
0.0000 -1.8750
% tweezer frequency
0.0000
% tweezer amplitude
0.0000

% end

% frame   407
% time 407.0000
% report space:tweezers
   tweezer         2   tweezer
% tweezer position
0.0000 -1.8750
% tweezer frequency
0.0000
% tweezer amplitude
0.0000

% end

% frame   408
% time 408.0000
% report space:tweezers
   tweezer         2   tweezer
% tweezer position
0.0000 -1.8750
% tweezer frequency
0.0000
% tweezer amplitude
0.0000

% end

% frame   409
% time 409.0000
% report space:tweezers
   tweezer         2   tweezer
% tweezer position
0.0000 -1.8750
% tweezer frequency
0.0000
% tweezer amplitude
0.0000

% end

% frame   410
% time 410.0000
% report space:tweezers
   tweezer         2   tweezer
% tweezer position
0.0000 -1.8750
% tweezer frequency
0.0000
% tweezer amplitude
0.0000

% end

% frame   411
% time 411.0000
% report space:tweezers
   tweezer         2   tweezer
% tweezer position
0.0000 -1.8750
% tweezer frequency
0.0000
% tweezer amplitude
0.0000

% end

% frame   412
% time 412.0000
% report space:tweezers
   tweezer         2   tweezer
% tweezer position
0.0000 -1.8750
% tweezer frequency
0.0000
% tweezer amplitude
0.0000

% end

% frame   413
% time 413.0000
% report space:tweezers
   tweezer         2   tweezer
% tweezer position
0.0000 -1.8750
% tweezer frequency
0.0000
% tweezer amplitude
0.0000

% end

% frame   414
% time 414.0000
% report space:tweezers
   tweezer         2   tweezer
% tweezer position
0.0000 -1.8750
% tweezer frequency
0.0000
% tweezer amplitude
0.0000

% end

% frame   415
% time 415.0000
% report space:tweezers
   tweezer         2   tweezer
% tweezer position
0.0000 -1.8750
% tweezer frequency
0.0000
% tweezer amplitude
0.0000

% end

% frame   416
% time 416.0000
% report space:tweezers
   tweezer         2   tweezer
% tweezer position
0.0000 -1.8750
% tweezer frequency
0.0000
% tweezer amplitude
0.0000

% end

% frame   417
% time 417.0000
% report space:tweezers
   tweezer         2   tweezer
% tweezer position
0.0000 -1.8750
% tweezer frequency
0.0000
% tweezer amplitude
0.0000

% end

% frame   418
% time 418.0000
% report space:tweezers
   tweezer         2   tweezer
% tweezer position
0.0000 -1.8750
% tweezer frequency
0.0000
% tweezer amplitude
0.0000

% end

% frame   419
% time 419.0000
% report space:tweezers
   tweezer         2   tweezer
% tweezer position
0.0000 -1.8750
% tweezer frequency
0.0000
% tweezer amplitude
0.0000

% end

% frame   420
% time 420.0000
% report space:tweezers
   tweezer         2   tweezer
% tweezer position
0.0000 -1.8750
% tweezer frequency
0.0000
% tweezer amplitude
0.0000

% end

% frame   421
% time 421.0000
% report space:tweezers
   tweezer         2   tweezer
% tweezer position
0.0000 -1.8750
% tweezer frequency
0.0000
% tweezer amplitude
0.0000

% end

% frame   422
% time 422.0000
% report space:tweezers
   tweezer         2   tweezer
% tweezer position
0.0000 -1.8750
% tweezer frequency
0.0000
% tweezer amplitude
0.0000

% end

% frame   423
% time 423.0000
% report space:tweezers
   tweezer         2   tweezer
% tweezer position
0.0000 -1.8750
% tweezer frequency
0.0000
% tweezer amplitude
0.0000

% end

% frame   424
% time 424.0000
% report space:tweezers
   tweezer         2   tweezer
% tweezer position
0.0000 -1.8750
% tweezer frequency
0.0000
% tweezer amplitude
0.0000

% end

% frame   425
% time 425.0000
% report space:tweezers
   tweezer         2   tweezer
% tweezer position
0.0000 -1.8750
% tweezer frequency
0.0000
% tweezer amplitude
0.0000

% end

% frame   426
% time 426.0000
% report space:tweezers
   tweezer         2   tweezer
% tweezer position
0.0000 -1.8750
% tweezer frequency
0.0000
% tweezer amplitude
0.0000

% end

% frame   427
% time 427.0000
% report space:tweezers
   tweezer         2   tweezer
% tweezer position
0.0000 -1.8750
% tweezer frequency
0.0000
% tweezer amplitude
0.0000

% end

% frame   428
% time 428.0000
% report space:tweezers
   tweezer         2   tweezer
% tweezer position
0.0000 -1.8750
% tweezer frequency
0.0000
% tweezer amplitude
0.0000

% end

% frame   429
% time 429.0000
% report space:tweezers
   tweezer         2   tweezer
% tweezer position
0.0000 -1.8750
% tweezer frequency
0.0000
% tweezer amplitude
0.0000

% end

% frame   430
% time 430.0000
% report space:tweezers
   tweezer         2   tweezer
% tweezer position
0.0000 -1.8750
% tweezer frequency
0.0000
% tweezer amplitude
0.0000

% end

% frame   431
% time 431.0000
% report space:tweezers
   tweezer         2   tweezer
% tweezer position
0.0000 -1.8750
% tweezer frequency
0.0000
% tweezer amplitude
0.0000

% end

% frame   432
% time 432.0000
% report space:tweezers
   tweezer         2   tweezer
% tweezer position
0.0000 -1.8750
% tweezer frequency
0.0000
% tweezer amplitude
0.0000

% end

% frame   433
% time 433.0000
% report space:tweezers
   tweezer         2   tweezer
% tweezer position
0.0000 -1.8750
% tweezer frequency
0.0000
% tweezer amplitude
0.0000

% end

% frame   434
% time 434.0000
% report space:tweezers
   tweezer         2   tweezer
% tweezer position
0.0000 -1.8750
% tweezer frequency
0.0000
% tweezer amplitude
0.0000

% end

% frame   435
% time 435.0000
% report space:tweezers
   tweezer         2   tweezer
% tweezer position
0.0000 -1.8750
% tweezer frequency
0.0000
% tweezer amplitude
0.0000

% end

% frame   436
% time 436.0000
% report space:tweezers
   tweezer         2   tweezer
% tweezer position
0.0000 -1.8750
% tweezer frequency
0.0000
% tweezer amplitude
0.0000

% end

% frame   437
% time 437.0000
% report space:tweezers
   tweezer         2   tweezer
% tweezer position
0.0000 -1.8750
% tweezer frequency
0.0000
% tweezer amplitude
0.0000

% end

% frame   438
% time 438.0000
% report space:tweezers
   tweezer         2   tweezer
% tweezer position
0.0000 -1.8750
% tweezer frequency
0.0000
% tweezer amplitude
0.0000

% end

% frame   439
% time 439.0000
% report space:tweezers
   tweezer         2   tweezer
% tweezer position
0.0000 -1.8750
% tweezer frequency
0.0000
% tweezer amplitude
0.0000

% end

% frame   440
% time 440.0000
% report space:tweezers
   tweezer         2   tweezer
% tweezer position
0.0000 -1.8750
% tweezer frequency
0.0000
% tweezer amplitude
0.0000

% end

% frame   441
% time 441.0000
% report space:tweezers
   tweezer         2   tweezer
% tweezer position
0.0000 -1.8750
% tweezer frequency
0.0000
% tweezer amplitude
0.0000

% end

% frame   442
% time 442.0000
% report space:tweezers
   tweezer         2   tweezer
% tweezer position
0.0000 -1.8750
% tweezer frequency
0.0000
% tweezer amplitude
0.0000

% end

% frame   443
% time 443.0000
% report space:tweezers
   tweezer         2   tweezer
% tweezer position
0.0000 -1.8750
% tweezer frequency
0.0000
% tweezer amplitude
0.0000

% end

% frame   444
% time 444.0000
% report space:tweezers
   tweezer         2   tweezer
% tweezer position
0.0000 -1.8750
% tweezer frequency
0.0000
% tweezer amplitude
0.0000

% end

% frame   445
% time 445.0000
% report space:tweezers
   tweezer         2   tweezer
% tweezer position
0.0000 -1.8750
% tweezer frequency
0.0000
% tweezer amplitude
0.0000

% end

% frame   446
% time 446.0000
% report space:tweezers
   tweezer         2   tweezer
% tweezer position
0.0000 -1.8750
% tweezer frequency
0.0000
% tweezer amplitude
0.0000

% end

% frame   447
% time 447.0000
% report space:tweezers
   tweezer         2   tweezer
% tweezer position
0.0000 -1.8750
% tweezer frequency
0.0000
% tweezer amplitude
0.0000

% end

% frame   448
% time 448.0000
% report space:tweezers
   tweezer         2   tweezer
% tweezer position
0.0000 -1.8750
% tweezer frequency
0.0000
% tweezer amplitude
0.0000

% end

% frame   449
% time 449.0000
% report space:tweezers
   tweezer         2   tweezer
% tweezer position
0.0000 -1.8750
% tweezer frequency
0.0000
% tweezer amplitude
0.0000

% end

% frame   450
% time 450.0000
% report space:tweezers
   tweezer         2   tweezer
% tweezer position
0.0000 -1.8750
% tweezer frequency
0.0000
% tweezer amplitude
0.0000

% end

% frame   451
% time 451.0000
% report space:tweezers
   tweezer         2   tweezer
% tweezer position
0.0000 -1.8750
% tweezer frequency
0.0000
% tweezer amplitude
0.0000

% end

% frame   452
% time 452.0000
% report space:tweezers
   tweezer         2   tweezer
% tweezer position
0.0000 -1.8750
% tweezer frequency
0.0000
% tweezer amplitude
0.0000

% end

% frame   453
% time 453.0000
% report space:tweezers
   tweezer         2   tweezer
% tweezer position
0.0000 -1.8750
% tweezer frequency
0.0000
% tweezer amplitude
0.0000

% end

% frame   454
% time 454.0000
% report space:tweezers
   tweezer         2   tweezer
% tweezer position
0.0000 -1.8750
% tweezer frequency
0.0000
% tweezer amplitude
0.0000

% end

% frame   455
% time 455.0000
% report space:tweezers
   tweezer         2   tweezer
% tweezer position
0.0000 -1.8750
% tweezer frequency
0.0000
% tweezer amplitude
0.0000

% end

% frame   456
% time 456.0000
% report space:tweezers
   tweezer         2   tweezer
% tweezer position
0.0000 -1.8750
% tweezer frequency
0.0000
% tweezer amplitude
0.0000

% end

% frame   457
% time 457.0000
% report space:tweezers
   tweezer         2   tweezer
% tweezer position
0.0000 -1.8750
% tweezer frequency
0.0000
% tweezer amplitude
0.0000

% end

% frame   458
% time 458.0000
% report space:tweezers
   tweezer         2   tweezer
% tweezer position
0.0000 -1.8750
% tweezer frequency
0.0000
% tweezer amplitude
0.0000

% end

% frame   459
% time 459.0000
% report space:tweezers
   tweezer         2   tweezer
% tweezer position
0.0000 -1.8750
% tweezer frequency
0.0000
% tweezer amplitude
0.0000

% end

% frame   460
% time 460.0000
% report space:tweezers
   tweezer         2   tweezer
% tweezer position
0.0000 -1.8750
% tweezer frequency
0.0000
% tweezer amplitude
0.0000

% end

% frame   461
% time 461.0000
% report space:tweezers
   tweezer         2   tweezer
% tweezer position
0.0000 -1.8750
% tweezer frequency
0.0000
% tweezer amplitude
0.0000

% end

% frame   462
% time 462.0000
% report space:tweezers
   tweezer         2   tweezer
% tweezer position
0.0000 -1.8750
% tweezer frequency
0.0000
% tweezer amplitude
0.0000

% end

% frame   463
% time 463.0000
% report space:tweezers
   tweezer         2   tweezer
% tweezer position
0.0000 -1.8750
% tweezer frequency
0.0000
% tweezer amplitude
0.0000

% end

% frame   464
% time 464.0000
% report space:tweezers
   tweezer         2   tweezer
% tweezer position
0.0000 -1.8750
% tweezer frequency
0.0000
% tweezer amplitude
0.0000

% end

% frame   465
% time 465.0000
% report space:tweezers
   tweezer         2   tweezer
% tweezer position
0.0000 -1.8750
% tweezer frequency
0.0000
% tweezer amplitude
0.0000

% end

% frame   466
% time 466.0000
% report space:tweezers
   tweezer         2   tweezer
% tweezer position
0.0000 -1.8750
% tweezer frequency
0.0000
% tweezer amplitude
0.0000

% end

% frame   467
% time 467.0000
% report space:tweezers
   tweezer         2   tweezer
% tweezer position
0.0000 -1.8750
% tweezer frequency
0.0000
% tweezer amplitude
0.0000

% end

% frame   468
% time 468.0000
% report space:tweezers
   tweezer         2   tweezer
% tweezer position
0.0000 -1.8750
% tweezer frequency
0.0000
% tweezer amplitude
0.0000

% end

% frame   469
% time 469.0000
% report space:tweezers
   tweezer         2   tweezer
% tweezer position
0.0000 -1.8750
% tweezer frequency
0.0000
% tweezer amplitude
0.0000

% end

% frame   470
% time 470.0000
% report space:tweezers
   tweezer         2   tweezer
% tweezer position
0.0000 -1.8750
% tweezer frequency
0.0000
% tweezer amplitude
0.0000

% end

% frame   471
% time 471.0000
% report space:tweezers
   tweezer         2   tweezer
% tweezer position
0.0000 -1.8750
% tweezer frequency
0.0000
% tweezer amplitude
0.0000

% end

% frame   472
% time 472.0000
% report space:tweezers
   tweezer         2   tweezer
% tweezer position
0.0000 -1.8750
% tweezer frequency
0.0000
% tweezer amplitude
0.0000

% end

% frame   473
% time 473.0000
% report space:tweezers
   tweezer         2   tweezer
% tweezer position
0.0000 -1.8750
% tweezer frequency
0.0000
% tweezer amplitude
0.0000

% end

% frame   474
% time 474.0000
% report space:tweezers
   tweezer         2   tweezer
% tweezer position
0.0000 -1.8750
% tweezer frequency
0.0000
% tweezer amplitude
0.0000

% end

% frame   475
% time 475.0000
% report space:tweezers
   tweezer         2   tweezer
% tweezer position
0.0000 -1.8750
% tweezer frequency
0.0000
% tweezer amplitude
0.0000

% end

% frame   476
% time 476.0000
% report space:tweezers
   tweezer         2   tweezer
% tweezer position
0.0000 -1.8750
% tweezer frequency
0.0000
% tweezer amplitude
0.0000

% end

% frame   477
% time 477.0000
% report space:tweezers
   tweezer         2   tweezer
% tweezer position
0.0000 -1.8750
% tweezer frequency
0.0000
% tweezer amplitude
0.0000

% end

% frame   478
% time 478.0000
% report space:tweezers
   tweezer         2   tweezer
% tweezer position
0.0000 -1.8750
% tweezer frequency
0.0000
% tweezer amplitude
0.0000

% end

% frame   479
% time 479.0000
% report space:tweezers
   tweezer         2   tweezer
% tweezer position
0.0000 -1.8750
% tweezer frequency
0.0000
% tweezer amplitude
0.0000

% end

% frame   480
% time 480.0000
% report space:tweezers
   tweezer         2   tweezer
% tweezer position
0.0000 -1.8750
% tweezer frequency
0.0000
% tweezer amplitude
0.0000

% end

% frame   481
% time 481.0000
% report space:tweezers
   tweezer         2   tweezer
% tweezer position
0.0000 -1.8750
% tweezer frequency
0.0000
% tweezer amplitude
0.0000

% end

% frame   482
% time 482.0000
% report space:tweezers
   tweezer         2   tweezer
% tweezer position
0.0000 -1.8750
% tweezer frequency
0.0000
% tweezer amplitude
0.0000

% end

% frame   483
% time 483.0000
% report space:tweezers
   tweezer         2   tweezer
% tweezer position
0.0000 -1.8750
% tweezer frequency
0.0000
% tweezer amplitude
0.0000

% end

% frame   484
% time 484.0000
% report space:tweezers
   tweezer         2   tweezer
% tweezer position
0.0000 -1.8750
% tweezer frequency
0.0000
% tweezer amplitude
0.0000

% end

% frame   485
% time 485.0000
% report space:tweezers
   tweezer         2   tweezer
% tweezer position
0.0000 -1.8750
% tweezer frequency
0.0000
% tweezer amplitude
0.0000

% end

% frame   486
% time 486.0000
% report space:tweezers
   tweezer         2   tweezer
% tweezer position
0.0000 -1.8750
% tweezer frequency
0.0000
% tweezer amplitude
0.0000

% end

% frame   487
% time 487.0000
% report space:tweezers
   tweezer         2   tweezer
% tweezer position
0.0000 -1.8750
% tweezer frequency
0.0000
% tweezer amplitude
0.0000

% end

% frame   488
% time 488.0000
% report space:tweezers
   tweezer         2   tweezer
% tweezer position
0.0000 -1.8750
% tweezer frequency
0.0000
% tweezer amplitude
0.0000

% end

% frame   489
% time 489.0000
% report space:tweezers
   tweezer         2   tweezer
% tweezer position
0.0000 -1.8750
% tweezer frequency
0.0000
% tweezer amplitude
0.0000

% end

% frame   490
% time 490.0000
% report space:tweezers
   tweezer         2   tweezer
% tweezer position
0.0000 -1.8750
% tweezer frequency
0.0000
% tweezer amplitude
0.0000

% end

% frame   491
% time 491.0000
% report space:tweezers
   tweezer         2   tweezer
% tweezer position
0.0000 -1.8750
% tweezer frequency
0.0000
% tweezer amplitude
0.0000

% end

% frame   492
% time 492.0000
% report space:tweezers
   tweezer         2   tweezer
% tweezer position
0.0000 -1.8750
% tweezer frequency
0.0000
% tweezer amplitude
0.0000

% end

% frame   493
% time 493.0000
% report space:tweezers
   tweezer         2   tweezer
% tweezer position
0.0000 -1.8750
% tweezer frequency
0.0000
% tweezer amplitude
0.0000

% end

% frame   494
% time 494.0000
% report space:tweezers
   tweezer         2   tweezer
% tweezer position
0.0000 -1.8750
% tweezer frequency
0.0000
% tweezer amplitude
0.0000

% end

% frame   495
% time 495.0000
% report space:tweezers
   tweezer         2   tweezer
% tweezer position
0.0000 -1.8750
% tweezer frequency
0.0000
% tweezer amplitude
0.0000

% end

% frame   496
% time 496.0000
% report space:tweezers
   tweezer         2   tweezer
% tweezer position
0.0000 -1.8750
% tweezer frequency
0.0000
% tweezer amplitude
0.0000

% end

% frame   497
% time 497.0000
% report space:tweezers
   tweezer         2   tweezer
% tweezer position
0.0000 -1.8750
% tweezer frequency
0.0000
% tweezer amplitude
0.0000

% end

% frame   498
% time 498.0000
% report space:tweezers
   tweezer         2   tweezer
% tweezer position
0.0000 -1.8750
% tweezer frequency
0.0000
% tweezer amplitude
0.0000

% end

% frame   499
% time 499.0000
% report space:tweezers
   tweezer         2   tweezer
% tweezer position
0.0000 -1.8750
% tweezer frequency
0.0000
% tweezer amplitude
0.0000

% end

% frame   500
% time 500.0000
% report space:tweezers
   tweezer         2   tweezer
% tweezer position
0.0000 -1.8750
% tweezer frequency
0.0000
% tweezer amplitude
0.0000

% end
